{
	"maxRiverItems": 300,
	"httpPort": 3000,
	"webSocketPort": 3001,
	"ctMinutesBetwBuilds": 5,
	"dataFolder": ".data/",
	"flDownloadPodcasts": false,
	"flWebSocketEnabled": false,
  "flAddItemsFromNewSubs": true,
  "urlServerHomePageSource": "https://www.cashlessconsumer.in/uploads/river-homepage.html",
  "urlFavicon" : "https://www.cashlessconsumer.in/static/img/favicon.png",
	"homePage": { 
		"panels": [
			{
				"title": "RBI",
				"river": "RBI.opml"
				},
			{
				"title": "ReBIT",
				"river": "ReBIT.opml"
				},
			{
				"title": "PayTech Company Blogs",
				"river": "PayTechBlogs.opml"
				},
			{
				"title": "News",
				"river": "News.opml"
				},
      {
				"title": "Policy",
				"river": "PolicyTanks.opml"
				},
			{
				"title": "#CashlessConsumer",
				"river": "CCTwitter.opml"
				}
			]
		}
	}
