{
    "prefs": {
        "enabled": true,
        "url": "https://twitrss.me/twitter_search_to_rss/?term=%23CashlessConsumer",
        "ctSecsBetwRenews": 86400,
        "flNonListSubscribe": false
    },
    "data": {
        "feedhash": ""
    },
    "stats": {
        "ctReads": 2,
        "ctReadErrors": 0,
        "ctConsecutiveReadErrors": 0,
        "ctItems": 21,
        "ctEnclosures": 0,
        "ctFeedTextChanges": 0,
        "ct304s": 0,
        "ctItemsTooOld": 0,
        "ctReadsSkipped": 0,
        "ctInfoReads": 1,
        "ctInfoWrites": 2,
        "whenSubscribed": "2018-10-31T17:10:35.084Z",
        "whenLastRead": "2018-11-05T05:14:32.000Z",
        "whenLastNewItem": "2018-11-05T05:14:32.000Z",
        "mostRecentPubDate": "2018-11-02T02:08:06.000Z",
        "whenLastInfoWrite": "2018-11-05T05:14:32.746Z",
        "whenLastReadError": "1970-01-01T00:00:00.000Z",
        "whenLastInfoRead": "2018-11-05T05:14:32.002Z",
        "lastReadError": "",
        "itemSerialnum": 0,
        "ctSecsLastRead": 0.694
    },
    "feedInfo": {
        "title": "Twitter search feed for: #cashlessconsumer.",
        "link": "https://twitter.com/search?f=tweets&src=typd&q=#cashlessconsumer",
        "description": "Twitter search feed for: #cashlessconsumer."
    },
    "history": [
        {
            "title": "++ #CashlessConsumer wants answerable regulator. \n\nPreliminary thoughts.  https://twitter.com/logic/status/1056379063223279617 …\n\nWe will put a consumer vision on regulatory governance, #PSS2018, spat between RBI and Government in context of payments (We believe PSS2018 is used as a additional weapon in battle)",
            "link": "https://twitter.com/logic/status/1057562613121515521",
            "description": "++ #CashlessConsumer wants answerable regulator. \n\nPreliminary thoughts.  https://twitter.com/logic/status/1056379063223279617&nbsp;&hellip;\n\nWe will put a consumer vision on regulatory governance, #PSS2018, spat between RBI and Government in context of payments (We believe ...",
            "guid": "https://twitter.com/logic/status/1057562613121515521",
            "when": "2018-10-31T17:10:35.081Z"
        },
        {
            "title": "#CashlessConsumer had some comments on @indicusfound policy brief - TOWARDS A MATURE DIGITAL PAYMENTS MARKET FOR INDIA\n\nOur comments  https://via.hypothes.is/https://us11.campaign-archive.com/?u=b1dc50f1953ee62e477bfb335&id=6e192ff342#annotations:query …: cc @sumitakale \n\n(Yes, @hypothes_is looks more exciting for #Policy commentary and we would love to use more)",
            "link": "https://twitter.com/logic/status/1056857688729178112",
            "description": "#CashlessConsumer had some comments on @indicusfound policy brief - TOWARDS A MATURE DIGITAL PAYMENTS MARKET FOR INDIA\n\nOur comments  https://via.hypothes.is/https://us11.campaign-archive.com/?u=b1dc50f1953ee62e477bfb335&amp;id=6e192ff342#annotations:query&nbsp;&hellip;: cc ...",
            "guid": "https://twitter.com/logic/status/1056857688729178112",
            "when": "2018-10-31T17:10:35.081Z"
        },
        {
            "title": "https://cashlessconsumer-river5.glitch.me/  Payments River of Feed is now in beta. \n\nTrack everything related to #India #paytech - @PCIUpdates member blogs, Media feeds, notifications from @RBI @ReserveBankIT , blogposts from policy tanks @indicusfound @dvaratrust, #CashlessConsumer tweets & more.",
            "link": "https://twitter.com/logic/status/1056439422483292160",
            "description": "https://cashlessconsumer-river5.glitch.me/&nbsp; Payments River of Feed is now in beta. \n\nTrack everything related to #India #paytech - @PCIUpdates member blogs, Media feeds, notifications from @RBI @ReserveBankIT , blogposts from policy tanks @indicusfound @dvaratrust, ...",
            "guid": "https://twitter.com/logic/status/1056439422483292160",
            "when": "2018-10-31T17:10:35.081Z"
        },
        {
            "title": "Thank you. More coming up on #PSS2018 exclusively. Also a line by line response to much publicised dissent on it and partial to response to speech by Dy Gov wrt payments. #CashlessConsumer",
            "link": "https://twitter.com/logic/status/1056254799925043201",
            "description": "Thank you. More coming up on #PSS2018 exclusively. Also a line by line response to much publicised dissent on it and partial to response to speech by Dy Gov wrt payments. #CashlessConsumer",
            "guid": "https://twitter.com/logic/status/1056254799925043201",
            "when": "2018-10-31T17:10:35.081Z"
        },
        {
            "title": "Reply to emails or back off @RBI. We need a functional regulator for payments. Not sleeping one. #CashlessConsumer.  https://twitter.com/dugalira/status/1055844415770673152 …",
            "link": "https://twitter.com/logic/status/1056216901007757312",
            "description": "Reply to emails or back off @RBI. We need a functional regulator for payments. Not sleeping one. #CashlessConsumer.  https://twitter.com/dugalira/status/1055844415770673152&nbsp;&hellip;",
            "guid": "https://twitter.com/logic/status/1056216901007757312",
            "when": "2018-10-31T17:10:35.081Z"
        },
        {
            "title": "#CashlessConsumer representation made to @MORTHIndia to review clause 16(1) of Motor Vehicle (Tourist Permit) Rules, 2018 mandating #FASTag on all tourist vehicles. \n\nFull Letter \n https://docs.google.com/document/d/e/2PACX-1vSQPlduk5v809FNylFZmWiAtI5gowYi4qZZV_OEeHhHJTQFnlLwgn6SMS8CuefTg7YGHUi919z3L-6D/pub …",
            "link": "https://twitter.com/logic/status/1056212002568204288",
            "description": "#CashlessConsumer representation made to @MORTHIndia to review clause 16(1) of Motor Vehicle (Tourist Permit) Rules, 2018 mandating #FASTag on all tourist vehicles. \n\nFull Letter \n ...",
            "guid": "https://twitter.com/logic/status/1056212002568204288",
            "when": "2018-10-31T17:10:35.081Z"
        },
        {
            "title": "#CashlessConsumer #RTIDesk Payments Transparency — Regulatory Penalties, National Security exceptions https://medium.com/cashlessconsumer/payments-transparency-regulatory-penalties-national-security-exceptions-aa2e647806b …",
            "link": "https://twitter.com/logic/status/1056071598447312896",
            "description": "#CashlessConsumer #RTIDesk Payments Transparency&#x200A;&mdash;&#x200A;Regulatory Penalties, National Security exceptions https://medium.com/cashlessconsumer/payments-transparency-regulatory-penalties-national-security-exceptions-aa2e647806b&nbsp;&hellip;",
            "guid": "https://twitter.com/logic/status/1056071598447312896",
            "when": "2018-10-31T17:10:35.081Z"
        },
        {
            "title": "Multiple fault lines on ease of use, speed, privacy, cost make payments in daily transit untenable as it stands. There need to be  a clear user charter for transitpaytech #PayTech. #CashlessConsumer would love to document and put a study. :)",
            "link": "https://twitter.com/logic/status/1055790852272996352",
            "description": "Multiple fault lines on ease of use, speed, privacy, cost make payments in daily transit untenable as it stands. There need to be  a clear user charter for transitpaytech #PayTech. #CashlessConsumer would love to document and put a study. :)",
            "guid": "https://twitter.com/logic/status/1055790852272996352",
            "when": "2018-10-31T17:10:35.081Z"
        },
        {
            "title": "#CashlessConsumer has data and privacy in its mandate. Privacy can't be traded for interoperability. Build privacy features, have data minimization, hear consumers out and involve them in design. Interoperability through centralization poses greater risk to everyone.",
            "link": "https://twitter.com/logic/status/1055789180167565312",
            "description": "#CashlessConsumer has data and privacy in its mandate. Privacy can't be traded for interoperability. Build privacy features, have data minimization, hear consumers out and involve them in design. Interoperability through centralization poses greater risk to everyone.",
            "guid": "https://twitter.com/logic/status/1055789180167565312",
            "when": "2018-10-31T17:10:35.081Z"
        },
        {
            "title": "The escalating of tension come after battles.\n\nProtectionist vs Free market forces\n\nRBI-NPCI-iSpirt ---- US Giants\n\n1. Payments data localisation (local only vs at least mirroring)\n2. Payments regulation (RBI centered vs independent)\n\nFor #CashlessConsumer there is no one side.",
            "link": "https://twitter.com/logic/status/1058178910418923520",
            "description": "The escalating of tension come after battles.\n\nProtectionist vs Free market forces\n\nRBI-NPCI-iSpirt ---- US Giants\n\n1. Payments data localisation (local only vs at least mirroring)\n2. Payments regulation (RBI centered vs independent)\n\nFor #CashlessConsumer there is no one side.",
            "guid": "https://twitter.com/logic/status/1058178910418923520",
            "when": "2018-11-05T05:14:32.000Z"
        },
        {
            "title": "#CashlessConsumer #RTI We asked @RBI for statistics on its awareness campaign through SMS, Missed Call, Email -- RBI Kehta Hai / RBISAY --  https://medium.com/cashlessconsumer/public-awareness-initiative-by-rbi-92be359b80b5 … Some interesting numbers here.pic.twitter.com/iCRvTCEV2P",
            "link": "https://twitter.com/logic/status/1057957809806102528",
            "description": "#CashlessConsumer #RTI We asked @RBI for statistics on its awareness campaign through SMS, Missed Call, Email -- RBI Kehta Hai / RBISAY --  https://medium.com/cashlessconsumer/public-awareness-initiative-by-rbi-92be359b80b5&nbsp;&hellip; Some interesting numbers ...",
            "guid": "https://twitter.com/logic/status/1057957809806102528",
            "when": "2018-11-05T05:14:32.000Z"
        },
        {
            "title": ". @NPCI_NPCI @BharatBillPay responds complaint of #CashlessConsumer on user consent. 2 months time to make changes to apps to make consent explicit.\n\nFinancial players must take user consent to access utility bills data: NPCI  http://toi.in/L0wA-b/a24gj  via @timesofindia",
            "link": "https://twitter.com/logic/status/1057858058871701504",
            "description": ". @NPCI_NPCI @BharatBillPay responds complaint of #CashlessConsumer on user consent. 2 months time to make changes to apps to make consent explicit.\n\nFinancial players must take user consent to access utility bills data: NPCI  http://toi.in/L0wA-b/a24gj&nbsp; via @timesofindia",
            "guid": "https://twitter.com/logic/status/1057858058871701504",
            "when": "2018-11-05T05:14:32.000Z"
        }
    ],
    "lists": [],
    "calendar": {}
}