{
    "ctItemsAdded": 10,
    "whenLastItemAdded": "2018-10-31T17:10:38.068Z",
    "ctSaves": 1,
    "whenLastSave": "2018-10-31T17:10:39.842Z",
    "flDirty": false,
    "ctRiverBuilds": 0,
    "whenLastRiverBuild": "1970-01-01T00:00:00.000Z",
    "items": [
        {
            "title": "PhonePe sees a 150% growth in transactions during Flipkart’s Big Billion Days",
            "link": "https://blog.phonepe.com/phonepe-sees-a-150-growth-in-transactions-during-flipkarts-big-billion-days-601af36d02d8?source=rss----725044d21903---4",
            "description": "Big offers, massive discounts and exciting cashbacks. Flipkart’s Big Billion Days saw millions of shoppers from across India shop for their favorite products. The sale also saw PhonePe create history with a 150% growth in transactions over last year.Here are some interesting ...",
            "permalink": "",
            "pubdate": "Mon Oct 22 2018 15:59:26 GMT+0000 (UTC)",
            "comments": "",
            "feedUrl": "https://blog.phonepe.com/feed",
            "when": "Wed Oct 31 2018 17:10:38 GMT+0000 (UTC)",
            "aggregator": "River5 v0.4.14",
            "id": 82,
            "fullDescription": "<figure><img alt=\"\" src=\"https://cdn-images-1.medium.com/max/1024/1*zaeHybLVYgnwOB-krTIh7Q.png\" /></figure><p>Big offers, massive discounts and exciting cashbacks. Flipkart’s Big Billion Days saw millions of shoppers from across India shop for their favorite products. The sale also saw PhonePe create history with a 150% growth in transactions over last year.</p><p>Here are some interesting highlights:</p><ul><li>The PhonePe platform processed transactions worth Rs.100 crore in a single day with over 50 transactions per second at peak.</li><li>UPI payments saw phenomenal growth and accounted for over 55% of all payments processed on the PhonePe platform during The Big Billion Days.</li><li>Users from all 29 states and 7 Union territories transacted on PhonePe during Flipkart’s Big Billion Days.</li></ul><figure><img alt=\"\" src=\"https://cdn-images-1.medium.com/max/1024/1*x_v43NdXnY89EM85xcM8Rw.png\" /></figure><p>This year’s Big Billion Days were larger both in value and the number of transactions we processed on the PhonePe platform. We saw a 25x jump in our transactions in a single day and despite unprecedented traffic on the app millions of shoppers could pay, transact and get instant cashback without any delays.</p><img src=\"https://medium.com/_/stat?event=post.clientViewed&referrerSource=full_rss&postId=601af36d02d8\" width=\"1\" height=\"1\"><hr><p><a href=\"https://blog.phonepe.com/phonepe-sees-a-150-growth-in-transactions-during-flipkarts-big-billion-days-601af36d02d8\">PhonePe sees a 150% growth in transactions during Flipkart’s Big Billion Days</a> was originally published in <a href=\"https://blog.phonepe.com\">PhonePe</a> on Medium, where people are continuing the conversation by highlighting and responding to this story.</p>"
        },
        {
            "title": "Fraud alert: Preventing malicious apps from accessing your data",
            "link": "https://blog.phonepe.com/fraud-alert-preventing-malicious-apps-from-accessing-your-data-3737b44ee70f?source=rss----725044d21903---4",
            "description": "This is an authored post by Radhakrishna R and Anuj BhansaliMr. Kumar was puzzled when he got an OTP message in the morning and a few minutes later got a message “9999/- has been debited from your bank account XXX bank”. He was always careful not to share his OTP with anyone. On ...",
            "permalink": "",
            "pubdate": "Fri Sep 28 2018 07:38:38 GMT+0000 (UTC)",
            "comments": "",
            "feedUrl": "https://blog.phonepe.com/feed",
            "when": "Wed Oct 31 2018 17:10:38 GMT+0000 (UTC)",
            "aggregator": "River5 v0.4.14",
            "id": 83,
            "fullDescription": "<figure><img alt=\"\" src=\"https://cdn-images-1.medium.com/max/1024/1*ARgPlBGl4YUT_mLby-eFLQ.gif\" /></figure><p><strong><em>This is an authored post by Radhakrishna R and Anuj Bhansali</em></strong></p><p>Mr. Kumar was puzzled when he got an OTP message in the morning and a few minutes later got a message “9999<em>/- has been debited from your bank account XXX bank</em>”. He was always careful not to share his OTP with anyone. On investigation it was found that Mr. Kumar had downloaded an app 3 days back which promised to give lucrative offers and more than 50% discounts on all e-commerce sites. What appeared to be a unsuspecting app was actually a malicious app which took admin privileges from Mr.Kumar using Android accessibility service and passed the OTP/Card number without asking the user.</p><figure><img alt=\"\" src=\"https://cdn-images-1.medium.com/max/368/1*ET4C6qQlYqwfRcFu5JS7sQ.png\" /></figure><p>This is not something we see everyday but this phenomena is seeing an upward trend in India since we tend to install apps from links/SMS/playstore without verifying the permissions required by these apps.</p><p>There have been recent cases of vulnerability in some Android apps due to the use of the Android accessibility service. This service might allow attackers to discover a user’s typed in Credit/Debit card details, pin and login post install of the malicious app.</p><p>In fact there was also a recent report circulating around on a vulnerability in the PhonePe app that *might* allow attackers to discover Credit/Debit card details that might have been added by the user post the malicious app install. We take user security very strictly and there has been no compromise on the credit card/debit card information. Accessibility just acts at a device level and has no implications on how data is transferred or stored.</p><p>In this blogpost we discuss how to prevent fraud by not allowing malicious apps from accessing your data.</p><figure><img alt=\"\" src=\"https://cdn-images-1.medium.com/max/368/1*mLpoWbgP3JlZ0XjIE-RHyw.png\" /></figure><p>Before we go into the technical details, we need to understand how this happens and what is Android accessibility. Android accessibility service is an application that provides user interface enhancements to assist users with disabilities, or who may temporarily be unable to fully interact with a device or an app. Android encourages all apps to support accessibility (<a href=\"https://developer.android.com/guide/topics/ui/accessibility/\">https://developer.android.com/guide/topics/ui/accessibility/</a>) so that legitimate accessibility services such as Talkback can help users. Accessibility is important for users with low-vision, seniors, temporarily disabled users etc. Android provides standard accessibility services, including TalkBack, which gives voiceover for keyboard entries.</p><p>In some cases a user’s security can get compromised due to a malicious app installed on their device which has been explicitly granted “Accessibility Permissions”. In such cases the malicious app can pose as a legitimate Accessibility service and intercept anything that is being typed on an app that supports accessibility. This is like having a malicious keyboard app installed on your device that intercepts every keystroke or a malicious screen-capture app that is taking frequent screenshots of your device usage.</p><p>So then is there a solution to this problem? Android already warns users that enabling an accessibility service app can make them vulnerable to data loss. In fact, it also highlights what all personal data can be observed, including credit card numbers and passwords. (see below)</p><figure><img alt=\"\" src=\"https://cdn-images-1.medium.com/max/360/1*PDvwPOVo2mT8vdUIf5a0zA.png\" /></figure><p>Like we mentioned, third-party keyboards can also access this information, and Android warns users here too at the point of enabling (see below)</p><figure><img alt=\"\" src=\"https://cdn-images-1.medium.com/max/360/1*yrykOaiv8yyCz9cWN2TjyA.png\" /></figure><p>So until Android fixes this problem by ensuring that no untrusted apps can ever get Accessibility permissions, it is important for users to be careful before giving elevated permissions — whether that’s to an accessibility service, device administrator, or root — to applications they do not trust. In fact, Google has also cracked down on apps which misuse Accessibility permission. Read it <a href=\"https://www.bleepingcomputer.com/news/security/google-addresses-androids-biggest-security-problem-accessibility-services/\">here</a>.</p><img src=\"https://medium.com/_/stat?event=post.clientViewed&referrerSource=full_rss&postId=3737b44ee70f\" width=\"1\" height=\"1\"><hr><p><a href=\"https://blog.phonepe.com/fraud-alert-preventing-malicious-apps-from-accessing-your-data-3737b44ee70f\">Fraud alert: Preventing malicious apps from accessing your data</a> was originally published in <a href=\"https://blog.phonepe.com\">PhonePe</a> on Medium, where people are continuing the conversation by highlighting and responding to this story.</p>"
        },
        {
            "title": "Data Localization — Why this Kolaveri Di?",
            "link": "https://blog.phonepe.com/data-localization-why-this-kolaveri-di-6d5680e3f012?source=rss----725044d21903---4",
            "description": "Context: On April 6th 2018, the Reserve Bank of India issued a circular, which mandates all payment ecosystem players operating in India to store all data related to user transactions within national boundaries only. The deadline to comply with this circular is October ...",
            "permalink": "",
            "pubdate": "Tue Sep 11 2018 14:54:01 GMT+0000 (UTC)",
            "comments": "",
            "feedUrl": "https://blog.phonepe.com/feed",
            "when": "Wed Oct 31 2018 17:10:38 GMT+0000 (UTC)",
            "aggregator": "River5 v0.4.14",
            "id": 84,
            "fullDescription": "<figure><img alt=\"\" src=\"https://cdn-images-1.medium.com/max/1024/1*v6x6cXbzRnZp7jNLO9lWdg.png\" /></figure><p><strong>Context</strong>: On April 6th 2018, the Reserve Bank of India issued a <a href=\"https://www.rbi.org.in/scripts/NotificationUser.aspx?Id=11244&amp;Mode=0\"><strong>circular</strong></a>, which mandates all payment ecosystem players operating in India to store all data related to user transactions within national boundaries <strong>only</strong>. The deadline to comply with this circular is October 15, 2018.</p><p>It’s worth noting that the RBI circular pertains only to <strong>payments-related data storage</strong>, not all types of consumer data. The Indian government is separately framing a comprehensive Consumer Data Protection Act. The Justice Srikrishna committee was tasked with this exercise and presented its draft <a href=\"http://meity.gov.in/writereaddata/files/Personal_Data_Protection_Bill,2018.pdf\"><strong>Data Protection Bill, 2018</strong></a> in July 2018.</p><p>In this blog, we limit our attention to the RBI Data Storage circular only, and its implications on the digital payments ecosystem of India, of which we are an integral part today.</p><figure><img alt=\"\" src=\"https://cdn-images-1.medium.com/max/368/1*bwcxhzQJu9oJkl0VCSIjKw.png\" /></figure><p><strong>Our Core Beliefs</strong>:</p><ol><li>We believe that FDI is important for rapidly scaling the Indian fintech sector. PhonePe itself is majority-owned by a foreign company today.</li><li>We strongly believe that Data Localization is critical for the long-term security of any country’s financial services sector. For the record, PhonePe processes <strong>all payment transactions in India</strong>. We also store all our data on India servers <strong>only</strong>.</li><li>We see no policy contradiction in terms of India having a liberal FDI policy, and having a strong data localization policy. Both policies can and should co-exist. FDI helps grow the market faster and allows foreign investors to participate in this growth, while data localization aims to protect the interests of our consumers.</li><li>We strongly believe in level playing fields in an open market. This means that all payments companies (whether domestically owned, FDI-funded or 100% foreign cos) — doing business in India must:</li></ol><p>a. Abide by the law of the land in India</p><p>b. Protect our citizen’s financial data</p><p>c. Pay fair taxes on income earned in India</p><p><strong>Why we believe digital payments data should be ‘processed’ AND ‘stored’ only in India:</strong></p><p>There are two major implications of RBI’s Data Storage localization policy. One, it will make India’s digital payments ecosystem much more resilient to foreign attacks and global politics. Two, it will allow for better regulatory oversight and plug business-jurisdiction related loopholes that some foreign companies have long exploited to evade paying fair taxes in India.</p><ol><li>“<strong>National</strong> <strong>Safety &amp; Security</strong>” — Financial Services is one of the most sensitive and critical sectors of any economy worldwide. Therefore, as India rapidly shifts towards becoming a less-cash society, it must shore up its digital payments infrastructure equally fast so the country can:</li></ol><p>a) Survive hostile attacks by foreign state &amp; non-state actors alike.</p><p>b) Insulate our payment systems against foreign sanctions and politics.</p><p>In India, this responsibility lies with the RBI. Ordinary Indian citizens place immense trust in the RBI to do so because it’s proven to been a pillar of strength of the economy for many decades, and does so by laying down regulatory policies that ensure undisrupted, safe and secure access to financial services for all Indians.</p><p>So why is the RBI pushing for payments data localization? Here’s a few reasons we can think of:</p><ol><li>Can RBI monitor digital payments activity if all the transactions<strong> are processed abroad</strong> <strong>&amp;</strong> <strong>data is stored abroad </strong>outside the sovereign boundaries of the country. The answer is NO.</li><li>Does RBI have adequate legal powers and resources to effectively audit or regulate foreign payment companies’ activities at offshore data centers. The answer is NO.</li><li>Can RBI prevent foreign actors from <a href=\"https://theintercept.com/2015/10/06/top-european-court-rules-that-nsa-spying-makes-u-s-unsafe-for-data/\">spying</a> on Indians’ financial data, or thwart cyber warfare <a href=\"https://nypost.com/2018/03/30/russian-ships-may-be-using-underwater-cables-to-spy/\">attacks</a> if the payments systems are hosted abroad? The answer is NO.</li><li>Can RBI guarantee continuity of critical payments services to hundreds of millions of Indians, if a foreign government suddenly imposes sanctions on India? If the data processing and storage is happening abroad, again the answer is NO.</li></ol><p>Therefore, in order to improve the national security of our digital payment systems, it makes perfect sense for the RBI to require payment companies, doing business in India, to <strong>process</strong> and <strong>store</strong> our consumer’s transaction data within India. This mandate forces all players to be compliant with Indian laws, and minimizes the overall exposure of our payment services getting crippled due to external events.</p><p>On this front, we believe Google <a href=\"https://www.thehindubusinessline.com/info-tech/google-ceo-pichai-seeks-extension-on-meeting-rbis-data-localisation-mandate/article24918900.ece\"><strong>needs to clarify its stand</strong></a><strong> </strong>more crisply. Is Google confirming that it will a) process and b) store all payment transactions related data <strong>ONLY</strong> within Indian boundaries. Or is Google simply doing data mirroring, but keeping all their processing systems and primary data storage abroad. If processing and primary storage resides outside India, then all the systemic risks mentioned above continue to exist.</p><p>Finally, it’s worth noting that India isn’t taking an isolated position on Data Localization. Many foreign governments across the world, such as Australia, Canada, China, Russia etc (<a href=\"https://en.wikipedia.org/wiki/Data_localization\"><strong>see here</strong></a>), have already passed their own versions of Data Localization laws to protect their national interests.</p><p><strong>2. “National Wealth Creation”</strong> — If “data is the new oil”, then “payments data is the new gold mine”<strong>. </strong>For a large number of Internet companies whose core business model revolves around monetizing user data, payments transaction data is a very precious data signal indeed.</p><p>Today most governments around the world recognize financial data as a massive source of national wealth creation, and are actively plugging regulatory loopholes that would allow foreign companies to exploit local market data without paying fair taxes.</p><p>India should be no different in this regards. We offer access to the largest open Internet market on the planet today. We are home to 500Mn smartphone users. We are the world’s #1 consumer of Internet data. We also have one of the most dynamic, competitive and fastest growing digital payments sectors in the world. As a market, it simply doesn’t get more attractive than this today.</p><p>Which begs the next question…</p><p><strong>Why are so many global payment behemoths fiercely lobbying against this mandate?</strong></p><ol><li>It’s definitely not about customer experience. 99.9999% of the time, Indians will make digital payments to other Indian consumers &amp; merchants <em>while being physically present in India</em>. So it makes great product sense to process payment transactions locally because it will reduce network latencies and improve overall consumer experience.</li><li>It’s not about India’s DC capacity either. This is 2018 people. MNCs like Amazon, Microsoft and Google are building/managing massive data centers in India, and selling cloud services<strong> with geofencing capabilities</strong> to other local Indian startups today. These companies are in no real position to claim that DC infra is the problem.</li><li>It’s unlikely that these MNCs are fretting the upfront cost either. Investing a few tens of million dollars on domestic processing &amp; storage capacity is well worth it, if it buys you unfettered access to the multi-billion dollar Indian payments market. The long-term ROI is still very very attractive.</li><li>It not about the migration effort either. Tez launched its UPI services barely 10 months ago, and WhatsApp is still in beta mode. Much older &amp; larger domestic payment companies, with much more complex tech stacks and much larger data archives, have already complied with the RBI circular.</li></ol><p><strong>The ‘only’ issue that’s at the heart of the problem</strong></p><p>Most of the protests by Internet companies are related to the fact that RBI’s is forcing them to process and store payments data <strong>only</strong> in India. This word “<strong>only</strong>” is at the root of the issue, because it also kills most <a href=\"https://economictimes.indiatimes.com/tech/internet/google-loses-6-year-battle-must-pay-tax-on-remittances-made-to-google-ireland/articleshow/61211492.cms\">facetious tax evasion arguments</a> in play today. This is most likely an unintended side benefit of RBI’s mandate, but it’s a brilliant outcome as far as levelling the playing field for domestic Internet companies is concerned.</p><p>Think about it… If WhatsApp Pay &amp; Google Pay (Tez) are forced to process digital payments transactions <strong>only</strong> in India, then FB and Google:</p><ol><li>Cannot claim that the revenues generated from these apps fall under foreign jurisdiction, just because their data servers are abroad. Indian tax jurisdiction gets very clearly established now.</li><li>Cannot share Indian user’s financial data with their ‘foreign’ platforms like Adwords and Facebook Ads. This means India’s payment data cannot be used to sharpen user targeting engines of the companies, who have other products/apps spanning sectors like Search, Maps, Social Networks, App Stores etc.</li></ol><p>Today we have a peculiar situation, wherein apps like Google Pay (Tez) — built exclusively for the Indian consumer — are owned and operated by foreign entities like ‘Google LLC’ and the data is stored on their foreign servers. Tez, for eg, was launched in partnership with the four largest Indian banks. Each of those four banks is required by law to store their customer data exclusively in India, then why should Tez be allowed to share the same payments data with Google’s global monetization platforms for free?</p><p>As for global payment networks such as Visa and Mastercard, or global remittance companies, there is a case to be made for allowing mirroring the payments transaction data to their foreign DCs as well, so they can provide uninterrupted services to Indian consumers wherever they use their physical cards globally. But the primary processing and storage should be in India, and mirroring should be <em>from</em> India <em>to</em> their global DCs, not the other way around<strong>. </strong>The RBI has already clarified that data records pertaining to the foreign leg of transactions can be stored abroad. This seems to be the only part of the circular where further clarity might be useful in this context.</p><img src=\"https://medium.com/_/stat?event=post.clientViewed&referrerSource=full_rss&postId=6d5680e3f012\" width=\"1\" height=\"1\"><hr><p><a href=\"https://blog.phonepe.com/data-localization-why-this-kolaveri-di-6d5680e3f012\">Data Localization — Why this Kolaveri Di?</a> was originally published in <a href=\"https://blog.phonepe.com\">PhonePe</a> on Medium, where people are continuing the conversation by highlighting and responding to this story.</p>"
        },
        {
            "title": "Chapter 2: Ola Begins",
            "link": "https://blog.phonepe.com/this-is-the-second-in-a-series-of-blog-posts-in-which-we-outline-our-experience-building-the-ola-6d109e665879?source=rss----725044d21903---4",
            "description": "Chapter 2: Ola BeginsThis is the second in a series of blog posts in which we outline our experience of building the Ola micro-app using React Native.Read the first part of the blog here.Now that we had decided on the tech stack and had setup the base project with the utils ...",
            "permalink": "",
            "pubdate": "Sun Jul 29 2018 10:14:27 GMT+0000 (UTC)",
            "comments": "",
            "feedUrl": "https://blog.phonepe.com/feed",
            "when": "Wed Oct 31 2018 17:10:38 GMT+0000 (UTC)",
            "aggregator": "River5 v0.4.14",
            "id": 85,
            "fullDescription": "<figure><img alt=\"\" src=\"https://cdn-images-1.medium.com/max/1024/1*jZpoUDkCY47N33fwKUHS6Q.png\" /></figure><p>Chapter 2: Ola Begins</p><p>This is the second in a series of blog posts in which we outline our experience of building the Ola micro-app using React Native.</p><p>Read the first part of the blog <a href=\"https://blog.phonepe.com/the-ride-to-get-ola-on-phonepe-847a41e7e6aa\">here</a>.</p><p>Now that we had decided on the tech stack and had setup the base project with the utils functions in place, it was time to get knee deep into Ola.</p><figure><img alt=\"\" src=\"https://cdn-images-1.medium.com/max/368/1*kH3VweFCZAryAryXzrx2Hg.png\" /><figcaption>The ride to get Ola on PhonePe</figcaption></figure><p><strong>Navigation</strong></p><p>The first hurdle we faced was to tackle transitions between screens. We were using React Navigation for navigating between screens, but when it comes to Ola, the map had to be the centerpiece for the entire screen. We did not want the map to go away or re-render while transitioning between screens, while the other components i.e. the headers and footers around the map, also needed to animate to give an immersive experience to the user.</p><figure><img alt=\"\" src=\"https://cdn-images-1.medium.com/max/250/1*jHRKo1iqZNAK9H-c_UE1Lw.gif\" /></figure><p>The first thing that we did to tackle this was we built a map component sticking to our base principle of components being pure. All parameters that influenced the map were stored in the state, be it the markers that should be shown in the map, or the polyline points that would be used to show the path between two points and even the region that the user needs to navigate to. Everything was stored in state and could be dynamically modified via various actions so that there was no dependency on the component and the view layer could be controlled externally.</p><p>As we wanted to use the same screen, and just transition the components, we wrote our own version of the stack navigator. This stored the navigation states in store and instead of the entire screen getting updated, components of that screen like Footer, Header and Map got updated based on the route.</p><p>Now that we had a custom navigator to separate the logic between multiple screens while keeping the base map static, we were ready to tackle the next hurdle!</p><p><strong>Map Zoom</strong></p><p>When looking for a suitable mapping library for React Native, we chose the community driven react-native-maps library originally developed by AirBnB.. It seemed like a great option if you are using advanced map features such as callouts, markers and polygons. Also we needed those features in order to show content such as pickup markers and cab positions. It offered painless integration with Google Maps on both iOS and Android.</p><p>While developing with <a href=\"https://github.com/react-community/react-native-maps\">React Native maps</a> was most times a joy, we did face a couple of subtle problems. The first arose when we launched an internal beta of the app. Suddenly, there was an influx of feedback about the maps being too sensitive. We also compared it to the Ola and Uber maps and quickly observed that when zooming in the maps, the maps in other apps did not scroll when zooming in to a certain position.</p><p><strong>The Problem Statement</strong>: The maps seem to be extremely sensitive when choosing pickup and drop locations as upon zooming, the map scrolled as well and changed the selected pickup location.</p><figure><img alt=\"\" src=\"https://cdn-images-1.medium.com/max/250/1*t4n1IcJjh3nCriHHyqPk_A.gif\" /></figure><p>When investigating the issue, we quickly found out that Google maps for iOS simply provided a property that offered the same thing, however there was no such alternative on Android and was excluded as such from React Native maps. It was an extremely important feature for us as it was detrimental to the user experience. Our first approach was to implement the solution in Javascript by disabling scrolling &amp; zooming on the map, then capturing all the touches and sending it to the map manually. However, we soon realized that all the touches will have to be first detected by the native side, passed to Javascript which would then calculate the zoom/pan level and then passed back to the native side. As parallel animations ran whenever the map moved, and there was only one line of communication that was the bridge between Javascript and the native side. Also the performance would have been suboptimal even in the best of cases.</p><figure><img alt=\"\" src=\"https://cdn-images-1.medium.com/max/250/1*cIYL722Z2RP3xJitsiYB4Q.gif\" /></figure><p>After some discussion, we decided to cut the middleman out. As it was only absent on the Android side, we decided to implement it directly on the native side of thing, leaving the Javascript side free to perform other tasks. We introduced a `disableScrollOnZoom` property on the React-native-maps map component. The property was already supported on the Google maps sdk on the iOS side and we wrote our custom logic for the Android side.</p><p>On the Android native side, we kept count of the number of fingers on the map. If the number of fingers was more than 1, we disabled all gestures on the map and started capturing the touches ourselves. From that, we figured out the zoom level and then manually setup the zoom level on the map.</p><p>Voila! Everything was right with the world again.</p><p>The final part of this blog will be up sometime next week. If there’s anything specific you’d like included in it, do us know in the comments.</p><img src=\"https://medium.com/_/stat?event=post.clientViewed&referrerSource=full_rss&postId=6d109e665879\" width=\"1\" height=\"1\"><hr><p><a href=\"https://blog.phonepe.com/this-is-the-second-in-a-series-of-blog-posts-in-which-we-outline-our-experience-building-the-ola-6d109e665879\">Chapter 2: Ola Begins</a> was originally published in <a href=\"https://blog.phonepe.com\">PhonePe</a> on Medium, where people are continuing the conversation by highlighting and responding to this story.</p>"
        },
        {
            "title": "The ride to get OLA on PhonePe",
            "link": "https://blog.phonepe.com/the-ride-to-get-ola-on-phonepe-847a41e7e6aa?source=rss----725044d21903---4",
            "description": "PhonePe’s open ecosystem approach, enables partners to launch their stores/micro-apps on the app and reach out to over 100M users. This also provides partners another medium beyond their native apps and websites, where PhonePe ensures a seamless login/signup and payment ...",
            "permalink": "",
            "pubdate": "Wed Jul 11 2018 15:36:22 GMT+0000 (UTC)",
            "comments": "",
            "feedUrl": "https://blog.phonepe.com/feed",
            "when": "Wed Oct 31 2018 17:10:38 GMT+0000 (UTC)",
            "aggregator": "River5 v0.4.14",
            "id": 86,
            "fullDescription": "<figure><img alt=\"\" src=\"https://cdn-images-1.medium.com/max/1024/1*nEleH1zxmQ8-7Q6DLxzBPA.png\" /></figure><p>PhonePe’s open ecosystem approach, enables partners to launch their stores/micro-apps on the app and reach out to over 100M users. This also provides partners another medium beyond their native apps and websites, where PhonePe ensures a seamless login/signup and payment experience for users.</p><p>Ola was one of the first partners to come onboard the PhonePe app and their micro-app was completely built by our team. Commute is a high frequency use case and is highly relevant for our user base. What is unique is, with Ola we also launched AutoPay to support our partner’s drive to enable a cash-less commute experience for Indians.</p><figure><img alt=\"\" src=\"https://cdn-images-1.medium.com/max/368/1*Obbinu-jZCzRCUnvgREIqQ.png\" /><figcaption>The ride to get Ola on PhonePe</figcaption></figure><p>Starting with in-app as a paradigm, we had strong reasons to choose react-native as a platform because:</p><ol><li>It allowed us to iterate and ship faster.</li><li>React native renders native components which bring in an experience similar to native apps.</li><li>We needed to write the code just once for both iOS and Android.</li><li>It aligned with our vision of adding multiple micro apps that come with their own complexities and release cycles.</li></ol><p>After Redbus, as our first successful in-app react-native integration, the next integration in the pipeline was OLA and we were optimistically apprehensive about it.</p><p>As Uncle Ben says, ‘With great power comes great responsibility’. If we consider OLA which serves a staggering amount of users per day or any other ride hailing service in general, we had to make sure that our UX is at par compared to OLA. The user experiences can range from simple things like the capability to use maps to pinpoint their pickup / drop location to an in-app tracking experience.</p><p>This blogpost traces the hurdles we faced and the bridges we crossed to on-board OLA on PhonePe.</p><p>The react native community in India is really small and our blog is also an effort to make readers familiar with the journey they might have to take while developing apps on a react native platform.</p><p><strong>Chapter I,</strong></p><p><strong>The Unsung knights</strong></p><p>When we started off with OLA we had to make sure that our codebase ended up like Wakanda and not like Sakaar. It had to be systematic and scalable rather than being a spaghetti code that ended up as garbage.</p><p>That’s what this chapter is about, the libraries and the frameworks used, the unsung knights who enabled us to build our micro-app in the time we had.</p><p><strong>Redux and Redux-saga</strong></p><p>We chose to go along with Redux as our state manager. This decision was primarily driven by the ease of using Redux and the support that is available for it. We won’t go too deep into the benefits of using Redux with react. We would recommend you to checkout their <a href=\"https://redux.js.org/\">official docs</a>.</p><p>To solve the issue of code readability, we decided to have a separation of real estates. The idea was that our components will be functional and dependent on the data stored in the state and all our business logic will sit outside the components.</p><p>Now that we were set on the React Redux combination for our view layer and store respectively, the next step was to decide how the logic would flow between the two. What we were missing was a controller layer between the two, and <em>lo and behold</em>, we had the Redux saga to the rescue. The Robin to our Batman.</p><p>Redux saga is middleware for Redux that helps in managing the side effects using es6 generator functions. The Side effect could be anything, ranging from api calls, business logic or, any async action that involves the bridge. Redux saga improves upon redux by listening to the same actions, but adding different ways to manage their side effects. It does so by implementing a paradigm similar to threading, with each thread handling separate business logic, dispatching actions and managing stores.</p><p>Let’s look at a simple use case of adding debounce to a search component</p><iframe src=\"\" width=\"0\" height=\"0\" frameborder=\"0\" scrolling=\"no\"><a href=\"https://medium.com/media/e4e2c174031ccaad92a59295d08189a1/href\">https://medium.com/media/e4e2c174031ccaad92a59295d08189a1/href</a></iframe><p>This is one of the ways to implement debounce using Redux-thunk a popular alternative to Redux-saga to manage side effects</p><p>Now this is how we did the same using Redux-saga</p><iframe src=\"\" width=\"0\" height=\"0\" frameborder=\"0\" scrolling=\"no\"><a href=\"https://medium.com/media/4e60b7ba68da6190ffc6639b14d26e1a/href\">https://medium.com/media/4e60b7ba68da6190ffc6639b14d26e1a/href</a></iframe><p>Here we are using three APIs provided by Redux saga, namely</p><p>put: which is an equivalent of dispatch,</p><p>delay: which is similar to wait for those familiar with processes,</p><p>takeLatest: it makes sure that if the SOME_ACTION is dispatched again then the previous generator function running can be terminated.</p><p>This is a very simple example to illustrate the difference between a traditional implementation and one done via saga. But this is just the tip of the iceberg, if this interests you we would strongly recommend you to visit <a href=\"https://github.com/redux-saga/redux-saga\">redux-saga</a> to get the library and the tools it provides. It ranges from something as simple as the ability to cancel api calls to adding custom event emitters which we had used to manage our polls.</p><p><strong>Debugging</strong></p><p>“<em>Why do we fall? So that we can learn to pick ourselves back up.”</em></p><p>One can always fail in one way or the other. The important thing is the ability to understand the mistake and the capability to rectify it. When we were working on Redbus we faced a lot of issues while debugging, and facing issues while debugging makes the rectification of bugs even harder. To fix that we had integrated with two debugging tools, one being the <a href=\"https://github.com/jhen0409/react-native-debugger\">react-native-debugger</a> which helped us look at the DOM tree and even helped time travel using redux. The other one was <a href=\"https://github.com/infinitered/reactotron\">reactotron</a> which primarily helps us go through the entire flow of code, and take snapshots of the app, for us to easily return to the point of issue even on refreshing the app.</p><p>By this time we had set up the base repository along with the libraries and the tools that we would use.</p><p>Wondering what we did next? Wait for the second part in this series where we dig into the base level complications we faced while we started work on the Ola micro-app, and the journey of integrating with Google maps.</p><p>Read the second part of the blog post:<strong> Chapter 2: Ola begins </strong><a href=\"https://blog.phonepe.com/this-is-the-second-in-a-series-of-blog-posts-in-which-we-outline-our-experience-building-the-ola-6d109e665879\"><strong>here</strong></a><strong>.</strong></p><img src=\"https://medium.com/_/stat?event=post.clientViewed&referrerSource=full_rss&postId=847a41e7e6aa\" width=\"1\" height=\"1\"><hr><p><a href=\"https://blog.phonepe.com/the-ride-to-get-ola-on-phonepe-847a41e7e6aa\">The ride to get OLA on PhonePe</a> was originally published in <a href=\"https://blog.phonepe.com\">PhonePe</a> on Medium, where people are continuing the conversation by highlighting and responding to this story.</p>"
        },
        {
            "title": "PhonePe Partners with Ola to Launch the Industry- First AutoPay Feature",
            "link": "https://blog.phonepe.com/phonepe-partners-with-ola-to-launch-the-industry-first-autopay-feature-80cd3f117c3c?source=rss----725044d21903---4",
            "description": "PhonePe Partners with Ola to Launch the Industry- First AutoPay FeatureWe are excited to announce our partnership with Ola, India’s leading and one of the world’s largest ride-sharing companies, to offer users a hassle-free cab and auto booking experience.Users can now book an ...",
            "permalink": "",
            "pubdate": "Thu Jun 28 2018 06:33:07 GMT+0000 (UTC)",
            "comments": "",
            "feedUrl": "https://blog.phonepe.com/feed",
            "when": "Wed Oct 31 2018 17:10:38 GMT+0000 (UTC)",
            "aggregator": "River5 v0.4.14",
            "id": 87,
            "fullDescription": "<figure><img alt=\"\" src=\"https://cdn-images-1.medium.com/max/1024/1*aLO2vrf2LFqLDjH8gKEbtA.png\" /></figure><p><strong>PhonePe Partners with Ola to Launch the Industry- First AutoPay Feature</strong></p><p>We are excited to announce our partnership with Ola, India’s leading and one of the world’s largest ride-sharing companies, to offer users a hassle-free cab and auto booking experience.</p><p>Users can now book an Ola using the PhonePe app. With this integration, users will have access to Ola’s multimodal commuting offerings, along with the benefit of using the industry-first AutoPay feature. The integration with Ola enhances the ecosystem and also allows our users to pay for their mobility needs, which is one of the most important daily use cases. With both the companies already catering to a large user base, this also becomes the first large scale implementation of AutoPay (through standing instructions) for ride bookings in India.</p><figure><img alt=\"\" src=\"https://cdn-images-1.medium.com/max/368/1*ozskiXlLUfPVx9SUrffQ4A.png\" /><figcaption>PhonePe partners with Ola to launch Auto-pay</figcaption></figure><p>Through AutoPay, users just need to link their preferred Credit/Debit card for a Ola ride in the PhonePe app once, and their ride-fare will automatically be paid at the end of every ride. Users also have the flexibility of setting and switching off AutoPay instructions anytime they want.</p><p>Commenting on the partnership, our Co-founder and CTO Rahul Chari said, “Ola is the largest smart mobility player in the market and we are delighted to partner with them. With this partnership our users can enjoy the ease of using their preferred ride sharing app from within PhonePe while being assured of the reliability and integrity of their payments. Ola’s scale and reach, topped with our Auto-pay feature will enable greater convenience and control to our users while making payments seamless.”</p><p>Ankit Bhati, Co-founder and CTO, Ola, said, “At Ola, we are focused on building products and services that enrich customer experience on our platform. Through this integration, millions of PhonePe users will be able to avail Ola’s services and offerings seamlessly. Such partnerships drive the vision of Digital India, getting more users to experience the benefits of online services. As two of India’s popular homegrown brands, we will capitalise on each other’s strengths to enable smart, sustainable and inclusive mobility for India.”</p><p>The Ola micro-app is also a big technology milestone for us as it has been built ground-up by our team using the Ola developer platform. It is the first of its kind mapping application using react native that provides not just location but navigation with directionality, matching the experience of native iOS and Android maps.</p><p>We have also abstracted a lot of common functionalities like tracking, status notifications, in-app communication that other in-app categories can exploit. In the future, these will be available for other partner apps as well. This partnership is part of our vision of being an open payments ecosystem, enabling businesses of all sizes to build and deploy apps on its platform with a unified login and payments experience for its users. This will enable businesses to reach out with their services to a highly relevant and rapidly growing base of over 100 million PhonePe users.</p><p>Going forward, PhonePe is rapidly adding partners in the travel, hospitality, ticketing and food segments to its micro-app platform.</p><img src=\"https://medium.com/_/stat?event=post.clientViewed&referrerSource=full_rss&postId=80cd3f117c3c\" width=\"1\" height=\"1\"><hr><p><a href=\"https://blog.phonepe.com/phonepe-partners-with-ola-to-launch-the-industry-first-autopay-feature-80cd3f117c3c\">PhonePe Partners with Ola to Launch the Industry- First AutoPay Feature</a> was originally published in <a href=\"https://blog.phonepe.com\">PhonePe</a> on Medium, where people are continuing the conversation by highlighting and responding to this story.</p>"
        },
        {
            "title": "All that Glitters is not Gold",
            "link": "https://blog.phonepe.com/all-that-glitters-is-not-gold-a2c55eb8ed70?source=rss----725044d21903---4",
            "description": "The February 2018 UPI numbers have been published by NPCI, and as always there is much to cheer about. As India’s first and largest non-banking UPI app, we are thrilled to see UPI grow from strength to strength. Its exponential growth in the past year has surpassed everyone’s ...",
            "permalink": "",
            "pubdate": "Thu Mar 08 2018 10:15:43 GMT+0000 (UTC)",
            "comments": "",
            "feedUrl": "https://blog.phonepe.com/feed",
            "when": "Wed Oct 31 2018 17:10:38 GMT+0000 (UTC)",
            "aggregator": "River5 v0.4.14",
            "id": 88,
            "fullDescription": "<figure><img alt=\"\" src=\"https://cdn-images-1.medium.com/max/1024/1*9ZVRj_FCSaB6EdCEyOxCcQ.png\" /></figure><p>The February 2018 UPI numbers have been published by NPCI, and as always there is much to cheer about. As India’s first and largest non-banking UPI app, we are thrilled to see UPI grow from strength to strength. Its exponential growth in the past year has surpassed everyone’s wildest expectations.</p><p>Understandably, UPI’s meteoric rise has caught the fancy of consumers, investors, media and the payments industry alike. Suddenly <strong>everyone</strong> is clamouring to jump onto the UPI bandwagon. Wallets want UPI interoperability. Banks want to launch new age mobile apps. Global giants like Google, Amazon &amp; WhatsApp are launching UPI-based payment services in India. Even the Government of India launched a payments app. Fair to say that the innovation rocketship that UPI has fueled in India is here to stay for good, and we’ll all be the better off for it as Indian consumers.</p><figure><img alt=\"\" src=\"https://cdn-images-1.medium.com/max/368/1*JmmhWKkWx2aKGRh-0yM2wg.png\" /></figure><p>However, we also believe that the recent media narrative has been narrowly focussed only on UPI Transaction Volumes — which only tells half the story. In addition to Transaction Volumes, a balanced scorecard of UPI should also include Total Transactions, Number of unique customers as well as the implied metrics of Average Transaction Value (ATV) and Average Transactions per Customer (ATPC).</p><p>This is how the overall numbers stack up based on available public information.</p><figure><img alt=\"\" src=\"https://cdn-images-1.medium.com/max/1024/1*OhlPN-3MZEyRPWrKMGtvFg.png\" /></figure><p>At a cursory glance, Paytm definitely seems to be leading the market. 40% of market share on transactions is no mean feat. But what about their other metrics? This data is not publicly available…</p><p>Luckily for us, <strong>21Mn</strong> transactions out of Paytm’s total 68Mn transactions were money transfers made by Paytm customers <strong>sending money to PhonePe customers</strong> (with a @YBL VPA handle). So we decided to try and find some answers about their ATV, ATPC etc.</p><p>Here’s what we found!</p><figure><img alt=\"\" src=\"https://cdn-images-1.medium.com/max/1024/1*1tw4jLOpd4QNOCg6rml8Vw.png\" /></figure><p>To put this in context, just 40,000 unique consumers did <strong>500+ transactions each in February on Paytm.</strong></p><p>Paytm’s average txn value is less than Rs 40.</p><p>In contrast,<strong> 6,000,000 unique customers did 5 transactions each in February on PhonePe.</strong></p><p>Our average transaction value is over Rs 1,800.</p><p>The only logical explanation for this huge difference in ATV (Rs 40 on Paytm vs Rs.1,820 on PhonePe) and Paytm’s startlingly high ATPC (525/user/month) is that Paytm’s transaction volumes are clearly influenced by significant per-transaction cashback incentives that appeal to a very small population.</p><p>There are three conclusion we can draw from the above:</p><ol><li><strong>Broad based adoption of UPI has not happened on Paytm yet</strong>: If 40,000 unique customers are doing 21Mn transactions, by extrapolation this would imply that the <strong>total</strong> UPI transacting base for Paytm is 40,000 * 68 / 21 = 1.3 lakh customers.</li><li><strong>Transaction numbers for customers do not reflect typical UPI use cases</strong>: The average PhonePe customer does about 5 transactions per month, while the comparable figure for Paytm is 525. This is simply not representative of normal user behavior on the UPI network.</li><li><strong>The average value of Paytm transactions is much lower than average</strong>: At an overall network level, UPI’s overall transaction value is Rs. 1,116 / transaction. For Paytm the number is a paltry Rs. 38 which further corroborates these are all cashback triggered low ASP transactions.</li></ol><p>For these combination of reasons, we believe that Paytm’s claim that they are the largest on UPI is both uni-dimensional and misleading.</p><p>We believe the market narrative needs to shift towards the <strong>wider</strong> adoption of digital payments in India which is essentially more unique customers, and higher overall transaction value flow. We welcome the fact that NPCI has been so transparent in sharing the total volume and value of transactions. It would be great if they considered publishing the number of unique customers counts to enable the larger ecosystem to form a more holistic picture of the health of the rapidly growing digital payments ecosystem.</p><img src=\"https://medium.com/_/stat?event=post.clientViewed&referrerSource=full_rss&postId=a2c55eb8ed70\" width=\"1\" height=\"1\"><hr><p><a href=\"https://blog.phonepe.com/all-that-glitters-is-not-gold-a2c55eb8ed70\">All that Glitters is not Gold</a> was originally published in <a href=\"https://blog.phonepe.com\">PhonePe</a> on Medium, where people are continuing the conversation by highlighting and responding to this story.</p>"
        },
        {
            "title": "PhonePe launches app-in-app platform with redBus as the first partner",
            "link": "https://blog.phonepe.com/phonepe-launches-app-in-app-platform-with-redbus-as-the-first-partner-9d4b7d315ac0?source=rss----725044d21903---4",
            "description": "PhonePe launches app-in-app platform with redBus as the first partnerFirst app to take an open ecosystem approachWe have entered into a strategic partnership with redBus, the world’s largest online bus ticket booking service. As a part of the partnership, Redbus has now gone ...",
            "permalink": "",
            "pubdate": "Mon Feb 26 2018 06:12:51 GMT+0000 (UTC)",
            "comments": "",
            "feedUrl": "https://blog.phonepe.com/feed",
            "when": "Wed Oct 31 2018 17:10:38 GMT+0000 (UTC)",
            "aggregator": "River5 v0.4.14",
            "id": 89,
            "fullDescription": "<p><strong>PhonePe launches app-in-app platform with redBus as the first partner</strong></p><figure><img alt=\"\" src=\"https://cdn-images-1.medium.com/max/1024/1*_nawaRcGWcuM0j9a4ySFgA.png\" /><figcaption>First app to take an open ecosystem approach</figcaption></figure><p>We have entered into a strategic partnership with redBus, the world’s largest online bus ticket booking service. As a part of the partnership, Redbus has now gone live with an exclusive store on our app.</p><p>This partnership is part of our vision of being an open payments ecosystem, enabling businesses of all sizes to build and deploy apps on our platform with a unified login and payments experience for customers. This will enable businesses to reach out with their services to over 65 million users who have installed our app.</p><figure><img alt=\"\" src=\"https://cdn-images-1.medium.com/max/368/1*blV4UsORcDoGpRBM5BjYxQ.png\" /><figcaption>PhonePe launches app-in-app platform</figcaption></figure><p>Commenting on the partnership, Rahul Chari, our Co-founder &amp; CTO said, “We are delighted to partner with redBus and offer our customers a frequently-used service, such as online bus booking, inside the PhonePe app. We are the first transaction platform of this scale to open up for businesses to build their experiences within the app. Consumers can continue to enjoy the digital and fulfillment experience of their favorite apps from within PhonePe while being assured of the reliability and integrity of their payments. This will allow businesses to focus on service offerings instead of worrying about distribution.”</p><p>”We want to take the ecosystem first approach and our ambitions are to build platforms which enable businesses and partners to leverage the PhonePe network to the fullest. Our core belief is that open ecosystems always succeed by creating a win-win equation for both customers and service providers alike. We will continue to invest in enriching the platform capabilities to make it more and more developer friendly.” added Vishal Gupta our Head of Product.</p><p>Manoj Agarwala, Vice President of redBus, said, “We are extremely excited to launch our services in the PhonePe app. This strategic and exclusive partnership would enable us to reach out to a wider user base beyond our existing platforms. PhonePe has taken a unique approach to solve digital payments, which will further support our endeavor of providing a hassle-free bus ticket booking experience across the country. We expect many customers to take maximum advantage of this win-win partnership.”</p><p>This partnership is in continuation with our strategy to build an ecosystem of innovation. Recently we had launched an innovative made-for-India Point Of Sale (POS) and we are opening up the SDK so that multiple partners can contribute in building the ecosystem. We have already integrated third party wallets like FreeCharge and Jio Money on our platform to give users more choice and flexibility.</p><p>Currently, our focus is on adding more partners to the app-in-app platform and to provide various options to businesses to participate in the ecosystem.</p><img src=\"https://medium.com/_/stat?event=post.clientViewed&referrerSource=full_rss&postId=9d4b7d315ac0\" width=\"1\" height=\"1\"><hr><p><a href=\"https://blog.phonepe.com/phonepe-launches-app-in-app-platform-with-redbus-as-the-first-partner-9d4b7d315ac0\">PhonePe launches app-in-app platform with redBus as the first partner</a> was originally published in <a href=\"https://blog.phonepe.com\">PhonePe</a> on Medium, where people are continuing the conversation by highlighting and responding to this story.</p>"
        },
        {
            "title": "PhonePe strikes a strategic partnership with FreeCharge",
            "link": "https://blog.phonepe.com/phonepe-strikes-a-strategic-partnership-with-freecharge-70262fbbd3a6?source=rss----725044d21903---4",
            "description": "PhonePe strikes a strategic partnership with FreeChargePhonePe partners with FreeChargeWe recently entered into a strategic alliance with FreeCharge a leading wallet player. As a part of the partnership, we have now enabled over 45Mn users to link their existing FreeCharge ...",
            "permalink": "",
            "pubdate": "Wed Jan 31 2018 11:03:33 GMT+0000 (UTC)",
            "comments": "",
            "feedUrl": "https://blog.phonepe.com/feed",
            "when": "Wed Oct 31 2018 17:10:38 GMT+0000 (UTC)",
            "aggregator": "River5 v0.4.14",
            "id": 90,
            "fullDescription": "<p><strong>PhonePe strikes a strategic partnership with FreeCharge</strong></p><figure><img alt=\"\" src=\"https://cdn-images-1.medium.com/max/1024/1*9mh5JYssBwqL-aFYJexy3A.png\" /><figcaption>PhonePe partners with FreeCharge</figcaption></figure><p>We recently entered into a strategic alliance with FreeCharge a leading wallet player. As a part of the partnership, we have now enabled over 45Mn users to link their existing FreeCharge Wallets on our app. Once linked, our customers will be able to spend their Freecharge wallet balance at all online and offline merchant outlets that accept the PhonePe payments container.</p><p>Commenting on the partnership, Hemant Gala our Head Banking Products &amp; Strategic Partnerships said, “We are delighted to partner with FreeCharge and offer our customers the option of using their Freecharge wallet inside our app. This is in line with our vision of making PhonePe India’s first truly open payments platform, where customers can use any and all payment instruments of their choice.”</p><figure><img alt=\"\" src=\"https://cdn-images-1.medium.com/max/368/1*4zI7fn5EvVre-ZmJdxQIUg.gif\" /><figcaption>PhonePe partners with FreeCharge</figcaption></figure><p>In order to pay via FreeCharge on PhonePe, customers can link FreeCharge from ‘My Account&gt;Other Wallets’ section. FreeCharge will show up on the customers’ and merchants’ app at the PhonePe payment path. Customers can choose to use their FreeCharge balance along with the PhonePe wallet balance/other instruments for payments.</p><p>Sangram Singh, CEO, FreeCharge said, “We are excited by this partnership which enables FreeCharge customers to shop at various offline and online partners that PhonePe has tied up with, especially at popular online shopping destinations such as Flipkart, Myntra, eBay and Jabong. This will help further the use of digital payments and provide more options to our customers.”</p><p>FreeCharge customers will also be able to recharge and pay bills and shop at various offline and online stores that we have tied up with. We are currently live across more than 60 thousand online and offline merchants including MakeMyTrip, PVR, Cleartrip, 1mg, FreshMenu, Faasos and Abhibus and most national offline chains like Café Coffee Day, Apollo Pharmacy, KFC, Barista, Spencer’s, FoodWorld etc.</p><img src=\"https://medium.com/_/stat?event=post.clientViewed&referrerSource=full_rss&postId=70262fbbd3a6\" width=\"1\" height=\"1\"><hr><p><a href=\"https://blog.phonepe.com/phonepe-strikes-a-strategic-partnership-with-freecharge-70262fbbd3a6\">PhonePe strikes a strategic partnership with FreeCharge</a> was originally published in <a href=\"https://blog.phonepe.com\">PhonePe</a> on Medium, where people are continuing the conversation by highlighting and responding to this story.</p>"
        },
        {
            "title": "Save Yourself From Merchant Frauds!",
            "link": "https://blog.phonepe.com/save-yourself-from-merchant-frauds-55df9445fc95?source=rss----725044d21903---4",
            "description": "Save Yourself From Merchant Frauds!Save yourself from merchant fraudsFraudsters are constantly looking at new ways to extract money. With more and more customers shopping online, Merchant Frauds are on the rise. In this blogpost we talk about staying safe from Merchant Frauds.We ...",
            "permalink": "",
            "pubdate": "Wed Jan 31 2018 10:43:46 GMT+0000 (UTC)",
            "comments": "",
            "feedUrl": "https://blog.phonepe.com/feed",
            "when": "Wed Oct 31 2018 17:10:38 GMT+0000 (UTC)",
            "aggregator": "River5 v0.4.14",
            "id": 91,
            "fullDescription": "<p>Save Yourself From Merchant Frauds!</p><figure><img alt=\"\" src=\"https://cdn-images-1.medium.com/max/1024/1*iWCLvmVnXBpxYnLwIQ04Tw.gif\" /><figcaption>Save yourself from merchant frauds</figcaption></figure><p>Fraudsters are constantly looking at new ways to extract money. With more and more customers shopping online, Merchant Frauds are on the rise. In this blogpost we talk about staying safe from Merchant Frauds.</p><p>We all have read or heard of instances where a buyer ordered or paid for a product online but never received it. That’s an example of Merchant Fraud! Fraudsters can go any extent to steal your money. A merchant/seller sets up a fake website with goods to order. The company’s address, contact number, policies for cancellation, return &amp; refunds, and a payment gateway for making transactions are all fake.</p><figure><img alt=\"\" src=\"https://cdn-images-1.medium.com/max/368/1*eIFCmN6-Pr2yiBh5e0gy4w.gif\" /><figcaption>Save yourself from merchant frauds</figcaption></figure><p>Now, the merchant needs to tie up with a payment gateway to start accepting payments from his customers. Payment gateways or payment processors are expected to perform deep background checks on merchants before providing them payment services.</p><p>To avoid getting caught in the process, the merchant sets up a personal bank account for transferring money through NEFT or uses a personal QR code instead of a merchant QR code. This way the merchant imitates a legit payment gateway and all he has to do is promote his business on social media platforms, and wait for customers to make transactions.</p><p><em>Reminder: PhonePe on-boards merchants with registered and active mobile numbers only. Merchants have to </em>go through a <em>rigorous verification process, KYC document checks and multiple surprise store visits. Only then are they allowed to start accepting payments via PhonePe. You can be assured when you pay with PhonePe.</em></p><p>In most cases of Merchant Fraud, customers detect that something is wrong only after the payment has been made or when the product delivery date has been breached. They usually reach out to the website’s customer support team and realise that a fraud merchant has taken away their money.</p><p>You can prevent frauds like these. Here’s what you need to keep in mind.</p><p>-Do not trust all shopping websites. Check for customer feedback, reviews and the website’s social media page (if available) before buying from there.</p><p>- Only buy from trusted shopping websites and platforms.</p><p>-Report the fraudulent website to Google.</p><p>-File a chargeback on the debit/credit card, bank account(UPI) used to pay at the fraudulent website to get your money back.</p><img src=\"https://medium.com/_/stat?event=post.clientViewed&referrerSource=full_rss&postId=55df9445fc95\" width=\"1\" height=\"1\"><hr><p><a href=\"https://blog.phonepe.com/save-yourself-from-merchant-frauds-55df9445fc95\">Save Yourself From Merchant Frauds!</a> was originally published in <a href=\"https://blog.phonepe.com\">PhonePe</a> on Medium, where people are continuing the conversation by highlighting and responding to this story.</p>"
        }
    ]
}