{
    "prefs": {
        "enabled": true,
        "url": "https://www.rbi.org.in/pressreleases_rss.xml",
        "ctSecsBetwRenews": 86400,
        "flNonListSubscribe": false
    },
    "data": {
        "feedhash": ""
    },
    "stats": {
        "ctReads": 2,
        "ctReadErrors": 0,
        "ctConsecutiveReadErrors": 0,
        "ctItems": 20,
        "ctEnclosures": 0,
        "ctFeedTextChanges": 0,
        "ct304s": 0,
        "ctItemsTooOld": 5,
        "ctReadsSkipped": 0,
        "ctInfoReads": 1,
        "ctInfoWrites": 2,
        "whenSubscribed": "2018-10-31T17:10:40.699Z",
        "whenLastRead": "2018-11-05T05:14:37.619Z",
        "whenLastNewItem": "2018-11-05T05:14:37.619Z",
        "mostRecentPubDate": "2018-11-05T10:35:00.000Z",
        "whenLastInfoWrite": "2018-11-05T05:14:39.882Z",
        "whenLastReadError": "1970-01-01T00:00:00.000Z",
        "whenLastInfoRead": "2018-11-05T05:14:37.620Z",
        "lastReadError": "",
        "itemSerialnum": 0,
        "ctSecsLastRead": 2.263,
        "whenLastTooOldItem": "2018-11-05T05:14:37.619Z"
    },
    "feedInfo": {
        "title": "PRESS RELEASES FROM RBI",
        "link": "http://www.rbi.org.in",
        "description": "This is Feed from RBI for Press Releases."
    },
    "history": [
        {
            "title": "RBI to conduct Overnight Variable rate Reverse Repo auction under LAF on November 5, 2018",
            "link": "http://www.rbi.org.in/scripts/BS_PressReleaseDisplay.aspx?prid=45404",
            "description": "The Reserve Bank of India will conduct the following Variable rate Reverse Repo auction on November 5, 2018, Monday, as per the revised guidelines on Term Repo Auctions issued on February 13, 2014.                         Sl. No.          Notified Amount             (&#8377; ...",
            "guid": "http://www.rbi.org.in/scripts/BS_PressReleaseDisplay.aspx?prid=45404",
            "when": "2018-11-05T05:14:37.619Z"
        },
        {
            "title": "Liquidity Adjustment Facility: Fixed Rate Reverse Repo Operations",
            "link": "http://www.rbi.org.in/scripts/BS_PressReleaseDisplay.aspx?prid=45403",
            "description": "The result of the RBI Fixed Rate Reverse Repo Operations held on November 03, 2018 is as under:                        Amount (face value in &#8377; Billion)                          Items          2 day Reverse Repo Auction          6.25% Fixed Rate                          1. ...",
            "guid": "http://www.rbi.org.in/scripts/BS_PressReleaseDisplay.aspx?prid=45403",
            "when": "2018-11-05T05:14:37.619Z"
        },
        {
            "title": "Liquidity Adjustment Facility: Fixed Rate Repo Operations",
            "link": "http://www.rbi.org.in/scripts/BS_PressReleaseDisplay.aspx?prid=45402",
            "description": "The result of the RBI Fixed Rate Repo Operations held on November 03, 2018 is as under:                        Amount (face value in &#8377; Billion)                          Items          2 day Repo Operations         6.50% Fixed Rate                          1. Bids received  ...",
            "guid": "http://www.rbi.org.in/scripts/BS_PressReleaseDisplay.aspx?prid=45402",
            "when": "2018-11-05T05:14:37.619Z"
        },
        {
            "title": "Money Market Operations as on November 02, 2018",
            "link": "http://www.rbi.org.in/scripts/BS_PressReleaseDisplay.aspx?prid=45401",
            "description": "(Amount in &#8377; billion, Rate in Per cent)                                        MONEY MARKETS @        &nbsp;        &nbsp;        &nbsp;                            Volume        Wtd.Avg.Rate         Range                            (One Leg)                                 ...",
            "guid": "http://www.rbi.org.in/scripts/BS_PressReleaseDisplay.aspx?prid=45401",
            "when": "2018-11-05T05:14:37.619Z"
        },
        {
            "title": "Liquidity Adjustment Facility: Fixed Rate Reverse Repo Operations",
            "link": "http://www.rbi.org.in/scripts/BS_PressReleaseDisplay.aspx?prid=45400",
            "description": "The result of the RBI Fixed Rate Reverse Repo Operations held on November 02, 2018 is as under:                        Amount (face value in &#8377; Billion)                          Items          3 day Reverse Repo Auction          6.25% Fixed Rate                          1. ...",
            "guid": "http://www.rbi.org.in/scripts/BS_PressReleaseDisplay.aspx?prid=45400",
            "when": "2018-11-05T05:14:37.619Z"
        },
        {
            "title": "Sovereign Gold Bond 2018-19 Series-III-Issue Price",
            "link": "http://www.rbi.org.in/scripts/BS_PressReleaseDisplay.aspx?prid=45399",
            "description": "In terms of GoI notification F.No.4(22)-W&amp;M/2018 and RBI circular IDMD.CDD.No.821/14.04.050/2018-19 dated October 08, 2018, the Sovereign Gold Bond Scheme 2018-19 - Series III will be opened for subscription for the period from November 05, 2018 to November 09, 2018. The ...",
            "guid": "http://www.rbi.org.in/scripts/BS_PressReleaseDisplay.aspx?prid=45399",
            "when": "2018-11-05T05:14:37.619Z"
        },
        {
            "title": "Reserve Bank of India – Bulletin Weekly Statistical Supplement – Extract",
            "link": "http://www.rbi.org.in/scripts/BS_PressReleaseDisplay.aspx?prid=45398",
            "description": "1. Reserve Bank of India - Liabilities and Assets*                    (&#8377; Billion)                    Item        2017        2018        Variation                    Oct. 27        Oct. 19        Oct. 26        Week        Year                    1        2        3        ...",
            "guid": "http://www.rbi.org.in/scripts/BS_PressReleaseDisplay.aspx?prid=45398",
            "when": "2018-11-05T05:14:37.619Z"
        },
        {
            "title": "Directions under Section 35A read with Section 56 of the Banking Regulation Act, 1949 (AACS) – The Karad Janata Sahakari Bank Ltd., Karad, Maharashtra- Extension of period",
            "link": "http://www.rbi.org.in/scripts/BS_PressReleaseDisplay.aspx?prid=45397",
            "description": "The Karad Janata Sahakari Bank Ltd., Karad was placed under directions vide directive DCBS.CO.BSD-I/D-4/12.22.126/2017-18 dated November 07, 2017 from the close of business on November 09, 2017 for a period of six months. The validity of the above directions were extended by ...",
            "guid": "http://www.rbi.org.in/scripts/BS_PressReleaseDisplay.aspx?prid=45397",
            "when": "2018-11-05T05:14:37.619Z"
        },
        {
            "title": "Result of the 3-day Variable Rate Reverse Repo Auction held on November 2, 2018",
            "link": "http://www.rbi.org.in/scripts/BS_PressReleaseDisplay.aspx?prid=45396",
            "description": "Tenor          3-day                          Notified Amount (in &#8377; billion)          300.00                          Total amount of offers received (in &#8377; billion)          378.33                          Amount accepted (in &#8377; billion)          300.10          ...",
            "guid": "http://www.rbi.org.in/scripts/BS_PressReleaseDisplay.aspx?prid=45396",
            "when": "2018-11-05T05:14:37.619Z"
        },
        {
            "title": "Government Stock - Full Auction Results",
            "link": "http://www.rbi.org.in/scripts/BS_PressReleaseDisplay.aspx?prid=45395",
            "description": "The results of the auctions of 6.65% Government Stock, 2020 (Re-issue), 7.59% Government Stock, 2026 (Re-issue), 7.17% Government Stock, 2028 (Re-issue), 7.5% Government Stock, 2034 (Re-issue) and 7.06% Government Stock, 2046 (Re-issue) held on November 02, 2018 are :            ...",
            "guid": "http://www.rbi.org.in/scripts/BS_PressReleaseDisplay.aspx?prid=45395",
            "when": "2018-11-05T05:14:37.619Z"
        }
    ],
    "lists": [],
    "calendar": {}
}