{
    "ctItemsAdded": 10,
    "whenLastItemAdded": "2018-10-31T17:10:36.791Z",
    "ctSaves": 1,
    "whenLastSave": "2018-10-31T17:10:39.841Z",
    "flDirty": false,
    "ctRiverBuilds": 0,
    "whenLastRiverBuild": "1970-01-01T00:00:00.000Z",
    "items": [
        {
            "title": "9 Customer Acquisition Hacks for Businesses with Zero Sales",
            "link": "https://www.instamojo.com/blog/9-customer-acquisition-hacks-businesses-with-zero-sales/",
            "description": "What if we told you, you can get your first customer without any proven record of sales? Customer acquisition can be a challenging task to overcome as a newbie entrepreneur.\nWhile most acquisition strategies focus on businesses which already have a customer base, starting off ...",
            "permalink": "",
            "pubdate": "Wed Oct 31 2018 13:39:42 GMT+0000 (UTC)",
            "comments": "https://www.instamojo.com/blog/9-customer-acquisition-hacks-businesses-with-zero-sales/#respond",
            "feedUrl": "https://www.instamojo.com/blog/feed/",
            "when": "Wed Oct 31 2018 17:10:36 GMT+0000 (UTC)",
            "aggregator": "River5 v0.4.14",
            "id": 53,
            "fullDescription": "<p>What if we told you, you can get your first customer without any proven record of sales? Customer acquisition can be a challenging task to overcome as a newbie entrepreneur.</p>\n<p>While most <a href=\"https://www.instamojo.com/blog/email-marketing-customer-acquisition-retention/\" target=\"_blank\" rel=\"noopener\"><span style=\"color: #3366ff;\">acquisition strategies</span></a> focus on businesses which already have a customer base, starting off from scratch is a task.</p>\n<p>The first thing a customer does before buying a product is &#8211; check online reviews, ratings, and testimonials to get an understanding of your business and product offerings.</p>\n<p>What if you are a brand new business with zero sales, reviews or ratings to showcase? If you are one such business, then this blog post will help understand the nuances of getting your first customers, with zero <a href=\"https://www.instamojo.com/blog/leverage-social-proof-boost-sales-business/\" target=\"_blank\" rel=\"noopener\"><span style=\"color: #3366ff;\">social proof</span> </a>to talk for you.</p>\n<h2>9 customer acquisition strategies for businesses with zero sales:</h2>\n<ul>\n<li>\n<h3>Develop a human connection:</h3>\n</li>\n</ul>\n<p>We live in a time where everything is automated.  A crucial mistake most businesses do is focusing only on the business aspect and often ignoring the human side of it. As a business with no track records to showcase, this connection plays a crucial role in customer acquisition. Forging a deeper connection with your potential customers may just be the trick to <a href=\"https://www.instamojo.com/blog/how-build-customer-success-satisfaction-2018/\" target=\"_blank\" rel=\"noopener\"><span style=\"color: #3366ff;\">converting them into paying customers.</span></a></p>\n<p>For example: If you are the jewelry making industry, showcase your artisans and designers. Create stories about where you source your raw materials and the potential impact your business has in empowering these artisans. This will help customers, see your human side. This will help them develop a stronger bond with you.</p>\n<ul>\n<li>\n<h3>Art of storytelling with compelling content:</h3>\n</li>\n</ul>\n<p>With the power of content, you get the unique opportunity to directly engage with multiple customers at the same time. The best practices including showing off your content on <a href=\"https://www.instamojo.com/blog/why-businesses-should-prioritize-social-media-marketing/\" target=\"_blank\" rel=\"noopener\"><span style=\"color: #3366ff;\">social media</span></a>. Also, blogging regularly about topics in your industry, and addressing challenges can help you gain customers in the most organic way possible.</p>\n<p>It is crucial to define the way you want to portray your business, via content. Hence, have a <a href=\"https://www.instamojo.com/blog/brand-strategies-customer-acquisition-retention/\" target=\"_blank\" rel=\"noopener\"><span style=\"color: #3366ff;\">consistent brand image, brand tonality, and personality</span></a> to help customers associate with you better. Encourage discussions, market researches and hear the voices of real people to better understand the problem you are solving.</p>\n<ul>\n<li>\n<h3>Easy return policy:</h3>\n</li>\n</ul>\n<p>The one thing that customers love is a hassle free return policy. This is particularly important if you belong in the FMCG industry.  Good return policies indicate how much you value your customer&#8217;s happiness. It also shows that you take your products seriously. Having a good return policy can help assure your customers that they will either have a product replacement or their money refunded. This will help them develop better trust in transacting with you.</p>\n<p><strong>Some of the common practices endorsed are:</strong></p>\n<ol>\n<li>No questions asked return policy</li>\n<li>Free returns and shipping</li>\n<li><a href=\"https://www.instamojo.com/blog/faster-refunds-matter/\" target=\"_blank\" rel=\"noopener\"><span style=\"color: #3366ff;\">Instant refunds</span></a></li>\n</ol>\n<ul>\n<li>\n<h3>Be there to answer your customer&#8217;s queries:</h3>\n</li>\n</ul>\n<p>Your customers may have a million questions to ask you and you must prioritize them. Be sure to be present on <a href=\"https://www.instamojo.com/blog/orm-business-reputation-social-media/\" target=\"_blank\" rel=\"noopener\"><span style=\"color: #3366ff;\">multiple social media platforms</span></a> and make it a mode of establishing engagement and conversations with your customers. Additionally, having an FAQ&#8217;s page can help customers answer most of the questions before reaching out to you for help.</p>\n<ul>\n<li>\n<h3>Provide the best product descriptions:</h3>\n</li>\n</ul>\n<p>You have more to prove to your customer than an already established brand. Hence, it is up to you to answer most of your customer queries about the product in the <a href=\"https://www.instamojo.com/blog/how-to-write-product-description/\" target=\"_blank\" rel=\"noopener\"><span style=\"color: #3366ff;\">product description</span></a>. Depending on the tonality and brand image you wish to portray, you can also make your product descriptions straight-up or quirky.</p>\n<p><strong>Some of the must-have&#8217;s for a good product description</strong><strong>:</strong></p>\n<ol>\n<li>Measurements and dimensions of the item</li>\n<li>The weight of the item</li>\n<li>Ingredients or manufacturing materials used</li>\n<li>Warranty information</li>\n<li>Product features of specifications</li>\n<li>Images or videos of the product you are selling</li>\n</ol>\n<p>Curious to know about some product description blunders you must try to avoid? <a href=\"https://www.instamojo.com/blog/improve-sales-avoiding-product-listing-blunders/\" target=\"_blank\" rel=\"noopener\"><span style=\"color: #3366ff;\">Click here. </span></a></p>\n<ul>\n<li>\n<h3>Introductory offers and discounts:</h3>\n</li>\n</ul>\n<p>If you are new in the market, you need to provide your customers some incentive to shop with you. This can be done either in the form of discounts or introductory offers. Here, you can have a special discount for first-time customers. This will encourage them to view your products and get a sense of your brand.</p>\n<ul>\n<li>\n<h3>Giveaways:</h3>\n</li>\n</ul>\n<p>Who doesn&#8217;t like to be pampered with gifts and free samples? An ideal way of customer acquisition is by sending your customers samples of your products. This can either be a completely free give away or free samples which can be given after your customer shops for a particular amount.</p>\n<p>This will not only help them get a sneak peek into your new products but also help them build a connection with you. This will also be an <a href=\"https://www.instamojo.com/blog/retention-marketing-repeat-customers/\" target=\"_blank\" rel=\"noopener\"><span style=\"color: #3366ff;\">ideal strategy for customer retention</span></a>, where you can use this technique to help covert a one-time paying customer into a repeat customer.</p>\n<ul>\n<li>\n<h3>Have a detailed FAQ&#8217;s page:</h3>\n</li>\n</ul>\n<p>This is where your customers will go to when they want to know more about you. Hence, make sure you have <a href=\"https://www.instamojo.com/blog/faq-page-samples-tips-questions/\" target=\"_blank\" rel=\"noopener\"><span style=\"color: #3366ff;\">a detailed FAQ page</span></a>.</p>\n<p><strong>Here are some the elements that have to be present in your FAQ page:</strong></p>\n<ul>\n<li><strong>“About Me&#8221;:</strong> This can either be a separate tab or a section in the FAQ. This will help your customers get a fair understanding of your business and its offerings.</li>\n<li><strong>General product information:</strong> This can information about the ingredients you use, whether you sell vegan products or don&#8217;t endorse animal cruelty. These pointers will help customers get a deeper sense of your products.</li>\n<li><strong>Build trust:</strong> Add your information about your licenses or certifications. This will help them trust you better.</li>\n<li><strong>Answers to questions: </strong>You will already have a fair idea about the possible questions your customers have for you. Be sure to have them documented and answered here in the simplest way possible.</li>\n<li>\n<h3>Let them know you value their security:</h3>\n</li>\n</ul>\n<p>As a new business on the block, you have a lot more to prove as compared to the already established businesses. Hence, to start with, it is essential you let your customers know how much you value their security. This can be in terms of a safe website and safer payment gateway.</p>\n<p>Pick payment gateways which are PCI-DSS compliant and follow the required norms. Instamojo promises the utmost security with PCI-DSS compliance, 128-bit encryption and is compliant with the RBI regulations.</p>\n<p>The secret to getting repeat customers is simple. This starts with your website and ends with <a href=\"https://www.instamojo.com/blog/collecting-payments-via-instamojo/\" target=\"_blank\" rel=\"noopener\"><span style=\"color: #3366ff;\">making payments</span></a> and getting your <a href=\"https://www.instamojo.com/blog/mojoxpress-one-stop-solution-shipping-needs/\" target=\"_blank\" rel=\"noopener\"><span style=\"color: #3366ff;\">products shipped.</span></a></p>\n<p><strong>Instamojo covers all these crucial pain points for you.</strong></p>\n<p>If you are looking for a safe place to showcase and sell your products, you can use <a href=\"https://www.instamojo.com/online-store/\" target=\"_blank\" rel=\"noopener\"><span style=\"color: #3366ff;\">the Instamojo online store.</span></a> Here, you can not only sell your products but also collect seamless and secure payments. Additionally, you can use our shipping services, to complete the entire cycle within just a few clicks. Lastly, you can also track business insights to help you make better decisions with our <a href=\"https://www.instamojo.com/app-store/\" target=\"_blank\" rel=\"noopener\"><span style=\"color: #3366ff;\">pre-built tools custom-made to suit your business needs.</span></a></p>\n<hr />\n<p style=\"text-align: center;\"><a class=\"mb-button mb-style-flat mb-size-default mb-corners-default mb-text-style-default \" style=\"background-color: #2bc470;\" href=\"http://www.instamojo.com/?ref=blog\">START WITH INSTAMOJO</a></p>\n<p>The post <a rel=\"nofollow\" href=\"https://www.instamojo.com/blog/9-customer-acquisition-hacks-businesses-with-zero-sales/\">9 Customer Acquisition Hacks for Businesses with Zero Sales</a> appeared first on <a rel=\"nofollow\" href=\"https://www.instamojo.com/blog\">Blog Instamojo</a>.</p>"
        },
        {
            "title": "The Most Useful Way to add UPI Payments to your App/Website",
            "link": "https://www.instamojo.com/blog/add-upi-payments-app-website-online/",
            "description": "Are you looking to add the UPI payment option for your customers/users, in your mobile app or website?\nUPI(Unified Payment Interface) is a new digital payment option in India. It’s one of the payment options that allow you to pay anyone &#8211; online stores, your friends &amp; ...",
            "permalink": "",
            "pubdate": "Tue Oct 30 2018 13:54:54 GMT+0000 (UTC)",
            "comments": "https://www.instamojo.com/blog/add-upi-payments-app-website-online/#respond",
            "feedUrl": "https://www.instamojo.com/blog/feed/",
            "when": "Wed Oct 31 2018 17:10:36 GMT+0000 (UTC)",
            "aggregator": "River5 v0.4.14",
            "id": 54,
            "fullDescription": "<p>Are you looking to add the UPI payment option for your customers/users, in your mobile app or website?</p>\n<p>UPI(Unified Payment Interface) is a new digital payment option in India. It’s one of the payment options that allow you to pay anyone &#8211; online stores, your friends &amp; families, shopkeepers, restaurants and more) in an easier &amp; faster way.</p>\n<p>The most used UPI apps available today are BHIM, Google Pay (Tez), PhonePe, Paytm, WhatsApp Payments with some other bank UPI apps.</p>\n<h2>What People Don’t Know or Hardly Know About UPI</h2>\n<p>Let me take you through some lesser-known facts about UPI.</p>\n<ul>\n<li>UPI app should be installed on their mobile when paying by UPI on an online store.</li>\n<li>Users can instantly transfer money through mobile device round the clock 24*7 and 365 days.</li>\n<li>UPI can be found in any form &#8211; QR+barcode (Scan and Pay) based payments, Utility Bill Payments, Over the Counter Payments.</li>\n</ul>\n<h3>Difference between UPI ID &amp; VPA (Virtual Payment Address)</h3>\n<p>You can create your VPA according to your choice in some UPI apps, it’s not by default. (only a few apps like Google Pay (Tez) doesn’t give this option. You can create and use more than 1 VPA in every UPI app.</p>\n<p>Did you know the National Payments Corporation of India (NCPI) just launched a new version of UPI 2.0 with great new features? <strong><a href=\"https://www.instamojo.com/blog/future-of-upi-payments-india-growth-expect/\" target=\"_blank\" rel=\"noopener\"><span style=\"color: #3366ff;\">Check out this awesome infographic.</span></a></strong></p>\n<h3>How UPI payment works for online stores</h3>\n<p>Here is an example showing how UPI payments work on Google Pay, earlier known as Tez.</p>\n<div id=\"attachment_8306\" style=\"width: 1034px\" class=\"wp-caption alignnone\"><img class=\"wp-image-8306 size-large\" src=\"https://www.instamojo.com/blog/wp-content/uploads/UPI2-1024x384.png\" alt=\"\" width=\"1024\" height=\"384\" /><p class=\"wp-caption-text\">My experience for paying via UPI app while ordering food online in August 2018. (These screens are from Freshmenu &amp; Tez(Now Google Pay) iOS app)</p></div>\n<p>Apps like — Google Pay (Tez), BHIM, PhonePe and Paytm are all UPI apps which use a VPA(Virtual Payment Address)/UPI ID to make &amp; receive payments.</p>\n<h3>Adding UPI options to your Website or App</h3>\n<p>You can allow your customers to pay you with UPI too. But how do you enable UPI payment option for your website or app in a way that your users understand UPI too?</p>\n<p>A few months ago, while adding the UPI payment option to Instamojo web/app, I dug deeper into these questions <strong>“What People Don’t Know or Hardly Know About the UPI”</strong> and I found some great ways to add UPI options.</p>\n<p>Below are screenshots from our UPI payment options to explain my findings better.</p>\n<h3>Things to keep in mind:</h3>\n<p><strong>1. Try avoiding input fields with a placeholder like this example shown below:</strong></p>\n<p><img class=\"alignnone wp-image-8308 size-full\" src=\"https://www.instamojo.com/blog/wp-content/uploads/UPI3.png\" alt=\"\" width=\"600\" height=\"200\" /><br />\nIndia has a big user base, and they all are not the same. They all are from different backgrounds and cities. Some users may take more to understand a new service or technology than a person from a big city.</p>\n<p>In the example above, it is difficult to understand what the user must do.  We found a lot of users entering the same VPA in input field while paying through Instamojo!</p>\n<p><strong>Why are the users typing the same VPA as in input?</strong><br />\nBecause they still don’t know what’s their own VPA/UPI ID and we should tell them about this clearly.</p>\n<p><strong>2. Help users to know their VPA</strong></p>\n<p>Presenting adaptive help to users can make it faster to find answers relevant to the user and drives them to exactly what they are looking for.<br />\nWe can show to the users how to find their VPA on the payment screen near the UPI input field so they can check it quickly and make the payment.</p>\n<p>Not just how to find UPI ID, we can also help users with how to pay using UPI(see below image).</p>\n<p><img class=\"alignnone wp-image-8309 size-full\" src=\"https://www.instamojo.com/blog/wp-content/uploads/UPI4.png\" alt=\"\" width=\"600\" height=\"200\" /></p>\n<p>This solves two problems: How to find a UPI ID and how to pay using UPI. This will:<br />\na.) Help users find, create or recall a VPA.<br />\nb.) Increase the chances of a customer paying with UPI.</p>\n<h3>3. Give them options to choose</h3>\n<p>Don’t just provide an input field to users for entering their UPI/VPA, give them options to choose quickly which UPI app they are using. See the example below:</p>\n<p><img class=\"alignnone wp-image-8310 size-full\" src=\"https://www.instamojo.com/blog/wp-content/uploads/upi5.png\" alt=\"\" width=\"600\" height=\"347\" /><br />\n<strong>Why give them options?</strong></p>\n<p>It will help users recognize UPI apps and which of them they already have installed on their phones.</p>\n<p><strong>Why is Instamojo showing these 4 options only?</strong></p>\n<p>While Instamojo also allows a customer to choose other UPI apps as well, we feature 4 main options.</p>\n<p>According to our data, customers were using these top 4 UPI apps most of the time to pay with UPI on Instamojo. It’s totally up to you to decide which options you want to show.</p>\n<blockquote><p>Data leads to insights; business owners, managers or designers can turn those insights into decisions and actions that improve the experience and business. This is the power of data.</p></blockquote>\n<h3>4. Ask for less</h3>\n<p>For this step, first, let me explain the UPI field in detail:</p>\n<p><img class=\"alignnone wp-image-8311 size-full\" src=\"https://www.instamojo.com/blog/wp-content/uploads/upi6.png\" alt=\"\" width=\"800\" height=\"355\" /></p>\n<p><strong>UPI ID/VPA Break Down</strong><br />\nIn the above image, the UPI ID is “murarijha@okhdfcbank”<br />\nlet’s separate this into two sections:</p>\n<p>“murarijha” is user’s unique id and “@okhdfcbank” this the PSP(payment service provider). A VPA is a combination of the Unique ID &amp; PSP. You can just show the PSP (payment service provider) by default according to chosen the UPI app.</p>\n<p><img class=\"alignnone wp-image-8316 size-full\" src=\"https://www.instamojo.com/blog/wp-content/uploads/upi7.png\" alt=\"\" width=\"800\" height=\"380\" /></p>\n<p>The PSP (Payment service provider) is different for each bank, same as the UPI apps. Every app has tie-ups with different banks for UPI payment option.</p>\n<h3>Understanding PSPs and UPI Payments</h3>\n<p>So if you are using a bank’s UPI app (ex. SBI Pay from SBI bank, then the PSP would be “@sbi”).  In another case, if you choose a UPI app eg. PhonePe then the PSP would be “@ybl”, ybl stands for Yes Bank Limited and PhonePe has a tie-up with yes bank. See how UPI apps are using different PSP in their apps in the image below:</p>\n<p><img class=\"alignnone wp-image-8315 size-full\" src=\"https://www.instamojo.com/blog/wp-content/uploads/upi8.png\" alt=\"\" width=\"800\" height=\"564\" /></p>\n<p><strong>UPI Apps and their UPI IDs/VPAs examples</strong></p>\n<p>Only Google Pay (Tez) has multiple PSP(Payment Service Provider). If a user is choosing Google Tez as their UPI app then we can show a drop-down near the PSP handle.</p>\n<p><img class=\"alignnone wp-image-8314 size-full\" src=\"https://www.instamojo.com/blog/wp-content/uploads/upi9.png\" alt=\"\" width=\"600\" height=\"400\" /></p>\n<p>This is a great way to ask for as less information and yet provide them options to choose from. They just need to enter their unique id because the PSP is already visible according to their chosen UPI app.</p>\n<p><strong>Important:</strong><br />\n<em>Please don’t forget to provide these options “How to Find UPI ID” &amp; “How to Pay by UPI” near the input field “Enter your UPI ID”. </em></p>\n<p>To reiterate, educate and allow your customers to choose. The above steps and suggestions made our user experience a lot easier. We were also able to get more customers to pay with UPI and make this work for them!</p>\n<p>Here are some screens from the Instamojo UPI experience:</p>\n<p><img class=\"alignnone wp-image-8313 size-full\" src=\"https://www.instamojo.com/blog/wp-content/uploads/upi10.png\" alt=\"\" width=\"800\" height=\"380\" /></p>\n<p><img class=\"alignnone wp-image-8312 size-full\" src=\"https://www.instamojo.com/blog/wp-content/uploads/upi11.png\" alt=\"\" width=\"800\" height=\"600\" /></p>\n<h2><strong>What can you do with Instamojo UPI?</strong></h2>\n<ul>\n<li>You can receive payments easily on your UPI handle with Instamojo.</li>\n<li>It is enabled automatically on your payment form.</li>\n<li>You don’t need a VPA to collect money with UPI from your customers.</li>\n</ul>\n<p>Paying on Instamojo with UPI is super easy. If you already have a <strong><a href=\"https://www.instamojo.com/blog/5-things-can-upi-vpa/\" target=\"_blank\" rel=\"noopener\"><span style=\"color: #3366ff;\">Virtual Payment Address(VPA)</span></a></strong> you can use it to pay on Instamojo. The UPI option is <span style=\"color: #3366ff;\"><a style=\"color: #3366ff;\" href=\"https://www.instamojo.com/blog/collecting-payments-via-instamojo/\" target=\"_blank\" rel=\"noopener\">available in the payment form</a></span> along with all the other modes like Debit Card, Credit Cards, Netbanking, Wallets, and even NEFT.</p>\n<p><strong>Questions?</strong><br />\nPlease feel free to ask any questions about UPI; this way we can help each other learn and grow. I have researched a lot about UPI &amp; I’ll try to answer your questions in the best way I can. If you have any suggestions, please leave your comments below.</p>\n<p><strong>Murari Jha is a product designer at Instamojo. He loves making things that are easy to understand and enjoys failures (at least for a moment). This blog first appeared on <a href=\"https://medium.com/@creativemj/the-most-useful-way-to-add-upi-payments-to-your-app-or-website-abbc7c3e0473?source=user_profile---------2------------------\">Medium.com.</a></strong></p>\n<hr />\n<p style=\"text-align: center;\"><a class=\"mb-button mb-style-flat mb-size-default mb-corners-default mb-text-style-default \" style=\"background-color: #2bc470;\" href=\"http://www.instamojo.com/?ref=blog\">SIGN UP ON INSTAMOJO</a></p>\n<p>The post <a rel=\"nofollow\" href=\"https://www.instamojo.com/blog/add-upi-payments-app-website-online/\">The Most Useful Way to add UPI Payments to your App/Website</a> appeared first on <a rel=\"nofollow\" href=\"https://www.instamojo.com/blog\">Blog Instamojo</a>.</p>"
        },
        {
            "title": "India is the 3rd Biggest Startup Hub in the World – NASSCOM",
            "link": "https://www.instamojo.com/blog/india-ranks-3rd-biggest-hub-startup-bangalore/",
            "description": "In the 4th edition of a new NASSCOM-Zinnov report titled “Indian Start-up Ecosystem 2018: Approaching Escape Velocity,&#8221; India has been ranked the 3rd biggest startup hub in the world!\n\n\nMultiple factors made India a leader of growth in the tech startup sector. Here are ...",
            "permalink": "",
            "pubdate": "Mon Oct 29 2018 15:15:48 GMT+0000 (UTC)",
            "comments": "https://www.instamojo.com/blog/india-ranks-3rd-biggest-hub-startup-bangalore/#respond",
            "feedUrl": "https://www.instamojo.com/blog/feed/",
            "when": "Wed Oct 31 2018 17:10:36 GMT+0000 (UTC)",
            "aggregator": "River5 v0.4.14",
            "id": 55,
            "fullDescription": "<p>In the 4th edition of a new NASSCOM-Zinnov report titled “Indian Start-up Ecosystem 2018: Approaching Escape Velocity,&#8221; India has been ranked the 3rd biggest startup hub in the world!</p>\n<h3><img class=\"alignnone wp-image-8298 size-full\" src=\"https://www.instamojo.com/blog/wp-content/uploads/Screen-Shot-2018-10-29-at-7.40.51-PM.png\" alt=\"\" width=\"1166\" height=\"655\" /></h3>\n<h3></h3>\n<h3>Multiple factors made India a leader of growth in the tech startup sector. Here are some highlights from the report:</h3>\n<div class=\"page\" title=\"Page 3\">\n<div class=\"layoutArea\">\n<div class=\"column\">\n<ul>\n<li>The number of advanced technology start-ups increased by 50% from 2017, with Data Analytics, Artificial Intelligence and IoT witnessing the fastest adoption.</li>\n</ul>\n<div class=\"page\" title=\"Page 3\">\n<div class=\"layoutArea\">\n<div class=\"column\">\n<ul>\n<li>The start-up ecosystem is becoming more global – Indian start-ups (both B2B and B2C) are expanding to other markets, and global giants are gravitating towards India.</li>\n<li>\n<div class=\"page\" title=\"Page 3\">\n<div class=\"layoutArea\">\n<div class=\"column\">\n<p>More Tier 2/Tier 3 cities are emerging as start-up hubs, and more experienced professionals are taking entrepreneurial route.</p>\n</div>\n</div>\n</div>\n</li>\n</ul>\n</div>\n</div>\n</div>\n</div>\n</div>\n</div>\n<h2><img class=\"alignnone wp-image-8297 size-full\" src=\"https://www.instamojo.com/blog/wp-content/uploads/Screen-Shot-2018-10-29-at-7.32.17-PM.png\" alt=\"\" width=\"1161\" height=\"653\" /></h2>\n<h2>Namma Bengaluru is the biggest startup hub</h2>\n<p>According to the report, Bangalore is now one of the fastest growing tech startup hubs. A total of 1,200 tech-startups were added to the list in 2018, alone! Today, the city boasts of 7,200- 7,700 registered startups.</p>\n<p><strong>Bangalore, Delhi-NCR, and Mumbai are the top three cities in India that have seen tremendous growth in Startups.</strong></p>\n<p><img class=\"alignnone wp-image-8296 size-full\" src=\"https://www.instamojo.com/blog/wp-content/uploads/Screen-Shot-2018-10-29-at-7.20.11-PM.png\" alt=\"NASSCOM startups report\" width=\"1172\" height=\"658\" /></p>\n<p>As per the report by NASSCOM, overall investments have seen 100% growth from $2 billion in 2017 to $4.2 million in 2018. This only goes to prove the projected growth of the startup ecosystem in the city.</p>\n<p>While the startup culture allows for a fast-paced and on-the-go life, it has done much more than just come up with effective solutions. Startups have accounted for over 40,000 direct jobs in 2018. This brings it to a total of over 1,60,000-1,70,000 jobs in total. This indicates the direct impact on job creation and employment generation.</p>\n<p>Some key drivers of growth in Startup growth and expansion were:</p>\n<ul>\n<li>Growth in investor sentiment.</li>\n<li>Local market success.</li>\n<li>Optimism in the growth of revenue.</li>\n<li>Valuation increase.</li>\n<li>Aspirations of becoming a global company.</li>\n</ul>\n<h2>Great time to start up!</h2>\n<p>The report highlighted several pointers that show a favorable time to start your own business. More reasons for you to start your own business!</p>\n<p>Why wait then?</p>\n<p>Whether you are a newbie or an established entrepreneur, Instamojo has something that fits every bill.</p>\n<p>If you are looking for a place to host and sell your products, use our <a href=\"https://www.instamojo.com/online-store/\" target=\"_blank\" rel=\"noopener\"><span style=\"color: #3366ff\">Instamojo online store</span></a> to sell, collect payments, ship and more for FREE! Our <a href=\"https://www.instamojo.com/app-store/\" target=\"_blank\" rel=\"noopener\"><span style=\"color: #3366ff\">custom-built tools</span></a> can also help you manage, track and scale your business.</p>\n<p>Join over 500,000 sellers today.</p>\n<hr />\n<p style=\"text-align: center\"><a class=\"mb-button mb-style-flat mb-size-default mb-corners-default mb-text-style-default \" style=\"background-color: #2bc470\" href=\"http://www.instamojo.com/?ref=blog\">START WITH INSTAMOJO</a></p>\n<p>The post <a rel=\"nofollow\" href=\"https://www.instamojo.com/blog/india-ranks-3rd-biggest-hub-startup-bangalore/\">India is the 3rd Biggest Startup Hub in the World &#8211; NASSCOM</a> appeared first on <a rel=\"nofollow\" href=\"https://www.instamojo.com/blog\">Blog Instamojo</a>.</p>"
        },
        {
            "title": "Strategic Ways of Finding your First Product Inspiration",
            "link": "https://www.instamojo.com/blog/ways-finding-first-product-inspiration/",
            "description": "On the look for the next big thing &#8211; your first product inspiration that can set you on track?\nBuilding a business is easy, but running a successful and sustainable business is hard. To run a sustainable business, it is essential for you as a business owner to understand ...",
            "permalink": "",
            "pubdate": "Fri Oct 26 2018 12:54:57 GMT+0000 (UTC)",
            "comments": "https://www.instamojo.com/blog/ways-finding-first-product-inspiration/#respond",
            "feedUrl": "https://www.instamojo.com/blog/feed/",
            "when": "Wed Oct 31 2018 17:10:36 GMT+0000 (UTC)",
            "aggregator": "River5 v0.4.14",
            "id": 56,
            "fullDescription": "<p>On the look for the next big thing &#8211; your first product inspiration that can set you on track?</p>\n<p>Building a business is easy, but running a successful and sustainable business is hard. To run a sustainable business, it is essential for you as a business owner to understand how demand and supply works. Unless there isn&#8217;t a demand for something in the market, it is less likely you will have a good turn over.</p>\n<p>To understand the demand side, it is important to understand the challenges your customers face, and then build a product to address those challenges. Inspiration can be drawn from anywhere. But following through with it and converting it into a flourishing business, needs both passion and hard-work.</p>\n<h2>Here are some places where you can pick up product inspiration:</h2>\n<ul>\n<li>\n<h3>Product inspiration from solving a customer pain point:</h3>\n</li>\n</ul>\n<p>Any product or service you have to offer has to address or solve your customers pain point. Hence, it is crucial to first identify and then build a product to address these challenges. Once you have tapped into this aspect, you can also make a business out of selling similar or complementary products or services. For this, first, identify the problem you wish to solve. Then look up similar products that are already present in the market. Conduct a research and understand the shortcomings of these products. Once done, you will have an idea about what your product has to be, and the problem it will address.</p>\n<ul>\n<li>\n<h3>Product inspiration from your professional experience:</h3>\n</li>\n</ul>\n<p>Working for long hours for someone else would have helped you learn a few tricks of the trade. If you have a domain expertise and passion in a particular field, you can make a <a href=\"https://www.instamojo.com/blog/know-what-to-expect-before-taking-up-freelancing-full-time/\" target=\"_blank\" rel=\"noopener\"><span style=\"color: #3366ff\">business idea out of it</span></a>. Original ideas and content will always help you stand out and gain more customers. An ideal example of this would be the field of <a href=\"https://www.instamojo.com/blog/why-businesses-should-prioritize-social-media-marketing/\" target=\"_blank\" rel=\"noopener\"><span style=\"color: #3366ff\">digital marketing</span></a>. No business is complete without content and digital marketing. You can create an agency of your own, and convert your expertise and passion into a flourishing business.</p>\n<ul>\n<li>\n<h3>Product inspiration through intensive research:</h3>\n</li>\n</ul>\n<p>If you have an idea but are unsure about how to convert into a business model or product, then market research is your go-to place. Identify your target audience and conduct a thorough market research. Here, you can ask these customers, inputs about your products and whether they would pay for your product. This would help you validate the standing of your product and whether it will work or not. Additionally, research about similar products and understand their offerings and shortcomings. This will help better your product to ensure that this is what your customers want from you.</p>\n<ul>\n<li>\n<h3>Product inspiration with high ROI:</h3>\n</li>\n</ul>\n<p>To build a sustainable business, it is crucial to have a high Return On Investment (ROI). This would mean, you can pick a product which you can build from scratch. Raw materials are often available at cheaper prices, as compared to the prices of the end products. This makes for an ideal product when made in bulk, also accounting for higher ROIs. For example: if you are into the jewelry making industry, raw materials in bulk would hardly cost you a dime. But, the end product would go for higher prices, making for larger profit margins.</p>\n<ul>\n<li>\n<h3>Product inspiration by finding trending products in marketplaces:</h3>\n</li>\n</ul>\n<p>This is an easy way of finding inspiration of the internet. Once you have defined the particular space you want to venture into, identify your product niche as well. Once this is done, you can look up popular website or aggregators, to find similar products which have a high demand. Once you have identified these products, you can compare their specs and offerings. Additionally, you can identify the problem areas customers face with these products, and build a product which addresses this problem specifically. This would help customers pick your product over those of others.</p>\n<ul>\n<li>\n<h3>Product inspiration based on keyword search:</h3>\n</li>\n</ul>\n<p>There is no denying that SEO helps to rank your website and products better. But, did you know you can also use a keyword search to help identify related searches by customers? Keyword searches can help you understand what is the current challenge or product they are looking for. This, in turn, can help you understand what is the problem you can address and solve, thereby making it an easy way of identifying your product motivation, to convert into a functional product or business model.</p>\n<p>Inspiration is easy to find. Following up with a working model, finding a place to showcase and sell it, is the task.</p>\n<p>With Instamojo, you can do just that.</p>\n<p>Use our <a href=\"https://www.instamojo.com/online-store/\" target=\"_blank\" rel=\"noopener\"><span style=\"color: #3366ff\">free online store,</span></a> to showcase and sell your products. Additionally, you can use our payments and <a href=\"https://www.instamojo.com/smart-links/\" target=\"_blank\" rel=\"noopener\"><span style=\"color: #3366ff\">smart links</span></a> to collect more than just instant payments. Collect customer details, GST details, customize your payment links to match your brand and more. You can also use our <a href=\"https://www.instamojo.com/app-store/\" target=\"_blank\" rel=\"noopener\"><span style=\"color: #3366ff\">free tools</span></a>, customer made to help your business scale and grow.</p>\n<hr />\n<p>&nbsp;</p>\n<p style=\"text-align: center\"><a class=\"mb-button mb-style-flat mb-size-default mb-corners-default mb-text-style-default \" style=\"background-color: #2bc470\" href=\"http://www.instamojo.com/?ref=blog\">GET STARTED WITH INSTAMOJO</a></p>\n<p>The post <a rel=\"nofollow\" href=\"https://www.instamojo.com/blog/ways-finding-first-product-inspiration/\">Strategic Ways of Finding your First Product Inspiration</a> appeared first on <a rel=\"nofollow\" href=\"https://www.instamojo.com/blog\">Blog Instamojo</a>.</p>"
        },
        {
            "title": "Email Marketing Hacks to Acquire and Retain Customers",
            "link": "https://www.instamojo.com/blog/email-marketing-customer-acquisition-retention/",
            "description": "Email marketing is not dead. While most things require your keen attention, did you know you could automate some of your work just through emails? These email marketing hacks may just be your answer.\nEmails are one of the most effective conventional ways of engaging your ...",
            "permalink": "",
            "pubdate": "Wed Oct 24 2018 13:12:50 GMT+0000 (UTC)",
            "comments": "https://www.instamojo.com/blog/email-marketing-customer-acquisition-retention/#respond",
            "feedUrl": "https://www.instamojo.com/blog/feed/",
            "when": "Wed Oct 31 2018 17:10:36 GMT+0000 (UTC)",
            "aggregator": "River5 v0.4.14",
            "id": 57,
            "fullDescription": "<p>Email marketing is not dead. While most things require your keen attention, did you know you could automate some of your work just through emails? These email marketing hacks may just be your answer.</p>\n<p><a href=\"https://www.instamojo.com/blog/email-marketing-how-to-start-guide/\" target=\"_blank\" rel=\"noopener\"><span style=\"color: #3366ff;\">Emails are one of the most effective conventional ways of engaging your customers</span></a>. It has also proven to be useful in both <a href=\"https://www.instamojo.com/blog/brand-strategies-customer-acquisition-retention/\" target=\"_blank\" rel=\"noopener\"><span style=\"color: #3366ff;\">customer acquisition</span></a> and retention. But, this requires manpower and time. To overcome this hurdle, use automated emails to help reach out and engage with your customers.</p>\n<h2>Here are some automated email marketing hacks:</h2>\n<ul>\n<li>\n<h3>Targeting new customers:</h3>\n</li>\n</ul>\n<p>When a customer first signs up with you, it&#8217;s ideal to <strong>send a welcome email</strong>.</p>\n<p>Through this mail, you can help your customer get to know your brand better. Additionally, you can collect information in terms of their product preferences, likings and more. This can help you craft customized emails in the future to help convert them.</p>\n<p><strong>Some email ideas you could use are:</strong></p>\n<ol>\n<li>Send your customers discount coupons.</li>\n<li>Offer them a sneak peek into new product launches.</li>\n<li>Allow them to understand your brand, products, and offerings to help them associate better with you.</li>\n</ol>\n<p>While emails, are mostly formal in nature and come with a word limit, you can also encourage your users to follow you on various <a href=\"https://www.instamojo.com/blog/why-businesses-should-prioritize-social-media-marketing/\" target=\"_blank\" rel=\"noopener\"><span style=\"color: #3366ff;\">social channels</span></a>. This allows for an informal mode of communication, which can help <a href=\"https://www.instamojo.com/blog/sales-techniques-increase-revenue-brand/\" target=\"_blank\" rel=\"noopener\"><span style=\"color: #3366ff;\">build customer loyalty</span></a> and convert them into repeat customers.</p>\n<ul>\n<li>\n<h3>Targeting repeat customers:</h3>\n</li>\n</ul>\n<p>Customer acquisition involves a huge sum of money. Hence, it is crucial for you as a business, to ensure you convert these first-time customers into repeat customers. While you can use a host of retention marketing strategies, here are some easy and inexpensive automated email marketing strategies to get your customers to transact with you more often.</p>\n<p><a href=\"https://www.instamojo.com/blog/retention-marketing-repeat-customers/\" target=\"_blank\" rel=\"noopener\"><span style=\"color: #3366ff;\">Repeat customers already are well aware of your brand</span></a>, products, and offerings. Use their shopping and search history to send them emails regarding recommendations, price drops, additional discounts on products on their wishlist. This will encourage them to transact with you more often and also help brand recall.</p>\n<ul>\n<li>\n<h3>Follow-up emails:</h3>\n</li>\n</ul>\n<p>Follow-up emails can be of either transactional or promotional nature. After a customer makes a purchase, you can send them emails about tracking their package and other recommendations as well.</p>\n<p>You can use this to also send your customers promotional codes for their future buys, recommendations for complimentary products and more. This will help you to convert these customers into recurring customers, which would further <a href=\"https://www.instamojo.com/blog/sales-techniques-increase-revenue-brand/\" target=\"_blank\" rel=\"noopener\"><span style=\"color: #3366ff;\">increase sales and revenue</span></a>.</p>\n<ul>\n<li>\n<h3>Emails that add value to your customers:</h3>\n</li>\n</ul>\n<p>While most of the emails you send your customers are related to your products, offerings and sometimes even discounts, they don&#8217;t add value. It is important for you as a business, to also genuinely help your customers in your domain of expertise.</p>\n<p>Some of the ways you can do this are:</p>\n<h4>Educational content:</h4>\n<p>Let&#8217;s assume you are in the cosmetics industry. This industry comes with a lot of ambiguity in terms of what skincare routines one must follow, how to pick the right foundation etc. While you can send your customers generic emails, you can also send them content which helps them. You could help them understand what will work for their skin type, best practices to achieve various beauty parameters and so on. This would not only help your customers understand your product offerings better, but also give you an opportunity to recommend complementary products to increase your sales.</p>\n<p><strong>Newsletters are the best way to not just educate your customers but also to generate leads.</strong></p>\n<h4>Personalize your brand:</h4>\n<p>To engage your customers, it&#8217;s important that they get to know you on a more humane level. Let your customers know your story, your journey, and future plans. This would particularly be important if you are an NGO or a business which is looking for crowdfunding or donations. This will help your customers to associate with you for longer periods of time, thereby helping you with both <a href=\"https://www.instamojo.com/blog/sales-techniques-increase-revenue-brand/\" target=\"_blank\" rel=\"noopener\"><span style=\"color: #3366ff;\">brand awareness and customer loyalty. </span></a></p>\n<h4>Employ the art of storytelling:</h4>\n<p>While pointers and blunt reads help for a quick and easy glance into your offerings, this just won&#8217;t suffice. Incorporate the art of storytelling to make compelling reads. This is the perfect recipe to create curiosity, engagement and customer retention.</p>\n<p>While <a href=\"https://www.getvero.com/resources/email-marketing-hacks/\" target=\"_blank\" rel=\"noopener\"><span style=\"color: #3366ff;\">these strategies</span></a> may help you increase your customer base, it is crucial to retain them as well. This can be done when you provide your customers with a good user experience.</p>\n<p>With Instamojo, you can look forward to a wholesome experience while transacting. You can not only receive instant payments, and assure your customers secure transactions, but also use our other offerings to grow.</p>\n<p>Use our<a href=\"https://www.instamojo.com/blog/what-to-sell-on-your-online-store-in-india-sell-products-online/\"> <span style=\"color: #3366ff;\">online store </span></a>to showcase and sell your products, our <span style=\"color: #3366ff;\"><a style=\"color: #3366ff;\" href=\"https://www.instamojo.com/blog/create-invoices-and-collect-payments-in-one-place-with-instamojo/\">invoice generator</a></span>, SMS alerts, <span style=\"color: #3366ff;\"><a style=\"color: #3366ff;\" href=\"https://www.instamojo.com/blog/instamojo-pro-analytics-data-small-business/\">pro analytics</a> </span>and more.</p>\n<p>What&#8217;s holding you back? Start now with these easy to execute email marketing hacks!</p>\n<hr />\n<p style=\"text-align: center;\"><a class=\"mb-button mb-style-flat mb-size-default mb-corners-default mb-text-style-default \" style=\"background-color: #2bc470;\" href=\"http://www.instamojo.com/?ref=blog\"> DISCOVER INSTAMOJO</a></p>\n<p>&nbsp;</p>\n<p>The post <a rel=\"nofollow\" href=\"https://www.instamojo.com/blog/email-marketing-customer-acquisition-retention/\">Email Marketing Hacks to Acquire and Retain Customers</a> appeared first on <a rel=\"nofollow\" href=\"https://www.instamojo.com/blog\">Blog Instamojo</a>.</p>"
        },
        {
            "title": "17 Payment Gateway Terms Entrepreneurs Must Know",
            "link": "https://www.instamojo.com/blog/payment-gateway-terminologies/",
            "description": "Are you a newbie entrepreneur or an established business owner looking to pick a payment gateway for your business?\nWith the several options available in the market, it can be a difficult task to pick the best gateway for your business. It can get worse because payment gateways ...",
            "permalink": "",
            "pubdate": "Mon Oct 22 2018 12:48:34 GMT+0000 (UTC)",
            "comments": "https://www.instamojo.com/blog/payment-gateway-terminologies/#comments",
            "feedUrl": "https://www.instamojo.com/blog/feed/",
            "when": "Wed Oct 31 2018 17:10:36 GMT+0000 (UTC)",
            "aggregator": "River5 v0.4.14",
            "id": 58,
            "fullDescription": "<p>Are you a newbie entrepreneur or an established business owner looking to pick a payment gateway for your business?</p>\n<p>With the several options available in the market, it can be a difficult task to pick the best gateway for your business. It can get worse because payment gateways come with a wide range of jargon and industry-related terminologies.</p>\n<p>Here is a glossary of words you as a business owner should know. This can not just help you pick the right payment gateway or partner but also help you understand the nitty-gritty of how payment gateways work.</p>\n<h2>Let&#8217;s Dig Right into Payment Gateway Terminologies:</h2>\n<ul>\n<li>\n<h3>Merchant</h3>\n</li>\n</ul>\n<p>Someone who sells products or services. They are mainly businesses which may be small or big.</p>\n<ul>\n<li>\n<h3>MID</h3>\n</li>\n</ul>\n<p>Short for merchant ID. It is a unique 16-digit number provided to the seller by the payment gateway.</p>\n<ul>\n<li>\n<h3>Order</h3>\n</li>\n</ul>\n<p>Orders are a potential sale. A completed order becomes a sale only after the payment is successful.</p>\n<ul>\n<li>\n<h3>Interchange Network</h3>\n</li>\n</ul>\n<p>An Interchange network is a card network that facilitates different card payments from different banks. Example: Visa, MasterCard, Rupay etc.</p>\n<ul>\n<li>\n<h3>Annual Maintenance Cost (AMC)</h3>\n</li>\n</ul>\n<p>An Annual Maintenance Cost is what payment gateways charge as their annual fee. It typically ranges between Rs. 1,200 &#8211; Rs. 10,000.</p>\n<ul>\n<li>\n<h3>Authentication</h3>\n</li>\n</ul>\n<p>Authentication is the first set of checks by a bank to validate the identity of the person making the payment. Your PIN, OTP, CVV no., card number, 3D Secure number, biometrics &#8211; retina scans/fingerprints etc are authentication parameters</p>\n<ul>\n<li>\n<h3><strong>Authorization: </strong></h3>\n</li>\n</ul>\n<p>Once the payment has been authenticated, it is sent to the customer’s bank via the interchange network to check: If user making payment has sufficient balance in their account. If the transaction initiated meets the issuing bank/buyer’s bank policies.</p>\n<ul>\n<li>\n<h3>Acquiring Bank</h3>\n</li>\n</ul>\n<p>An acquiring bank is a bank which allows you to make transactions<span style=\"font-size: 16px;\"> through the payment gateway you choose. </span></p>\n<ul>\n<li>\n<h3>Issuing Bank</h3>\n</li>\n</ul>\n<p>An issuing bank is a bank the customer uses when making a transaction.</p>\n<ul>\n<li>\n<h3>Nodal Account</h3>\n</li>\n</ul>\n<p>A nodal account is created by an e-commerce company, payment gateway, wallet or payment aggregator. This is made specifically to accept digital payments.</p>\n<ul>\n<li>\n<h3>Merchant Account</h3>\n</li>\n</ul>\n<p>A merchant account is a temporary account created by the payment gateway to allow for transactions from the nodal account to the merchant account.</p>\n<ul>\n<li>\n<h3>Capture</h3>\n</li>\n</ul>\n<p>Once you have authorized a payment, the money will be debited from your account and credited to the nodal account. For the merchant to receive the payment, they need to acknowledge that the money belongs to them. This process is called &#8220;capture&#8221;. If the particular merchant doesn&#8217;t raise a &#8220;capture&#8221;, the amount will be refunded to the customer&#8217;s account.</p>\n<ul>\n<li>\n<h3>Settlement</h3>\n</li>\n</ul>\n<p>Once a particular transaction has been &#8220;captured&#8221;, the payment gateway involved needs to &#8220;settle&#8221; the said amount with the merchant. The nodal account is different from your bank account.</p>\n<p>A settlement happens when money is credited from the payment gateway&#8217;s nodal account to your bank account. This usually happens within 1-2 days or the payment gateway&#8217;s settlement cycles.</p>\n<ul>\n<li>\n<h3>Refunds</h3>\n</li>\n</ul>\n<p>If a customer is unhappy with your product, they can either opt for an exchange or initiate a refund. A refund is a reversal of a transaction. Some of the reasons for<a href=\"https://www.instamojo.com/blog/new-features-initiate-full-refunds-view-transactions-in-a-payout-export-payouts/\" target=\"_blank\" rel=\"noopener\"><span style=\"color: #3366ff;\"> refund initiations</span></a> could be customer dissatisfaction, delivery of defected products and more.</p>\n<ul>\n<li>\n<h3>Chargeback</h3>\n</li>\n</ul>\n<p>This happens when the customer isn&#8217;t aware of the transaction or disputes a transaction. This can be a failed or unsuccessful transaction or just a fraudulent transaction. Once he pulls up this complaint, the issuing bank puts this complaint under the &#8220;chargeback&#8221; category.</p>\n<p>Once done, the onus to prove the validity of the transactions is on the merchant. If not done within 15 days, the merchant has to refund or pay the customer back for that transaction.</p>\n<p><strong>Note:</strong> Refunds and chargebacks, are not the same. A refund is initiated either from the side of the consumer or the merchant, to reimburse the consumer as they are dissatisfied with your goods or services. A chargeback is where a customer is asking the issuing bank to forcefully remove the money from the merchant account, as the transaction is not initiated from his side.</p>\n<p>Chargebacks are harmful to your business reputation! <a href=\"https://www.instamojo.com/blog/chargeback-meaning-merchants-bank-instamojo/\" target=\"_blank\" rel=\"noopener\"><strong>Here are a few ways you can avoid a chargeback.</strong></a></p>\n<ul>\n<li>\n<h3><b>Bank Charges</b></h3>\n</li>\n</ul>\n<p>The acquiring bank deducts this amount for offering card payment services to you. This deduction rate is as per the specifications provided by the RBI.</p>\n<ul>\n<li>\n<h3><b>Processing Charges</b></h3>\n</li>\n</ul>\n<p>Processing charges as the name implies, are levied by the payment aggregator for processing your transaction. Additionally, the aggregator may also need to pay a set amount to the other parties who involved in processing the transaction. These charges are only levied for successful transactions.</p>\n<ul>\n<li>\n<h3><b>Transaction Discount Rate (TDR)/ Merchant Discount Rate (MDR)</b></h3>\n</li>\n</ul>\n<p>TDR is the amount that the payment gateway charges the merchant for transacting with them. The merchant receives his money with the TDR deducted, after a successful transaction. These charges will be specified by the payment gateway, as part of their <a href=\"https://www.instamojo.com/pricing/\" target=\"_blank\" rel=\"noopener\"><span style=\"color: #3366ff;\">pricing</span></a>.</p>\n<p><strong>TDR = Bank Charges + Processing Charges + Taxes</strong></p>\n<p>There are many <a href=\"https://www.tsys.com/solutions/products-services/merchant/merchant-support/glossary/\" target=\"_blank\" rel=\"noopener\"><span style=\"color: #3366ff;\">more terminologies</span></a> in the world of payments. These basic ones can help you get a better understanding of the various offerings a gateway has to offer you.</p>\n<p>Still need help figuring out the best payment method for your business? Check this flowchart out:</p>\n<p><img class=\"alignnone wp-image-5480 size-large\" src=\"https://www.instamojo.com/blog/wp-content/uploads/2017/02/positioning-infographic-revise-1024x682.jpg\" alt=\"payment gateway or instamojo: what is better\" width=\"1024\" height=\"682\" /></p>\n<p>With Instamojo, you can do more than just collect payments.</p>\n<p>You can use a host of our offerings to help your online business grow and scale. Some of our free services are our<a href=\"https://www.instamojo.com/blog/what-to-sell-on-your-online-store-in-india-sell-products-online/\"> online store</a>, <a href=\"https://www.instamojo.com/blog/create-invoices-and-collect-payments-in-one-place-with-instamojo/\">invoice generator</a>, SMS alerts, <a href=\"https://www.instamojo.com/blog/instamojo-pro-analytics-data-small-business/\">pro analytics</a> and more.</p>\n<p>We try our best to help you understand the various processes involved in the functioning of our gateway. Additionally, you can also check out our <a href=\"https://www.youtube.com/user/instamojo\" target=\"_blank\" rel=\"noopener\"><span style=\"color: #3366ff;\">Youtube channel</span></a> for tutorials, product updates and more.</p>\n<hr />\n<p style=\"text-align: center;\"><a class=\"mb-button mb-style-flat mb-size-default mb-corners-default mb-text-style-default \" style=\"background-color: #2bc470;\" href=\"http://www.instamojo.com/?ref=blog\"> START WITH INSTAMOJO</a></p>\n<p>The post <a rel=\"nofollow\" href=\"https://www.instamojo.com/blog/payment-gateway-terminologies/\">17 Payment Gateway Terms Entrepreneurs Must Know</a> appeared first on <a rel=\"nofollow\" href=\"https://www.instamojo.com/blog\">Blog Instamojo</a>.</p>"
        },
        {
            "title": "Influencer Marketing Hacks to Grow Your Customer Base",
            "link": "https://www.instamojo.com/blog/influencer-marketing-grow-customer-base/",
            "description": "Whether you are a new startup or an established business, increasing your customer base is one of the biggest challenges you face. Influencer marketing, may help you solve this problem.\nWith a wide variety of marketing strategies available in the market, it can be difficult for ...",
            "permalink": "",
            "pubdate": "Thu Oct 18 2018 12:33:27 GMT+0000 (UTC)",
            "comments": "https://www.instamojo.com/blog/influencer-marketing-grow-customer-base/#respond",
            "feedUrl": "https://www.instamojo.com/blog/feed/",
            "when": "Wed Oct 31 2018 17:10:36 GMT+0000 (UTC)",
            "aggregator": "River5 v0.4.14",
            "id": 59,
            "fullDescription": "<p><span style=\"font-weight: 400\">Whether you are a new startup or an established business, increasing your customer base is one of the biggest challenges you face. Influencer marketing, may help you solve this problem.</span></p>\n<p><span style=\"font-weight: 400\">With a wide variety of <a href=\"https://www.instamojo.com/blog/brand-strategies-customer-acquisition-retention/\" target=\"_blank\" rel=\"noopener\"><span style=\"color: #3366ff\">marketing strategies</span></a> available in the market, it can be difficult for you to pick the right strategy at the right time. </span></p>\n<p><span style=\"font-weight: 400\">This blog will help you understand just that.</span></p>\n<h2><b>What is <span style=\"color: #333333\">Influencer Marketing</span>?</b></h2>\n<p><span style=\"font-weight: 400\">A trending phenomenon on social media, is using an <a href=\"https://www.instamojo.com/blog/find-right-social-media-influencer-business/\" target=\"_blank\" rel=\"noopener\"><span style=\"color: #3366ff\">influencer to acquire new customers</span></a>. Here, businesses can either approach a micro-influencer (less than 10,000 followers) or a macro-influencer (100,000+) followers, to help endorse their brand. </span></p>\n<p><span style=\"font-weight: 400\">When these influencers talk about their experiences with your brand, it helps potential customers to sign up for what you have to offer them. A common myth that most businesses have, is that these influencers are often inaccessible and sometimes overly priced as well. But, this isn&#8217;t always the case. </span></p>\n<p><span style=\"font-weight: 400\">Here are some insights into how to access, and use the influencer marketing strategy to gain new customers and increase your engagement. </span></p>\n<h2><b>How to create an effective influencer marketing strategy:</b></h2>\n<ul>\n<li style=\"font-weight: 400\">\n<h3><b>Defined brand image: </b></h3>\n</li>\n</ul>\n<p><span style=\"font-weight: 400\">The most common mistakes most businesses make, is to approach an influencer, without a defined sense of their brand. It is essential for a business to have a clear <a href=\"https://www.instamojo.com/blog/brand-strategies-customer-acquisition-retention/\" target=\"_blank\" rel=\"noopener\"><span style=\"color: #3366ff\">brand image</span></a> that they wish to showcase to their customers. Additionally, defining your <a href=\"https://www.instamojo.com/blog/find-usp-unique-selling-proposition-small-business/\" target=\"_blank\" rel=\"noopener\"><span style=\"color: #3366ff\">Unique Selling Proposition</span></a> (USP) and target audience before approaching an influencer is crucial. Knowing what sets you apart from your competition and how you wish to portray yourself, is the first step to acing your influencer marketing strategy.</span></p>\n<ul>\n<li style=\"font-weight: 400\">\n<h3><b>Mirco vs. Macro influencers:</b></h3>\n</li>\n</ul>\n<p><span style=\"font-weight: 400\">The best practice to picking an influencer is to first understand your budget allocation, stage of growth and <a href=\"https://www.instamojo.com/blog/how-to-get-first-customer-own-business/\" target=\"_blank\" rel=\"noopener\"><span style=\"color: #3366ff\">customer base</span></a> you want to reach out to. While macro-influencers come with a large customer base, they may be too expensive for an early-stage business to acquire. Hence, in such cases, businesses can engage with micro-influencers at smaller costs and better engagement through them.</span></p>\n<ul>\n<li style=\"font-weight: 400\">\n<h3><b>Identify potential influencers:</b></h3>\n</li>\n</ul>\n<p><span style=\"font-weight: 400\">It is highly important for you, as a business to pick the &#8220;right influencer&#8221; for your business. The biggest mistake you can make here, is by simply following other companies blindly. Before you pick the influencers you wish to persuade to join, make sure you ask yourself the following questions: </span></p>\n<ol>\n<li style=\"font-weight: 400\"><span style=\"font-weight: 400\"> Are they in a similar industry as my business?</span></li>\n<li style=\"font-weight: 400\"><span style=\"font-weight: 400\">Do they share the same passions and interest as my business?</span></li>\n<li style=\"font-weight: 400\"><span style=\"font-weight: 400\">Does their audience match my target audience?</span></li>\n<li style=\"font-weight: 400\"><span style=\"font-weight: 400\">Do they have constant engagement on their handles?</span></li>\n</ol>\n<p><span style=\"font-weight: 400\">Once you have answered these questions, you can go ahead and shortlist the influencers, you wish to engage with. </span></p>\n<p><span style=\"font-weight: 400\">Finding the <a href=\"https://neilpatel.com/blog/influencer-market-hacks/\" target=\"_blank\" rel=\"noopener\"><span style=\"color: #3366ff\">right influencer can be a challenge</span></a>. It also comes with an associated cost. Hence, it is essential you make the right pick for your business. </span></p>\n<p><span style=\"font-weight: 400\">While acquiring new customers to interact and shop with you, it&#8217;s important to remember these customers are also open to a wide range of other companies with similar ideas and products. This is where <a href=\"https://www.instamojo.com/blog/retention-marketing-repeat-customers/\" target=\"_blank\" rel=\"noopener\"><span style=\"color: #3366ff\">retention marketing</span></a> comes into play. </span></p>\n<p><span style=\"font-weight: 400\">To acquire and retain happy customers, it is crucial you ensure them the best user-experience. While your products maybe great, it is essential you provide them an overall seamless experience. This would start with a user-friendly website and end with secure and quick payment transactions. </span></p>\n<p><span style=\"font-weight: 400\">With Instamojo, you can do more than just collecting payments.</span></p>\n<p><span style=\"font-weight: 400\">You can use a host of our other offerings to help your online business grow. Some of our free services are free</span><span style=\"color: #3366ff\"><a style=\"color: #3366ff\" href=\"https://www.instamojo.com/blog/what-to-sell-on-your-online-store-in-india-sell-products-online/\"><span style=\"font-weight: 400\"> online store</span></a></span><span style=\"font-weight: 400\">, </span><span style=\"color: #3366ff\"><a style=\"color: #3366ff\" href=\"https://www.instamojo.com/blog/create-invoices-and-collect-payments-in-one-place-with-instamojo/\"><span style=\"font-weight: 400\">invoice generator</span></a></span><span style=\"font-weight: 400\">, SMS alerts, </span><span style=\"color: #3366ff\"><a style=\"color: #3366ff\" href=\"https://www.instamojo.com/blog/instamojo-pro-analytics-data-small-business/\"><span style=\"font-weight: 400\">pro analytics</span></a></span><span style=\"font-weight: 400\"> and more.</span></p>\n<hr />\n<p style=\"text-align: center\"><a class=\"mb-button mb-style-flat mb-size-default mb-corners-default mb-text-style-default \" style=\"background-color: #2bc470\" href=\"http://www.instamojo.com/?rf=blog\">START WITH INSTAMOJO</a></p>\n<p>The post <a rel=\"nofollow\" href=\"https://www.instamojo.com/blog/influencer-marketing-grow-customer-base/\">Influencer Marketing Hacks to Grow Your Customer Base</a> appeared first on <a rel=\"nofollow\" href=\"https://www.instamojo.com/blog\">Blog Instamojo</a>.</p>"
        },
        {
            "title": "4 Ways to Increase Sales and Revenue for your Online Business",
            "link": "https://www.instamojo.com/blog/increase-sales-revenue-online-business/",
            "description": "Being a sustainable online business is a daunting task. As a prerequisite to running a flourishing online business, one needs to ensure constant sales and revenue.\nTo be sustainable, you not only need regular sales but also need to generate high-value orders. This means that a ...",
            "permalink": "",
            "pubdate": "Wed Oct 17 2018 12:18:39 GMT+0000 (UTC)",
            "comments": "https://www.instamojo.com/blog/increase-sales-revenue-online-business/#respond",
            "feedUrl": "https://www.instamojo.com/blog/feed/",
            "when": "Wed Oct 31 2018 17:10:36 GMT+0000 (UTC)",
            "aggregator": "River5 v0.4.14",
            "id": 60,
            "fullDescription": "<p><span style=\"font-weight: 400;\">Being a sustainable online business is a daunting task. </span><span style=\"font-weight: 400;\">As a prerequisite to running a flourishing online business, one needs to ensure constant sales and revenue.</span></p>\n<p><span style=\"font-weight: 400;\">To be sustainable, you not only need regular sales but also need to generate high-value orders. This means that a customer buying one high-value product should become your primary target audience for increasing your Average Order Value (AOV).</span></p>\n<p><span style=\"font-weight: 400;\">This blog will help you understand the nuances of increasing your AOV, thereby also increasing your</span><a href=\"https://www.instamojo.com/blog/sales-techniques-increase-revenue-brand/\"> <span style=\"font-weight: 400;\">revenue and sales. </span></a></p>\n<h2>Important metrics to measure the health of your online business:</h2>\n<ul>\n<li><b>Average Order Value (AOV)</b><span style=\"font-weight: 400;\"> = Total revenue/ Total number of orders.</span></li>\n</ul>\n<p>This metric will help you understand how much your customer spends, per transaction.</p>\n<ul>\n<li style=\"font-weight: 400;\"><b>Average Basket Value (ABV):</b><span style=\"font-weight: 400;\"> This is similar to AOV. But, when AOV shows the amount a customer spends per transaction, the ABV helps you gain insight into the number of items a customer bought, per transaction.</span></li>\n<li><a href=\"https://www.instamojo.com/blog/calculate-customer-lifetime-value-grow-business/\"><b>Customer Lifetime Value (CLV):</b></a><span style=\"font-weight: 400;\"> CLV is yet another important metric to measure your business. This helps you understand the worth of a customer, as long as he is associated with you.</span></li>\n</ul>\n<h2>4 Ways to Increase Sales and Revenue for your Online Business:</h2>\n<ul>\n<li>\n<h3>Product recommendations:</h3>\n</li>\n</ul>\n<p><span style=\"font-weight: 400;\">When customers visit your website, they are most likely to have a rough idea about what they wish to purchase from you. An effective strategy to increase your AOV is by listing similar product recommendations. These recommendations, may either be higher value products or products with better features and offerings.</span></p>\n<p><span style=\"font-weight: 400;\">This encourages customers to continue browsing through your website, assuring you better sales and sometimes even a few impulsive buys by your customer. Additionally, it also assures an increase in your overall revenue generation.</span></p>\n<ul>\n<li>\n<h3>Upsell and cross-sell your products:</h3>\n</li>\n</ul>\n<p><span style=\"font-weight: 400;\">To start with, here are the basic definitions of upselling and cross-selling:</span></p>\n<ul>\n<li style=\"font-weight: 400;\"><b>Upselling</b><span style=\"font-weight: 400;\">: This is when you promote a product upgrade or a more expensive version of the same product to your customers. This can be done with good</span><a href=\"https://www.instamojo.com/blog/improve-sales-avoiding-product-listing-blunders/\"> <span style=\"font-weight: 400;\">product descriptions</span></a><span style=\"font-weight: 400;\"> and marketing around the upgrades you&#8217;re selling in order to convince your customer to make that spend.</span></li>\n<li style=\"font-weight: 400;\"><b>Cross-selling</b><span style=\"font-weight: 400;\">: This is one the most commonly used modes of increasing your AOV. When your customer is buying a particular product, you can also display the complementary products that go with the product they wish to purchase.</span></li>\n</ul>\n<p><span style=\"font-weight: 400;\">For example: If your customer is buying fabric paint from you, it is also likely they will be interested in complementary products. These products can be paint brushes, varnish or even canvasses. Showcasing similar products will help them further explore your website instead of just checking out. This will not only increase the AOV but also the overall sales when coupled with upselling strategies.</span></p>\n<ul>\n<li>\n<h3>Set defined minimum order values to avail benefits:</h3>\n</li>\n</ul>\n<p><span style=\"font-weight: 400;\">For a customer to make larger spends, it is important for them to see an incentive to justify the spend. Some of the possible tactics can be:</span></p>\n<ul>\n<li style=\"font-weight: 400;\"><span style=\"font-weight: 400;\">Add an option of free delivery for a said amount.</span></li>\n<li style=\"font-weight: 400;\"><span style=\"font-weight: 400;\">additional discounts.</span></li>\n</ul>\n<p><span style=\"font-weight: 400;\">This will act as a precursor to encourage them to make larger spends with you. Additionally, this will add to your overall revenue and sales, despite the smaller chunks of money you may lose in terms of the discounts or other offerings.</span></p>\n<ul>\n<li>\n<h3>Customer loyalty program:</h3>\n</li>\n</ul>\n<p><span style=\"font-weight: 400;\">If you are an online business who deals with consumables, then this would be an ideal strategy you can employ to get recurring customers. These businesses are ones that primarily deal with selling products which need to be frequently repurchased.</span></p>\n<p><span style=\"font-weight: 400;\">For example: If you are an online business that deals with cosmetics, groceries or even household products, you can add a subscription button to help customers define how often they would like these repeat orders. This can also be accompanied by a discount offer. The percentage of discount will depend on how many months they choose to repurchase the particular item.</span></p>\n<p><span style=\"font-weight: 400;\">This is an ideal strategy for increasing your revenue as well as</span><a href=\"https://www.instamojo.com/blog/retention-marketing-repeat-customers/\"> <span style=\"font-weight: 400;\">retaining your customers</span></a><span style=\"font-weight: 400;\">. It also helps in striking a good bond with your customers and forging better and long-lasting associations with them.</span></p>\n<h3>Do MORE with Instamojo:</h3>\n<p><span style=\"font-weight: 400;\">While these strategies can help you in customer acquisition and retention, an added benefit is to build a </span><a href=\"https://www.instamojo.com/blog/why-businesses-should-prioritize-social-media-marketing/\"><span style=\"font-weight: 400;\">strong brand loyalty via social media marketing</span></a><span style=\"font-weight: 400;\">.</span><span style=\"font-weight: 400;\"> This will not only keep your customers engaged but also help you to create social media as a platform, where you can update customers on new launches, discounts, offers and more.</span></p>\n<p><span style=\"font-weight: 400;\">Keeping your customer happiness as a priority is key.</span></p>\n<p><span style=\"font-weight: 400;\">Providing </span><a href=\"https://www.instamojo.com/blog/7-tips-to-safe-online-transactions/\"><span style=\"font-weight: 400;\">seamless and secure transactions</span></a><span style=\"font-weight: 400;\"> covers the end-to-end process of a customer&#8217;s association with you. A happy customer is most likely to repurchase with you. Additionally, it more likely they will also spread the word about your brand and offerings.</span></p>\n<p><span style=\"font-weight: 400;\">With Instamojo, you can do more than just collecting payments. You can, not only assure your customers with safe transactions but also use a host of other offerings to help your online business grow. Some of our free services are free</span><a href=\"https://www.instamojo.com/blog/what-to-sell-on-your-online-store-in-india-sell-products-online/\"> <span style=\"font-weight: 400;\">online store</span></a><span style=\"font-weight: 400;\">, </span><a href=\"https://www.instamojo.com/blog/create-invoices-and-collect-payments-in-one-place-with-instamojo/\"><span style=\"font-weight: 400;\">invoice generator</span></a><span style=\"font-weight: 400;\">,</span><span style=\"font-weight: 400;\"> SMS alerts, </span><a href=\"https://www.instamojo.com/blog/instamojo-pro-analytics-data-small-business/\"><span style=\"font-weight: 400;\">pro analytics</span></a> <span style=\"font-weight: 400;\">and more.</span></p>\n<hr />\n<p style=\"text-align: center;\"><a class=\"mb-button mb-style-flat mb-size-default mb-corners-default mb-text-style-default \" style=\"background-color: #2bc470;\" href=\"http://wwww.instamojo.com/?ref=blog\"> START WITH INSTAMOJO</a></p>\n<p>The post <a rel=\"nofollow\" href=\"https://www.instamojo.com/blog/increase-sales-revenue-online-business/\">4 Ways to Increase Sales and Revenue for your Online Business</a> appeared first on <a rel=\"nofollow\" href=\"https://www.instamojo.com/blog\">Blog Instamojo</a>.</p>"
        },
        {
            "title": "Last Date for Income Tax Return Filing for Businesses Extended",
            "link": "https://www.instamojo.com/blog/last-day-file-it-returns-businesses/",
            "description": "The last date to file income tax returns for business in India for the financial year 2017-18 has been extended to October 31, 2018. Previously, the last date for filing IT returns was pegged on October 15, 2018.\nThe deadline extension comes after several stakeholders approached ...",
            "permalink": "",
            "pubdate": "Mon Oct 15 2018 11:56:12 GMT+0000 (UTC)",
            "comments": "https://www.instamojo.com/blog/last-day-file-it-returns-businesses/#respond",
            "feedUrl": "https://www.instamojo.com/blog/feed/",
            "when": "Wed Oct 31 2018 17:10:36 GMT+0000 (UTC)",
            "aggregator": "River5 v0.4.14",
            "id": 61,
            "fullDescription": "<p>The last date to file income tax returns for business in India for the financial year 2017-18 has been extended to October 31, 2018. Previously, the last date for filing IT returns was pegged on October 15, 2018.</p>\n<p>The deadline extension comes after several stakeholders approached The Central Board of Direct Taxes (CBDT) to give them more time for the audits.</p>\n<p>As of this year, all businesses have to provide their <a href=\"https://www.instamojo.com/blog/gst-return-filing-simplification-processes/\" target=\"_blank\" rel=\"noopener\"><span style=\"color: #3366ff\">GST details</span></a> in their IT returns <span style=\"color: #3366ff\"><a href=\"https://www.instamojo.com/blog/everything-you-need-to-know-about-the-revised-income-tax-return/\" target=\"_blank\" rel=\"noopener\">filings</a>.</span> Initially, there was a huge disconnect between the GST filings and the financial statements provided by businesses.</p>\n<p>Now businesses must give a comprehensive breakup of the expenses incurred. This has been introduced to decrease the number of <span style=\"color: #3366ff\"><a style=\"color: #3366ff\" href=\"https://www.instamojo.com/blog/everything-you-need-to-know-about-the-revised-income-tax-return/\" target=\"_blank\" rel=\"noopener\">IT revisions and corrections</a></span>.</p>\n<h2>Filing IT Returns for your Business</h2>\n<p>Here, is a table that can help you understand the forms you   filings:</p>\n<table style=\"height: 454px\" border=\"0\" width=\"731\" cellspacing=\"0\">\n<colgroup span=\"3\" width=\"85\"></colgroup>\n<tbody>\n<tr>\n<td align=\"left\" height=\"17\"><strong>What to show?</strong></td>\n<td align=\"left\"><strong>Where to show?</strong></td>\n<td align=\"left\"><strong>Additional Information</strong></td>\n</tr>\n<tr>\n<td align=\"left\" height=\"17\"> Declare IT returns</td>\n<td align=\"left\">Form 6</td>\n<td align=\"left\">Except for those earning income from property held for charitable purposes. They must file under ITR-7</td>\n</tr>\n<tr>\n<td align=\"left\" height=\"17\">GSTIN, Turnover/ gross receipt as per GST</td>\n<td align=\"left\">ITR-4</td>\n<td align=\"left\">This applies only to businesses who are GST registered.</td>\n</tr>\n<tr>\n<td align=\"left\" height=\"17\">CGST, SGST, IGST paid on sales/ purchases and other expenses</td>\n<td align=\"left\">Profit &amp; Loss account</td>\n<td align=\"left\">This applies for all businesses filing under ITR-3, ITR-5, and ITR-6</td>\n</tr>\n<tr>\n<td align=\"left\" height=\"17\">Amount of Income Tax Credit remaining unclaimed as of 31st March.</td>\n<td align=\"left\">&#8216;Schedule OI&#8217; (Other Information)</td>\n<td align=\"left\">This applies for all businesses filing under ITR-3, ITR-5, and ITR-6</td>\n</tr>\n</tbody>\n</table>\n<p>The filings apply to all businesses, irrespective of whether they have their books audited under <a href=\"https://cleartax.in/s/tax-audit-section-44ab\" target=\"_blank\" rel=\"noopener\"><span style=\"color: #0000ff\">Section 44AB</span></a> or not. GST reporting under <a href=\"https://cleartax.in/s/tax-audit-form-3ca-3cb-3cd-3ce\" target=\"_blank\" rel=\"noopener\"><span style=\"color: #0000ff\">form 3CD</span></a> was relaxed until 31st, March 2019.</p>\n<p>As this is the first year of filing after the GST implementation, it was an opportunity for businesses to gain a better understanding of the workings of the GST system.</p>\n<h2>Important Dates:</h2>\n<ul>\n<li>GST return filing for the month of September 2018 &#8211;  <strong>20th October 2018. </strong></li>\n<li>Reconciliation for the FY 2017-18 for GST returns and books of accounts &#8211; <strong>31st</strong><strong> October 2018.</strong></li>\n</ul>\n<p>Still having trouble understanding GST? <a href=\"https://www.youtube.com/watch?v=7xtQGAQ4T04&amp;list=PLERrj3cpyz96y6BAkx0Z47R_HSZK3_yeL\" target=\"_blank\" rel=\"noopener\"><strong>Take a look at this video series that explain GST under 2 minutes</strong></a>. If you are a seller on Instamojo, <a href=\"https://www.legalraasta.com/\" target=\"_blank\" rel=\"noopener\"><span style=\"color: #3366ff\">LegalRaasta</span></a> – our official GST partner – can help you take care of all your GST woes.</p>\n<p><em><strong>Disclaimer: Information in this article is intended only to provide a general overview and is not intended to be treated as legal advice. Please consult a tax expert to get a better understanding of the GST Laws.</strong></em></p>\n<p>Generating and maintaining invoices for submissions, maybe a daunting task. But, with Instamojo, you can <a href=\"https://www.instamojo.com/blog/create-invoices-and-collect-payments-in-one-place-with-instamojo/\" target=\"_blank\" rel=\"noopener\">create GST-friendly invoices</a> using the <strong>Invoice Generator</strong> app!</p>\n<hr />\n<p style=\"text-align: center\"><a class=\"mb-button mb-style-flat mb-size-default mb-corners-default mb-text-style-default \" style=\"background-color: #2bc470\" href=\"http://www.instamojo.com/?ref=blog\">START WITH INSTAMOJO</a></p>\n<p>The post <a rel=\"nofollow\" href=\"https://www.instamojo.com/blog/last-day-file-it-returns-businesses/\">Last Date for Income Tax Return Filing for Businesses Extended</a> appeared first on <a rel=\"nofollow\" href=\"https://www.instamojo.com/blog\">Blog Instamojo</a>.</p>"
        },
        {
            "title": "Women Entrepreneurs Rocking the Instamojo Online Store",
            "link": "https://www.instamojo.com/blog/women-entrepreneurs-online-store/",
            "description": "This International Day of the Girl Child, let&#8217;s join hands to celebrate the women around us. Be it our mothers, friends, wives or daughters, their efforts often times, go unnoticed. So, let&#8217;s dedicate today to celebrating the doers, the dreamers, the makers and the ...",
            "permalink": "",
            "pubdate": "Thu Oct 11 2018 10:44:21 GMT+0000 (UTC)",
            "comments": "https://www.instamojo.com/blog/women-entrepreneurs-online-store/#respond",
            "feedUrl": "https://www.instamojo.com/blog/feed/",
            "when": "Wed Oct 31 2018 17:10:36 GMT+0000 (UTC)",
            "aggregator": "River5 v0.4.14",
            "id": 62,
            "fullDescription": "<p>This International Day of the Girl Child, let&#8217;s join hands to celebrate the women around us. Be it our mothers, friends, wives or daughters, their efforts often times, go unnoticed. So, let&#8217;s dedicate today to celebrating the doers, the dreamers, the makers and the women entrepreneurs who make our lives easy.</p>\n<p>Here are some women we want to give a huge shout-out to for being awesome businesswomen, mothers, daughters, activists, caregivers, and most importantly for being women of grit and purpose.</p>\n<h2>Some women entrepreneurs of Instamojo:</h2>\n<ul>\n<li>\n<h3>Sudha S Narayanan, Founder Trustee, <span style=\"color: #3366ff;\"><a style=\"color: #3366ff;\" href=\"https://charlies-care.com/\" target=\"_blank\" rel=\"noopener\">CARE</a>:</span></h3>\n</li>\n</ul>\n<p><span style=\"color: #333333;\">Sudha comes with over 2 decades of experience in the animal welfare sector, both domestic and wild. CARE works on tight budgets to help cater to wounded and ailing animals across Bangalore. CARE uses Instamojo <a href=\"https://www.instamojo.com/blog/care-charlies-animal-shelter-pet-care/\" target=\"_blank\" rel=\"noopener\"><span style=\"color: #3366ff;\">payment links to collect donations. </span></a></span></p>\n<p><img class=\"alignright wp-image-8213 size-full\" src=\"https://www.instamojo.com/blog/wp-content/uploads/41945907_10156729421551098_1005762168265637888_n.jpg\" alt=\"Women Entrepreneurs who Rock our Instamojo Online store\" width=\"960\" height=\"466\" /></p>\n<p>Charlies Animal Rescue Centre – CARE, is one of the most trusted animal rescue centers in Bangalore. CARE was started to carry forward the kindness, compassion, and love Charlie imparted to the lives he touched. He was a 15-year-old, 3-legged miracle who despite his own shortcomings was an established figure in the field of canine therapy.</p>\n<p>CARE is home to animals that range from cats and dogs to pigs and calves. These animals despite facing special conditions and ailments have found a safe abode at CARE.</p>\n<p><strong>Here&#8217;s a special shout-out to a lady who cares, and dared to set the social wheel rolling.</strong></p>\n<ul>\n<li>\n<h3>Puja Bajpai, <a href=\"http://www.akrazymug.com/\" target=\"_blank\" rel=\"noopener\"><span style=\"color: #3366ff;\"><strong>A Krazy Mug</strong></span></a></h3>\n</li>\n</ul>\n<p>Puja Bajpai, an Interior designer by profession followed her passion for art and has added a ton of color with her unique products to so many houses in India. Her love for art is a treat for your eyes. Her store offers premium handpainted decor, which adds life to even the most boring of home decor.</p>\n<p><img class=\"alignright wp-image-8214 size-full\" src=\"https://www.instamojo.com/blog/wp-content/uploads/336d0bcf97a843f58dfa28edb4fa3474.jpg\" alt=\"Women Entrepreneurs who Rock our Instamojo Online store\" width=\"950\" height=\"531\" /></p>\n<p>The products are hand painted by skilled artisans who add oodles of character and a backstory to everything they sell. Her products range from kitchen and bar accessories to tableware and home decor.</p>\n<p>Be sure to check out her online store, <a href=\"https://www.instamojo.com/AKrazyMug/?ref=offer_header\" target=\"_blank\" rel=\"noopener\"><span style=\"color: #3366ff;\">here</span></a>.</p>\n<ul>\n<li>\n<h3>Sonal Jain, <a href=\"http://www.boondh.co/\" target=\"_blank\" rel=\"noopener\"><span style=\"color: #3366ff;\">Boondh</span></a></h3>\n</li>\n</ul>\n<p>Talking about menstruation or menstrual health is almost a taboo. Thousands of women in rural and urban areas both, bear the brunt of this. To challenge this norm, Sonal Jain, started Boondh. It is a social enterprise, which helps educate and cater to the needs of women with sustainable menstrual hygiene products.</p>\n<p><a href=\"http://www.boondh.co\"><img class=\"alignright wp-image-8215 size-full\" src=\"https://www.instamojo.com/blog/wp-content/uploads/vismis.jpg\" alt=\"Women Entrepreneurs who Rock our Instamojo Online store\" width=\"1008\" height=\"634\" /></a></p>\n<p>Source: http://www.boondh.co</p>\n<p>BOONDH, promotes a safe harbor for women to talk about menstrual health with no associated taboo. They provide affordable and good quality menstrual cups and other menstrual hygiene products. Boondh&#8217;s menstrual cups are both eco-friendly and healthy as compared to regular pads and tampons.</p>\n<p>Check out their online store, <a href=\"https://www.instamojo.com/boondh/?ref=offer_header\" target=\"_blank\" rel=\"noopener\"><span style=\"color: #3366ff;\">here.</span></a></p>\n<p><strong>Are you a women entrepreneur looking for a breakthrough opportunity?</strong></p>\n<p>Start your online business instantly with our <span style=\"color: #3366ff;\"><a style=\"color: #3366ff;\" href=\"https://www.instamojo.com/blog/presenting-the-instamojo-online-store/\" target=\"_blank\" rel=\"noopener\">free online store</a></span> built to power small, yet passionate businesses like yours.</p>\n<p>With our online store, you can not only showcase your products but also collect <span style=\"color: #3366ff;\"><a style=\"color: #3366ff;\" href=\"https://www.instamojo.com/blog/collecting-payments-via-instamojo/\" target=\"_blank\" rel=\"noopener\">easy payments </a></span>and also <a href=\"https://www.instamojo.com/blog/mojoxpress-one-stop-solution-shipping-needs/\" target=\"_blank\" rel=\"noopener\"><span style=\"color: #3366ff;\">ship your products.</span></a></p>\n<hr />\n<p style=\"text-align: center;\"><a class=\"mb-button mb-style-flat mb-size-default mb-corners-default mb-text-style-default \" style=\"background-color: #2bc470;\" href=\"http://www.instamojo.com/?ref=blog\"> START WITH INSTAMOJO</a></p>\n<p>&nbsp;</p>\n<p>The post <a rel=\"nofollow\" href=\"https://www.instamojo.com/blog/women-entrepreneurs-online-store/\">Women Entrepreneurs Rocking the Instamojo Online Store</a> appeared first on <a rel=\"nofollow\" href=\"https://www.instamojo.com/blog\">Blog Instamojo</a>.</p>"
        }
    ]
}