{
    "prefs": {
        "enabled": true,
        "url": "https://us16.campaign-archive.com/feed?u=ed93f5c78c48c6d9e64bf4479&id=8ac8ca2f6b",
        "ctSecsBetwRenews": 86400,
        "flNonListSubscribe": false
    },
    "data": {
        "feedhash": ""
    },
    "stats": {
        "ctReads": 2,
        "ctReadErrors": 0,
        "ctConsecutiveReadErrors": 0,
        "ctItems": 10,
        "ctEnclosures": 0,
        "ctFeedTextChanges": 0,
        "ct304s": 0,
        "ctItemsTooOld": 0,
        "ctReadsSkipped": 0,
        "ctInfoReads": 1,
        "ctInfoWrites": 2,
        "whenSubscribed": "2018-10-31T17:10:41.204Z",
        "whenLastRead": "2018-11-05T05:14:38.119Z",
        "whenLastNewItem": "2018-10-31T17:10:41.196Z",
        "mostRecentPubDate": "2018-08-14T08:29:54.000Z",
        "whenLastInfoWrite": "2018-11-05T05:14:39.864Z",
        "whenLastReadError": "1970-01-01T00:00:00.000Z",
        "whenLastInfoRead": "2018-11-05T05:14:38.120Z",
        "lastReadError": "",
        "itemSerialnum": 0,
        "ctSecsLastRead": 1.745
    },
    "feedInfo": {
        "title": "ReBIT Newsletter Archive Feed",
        "link": "https://us16.campaign-archive.com/feed?u=ed93f5c78c48c6d9e64bf4479&id=8ac8ca2f6b",
        "description": null
    },
    "history": [
        {
            "title": "Cyber Pulse Vol II Issue #1",
            "link": "https://mailchi.mp/195f160b7267/cyber-pulse-vol-i-issue-329943",
            "description": "96\n\t\t\t\n\t\t\n\t\t\n\t\t\n        \n        \n\t\tCyber Pulse Vol II Issue #1\n        \n    \n\t\tp{\n\t\t\tmargin:10px 0;\n\t\t\tpadding:0;\n\t\t}\n\t\ttable{\n\t\t\tborder-collapse:collapse;\n\t\t}\n\t\th1,h2,h3,h4,h5,h6{\n\t\t\tdisplay:block;\n\t\t\tmargin:0;\n\t\t\tpadding:0;\n\t\t}\n\t\timg,a ...",
            "guid": "https://mailchi.mp/195f160b7267/cyber-pulse-vol-i-issue-329943",
            "when": "2018-10-31T17:10:41.196Z"
        },
        {
            "title": "Cyber Pulse Vol I Issue #12",
            "link": "https://mailchi.mp/5638227ee1a3/cyber-pulse-vol-i-issue-316587",
            "description": "96\n\t\t\t\n\t\t\n\t\t\n\t\t\n        \n        \n\t\tCyber Pulse Vol I Issue #12\n        \n    \n\t\tp{\n\t\t\tmargin:10px 0;\n\t\t\tpadding:0;\n\t\t}\n\t\ttable{\n\t\t\tborder-collapse:collapse;\n\t\t}\n\t\th1,h2,h3,h4,h5,h6{\n\t\t\tdisplay:block;\n\t\t\tmargin:0;\n\t\t\tpadding:0;\n\t\t}\n\t\timg,a ...",
            "guid": "https://mailchi.mp/5638227ee1a3/cyber-pulse-vol-i-issue-316587",
            "when": "2018-10-31T17:10:41.196Z"
        },
        {
            "title": "Cyber Pulse Vol I Issue #11",
            "link": "https://mailchi.mp/4f7007ed38a8/cyber-pulse-vol-i-issue-302435",
            "description": "96\n\t\t\t\n\t\t\n\t\t\n\t\t\n        \n        \n\t\tCyber Pulse Vol I Issue #11\n        \n    \n\t\tp{\n\t\t\tmargin:10px 0;\n\t\t\tpadding:0;\n\t\t}\n\t\ttable{\n\t\t\tborder-collapse:collapse;\n\t\t}\n\t\th1,h2,h3,h4,h5,h6{\n\t\t\tdisplay:block;\n\t\t\tmargin:0;\n\t\t\tpadding:0;\n\t\t}\n\t\timg,a ...",
            "guid": "https://mailchi.mp/4f7007ed38a8/cyber-pulse-vol-i-issue-302435",
            "when": "2018-10-31T17:10:41.196Z"
        },
        {
            "title": "Cyber Pulse Vol I Issue #10",
            "link": "https://mailchi.mp/df49e580f4cc/cyber-pulse-vol-i-issue-286955",
            "description": "96\n\t\t\t\n\t\t\n\t\t\n\t\t\n        \n        \n\t\tCyber Pulse Vol I Issue #10\n        \n    \n\t\tp{\n\t\t\tmargin:10px 0;\n\t\t\tpadding:0;\n\t\t}\n\t\ttable{\n\t\t\tborder-collapse:collapse;\n\t\t}\n\t\th1,h2,h3,h4,h5,h6{\n\t\t\tdisplay:block;\n\t\t\tmargin:0;\n\t\t\tpadding:0;\n\t\t}\n\t\timg,a ...",
            "guid": "https://mailchi.mp/df49e580f4cc/cyber-pulse-vol-i-issue-286955",
            "when": "2018-10-31T17:10:41.196Z"
        },
        {
            "title": "Cyber Pulse Vol I Issue #9",
            "link": "https://mailchi.mp/65d406c4b4a4/cyber-pulse-vol-i-issue-266559",
            "description": "96\n\t\t\t\n\t\t\n\t\t\n\t\t\n        \n        \n\t\tCyber Pulse Vol I Issue #9\n        \n    \n\t\tp{\n\t\t\tmargin:10px 0;\n\t\t\tpadding:0;\n\t\t}\n\t\ttable{\n\t\t\tborder-collapse:collapse;\n\t\t}\n\t\th1,h2,h3,h4,h5,h6{\n\t\t\tdisplay:block;\n\t\t\tmargin:0;\n\t\t\tpadding:0;\n\t\t}\n\t\timg,a ...",
            "guid": "https://mailchi.mp/65d406c4b4a4/cyber-pulse-vol-i-issue-266559",
            "when": "2018-10-31T17:10:41.196Z"
        },
        {
            "title": "Cyber Pulse Vol I Issue #8",
            "link": "https://mailchi.mp/ecba2e5289ba/cyber-pulse-vol-i-issue-244323",
            "description": "96\n\t\t\t\n\t\t\n\t\t\n\t\t\n        \n        \n\t\tCyber Pulse Vol I Issue #8\n        \n    \n\t\tp{\n\t\t\tmargin:10px 0;\n\t\t\tpadding:0;\n\t\t}\n\t\ttable{\n\t\t\tborder-collapse:collapse;\n\t\t}\n\t\th1,h2,h3,h4,h5,h6{\n\t\t\tdisplay:block;\n\t\t\tmargin:0;\n\t\t\tpadding:0;\n\t\t}\n\t\timg,a ...",
            "guid": "https://mailchi.mp/ecba2e5289ba/cyber-pulse-vol-i-issue-244323",
            "when": "2018-10-31T17:10:41.196Z"
        },
        {
            "title": "Cyber Pulse Vol I Issue #7",
            "link": "https://mailchi.mp/4c5d0f0de321/cyber-pulse-vol-i-issue-226939",
            "description": "96\n\t\t\t\n\t\t\n\t\t\n\t\t\n        \n        \n\t\tCyber Pulse Vol I Issue #7\n        \n    \n\t\tp{\n\t\t\tmargin:10px 0;\n\t\t\tpadding:0;\n\t\t}\n\t\ttable{\n\t\t\tborder-collapse:collapse;\n\t\t}\n\t\th1,h2,h3,h4,h5,h6{\n\t\t\tdisplay:block;\n\t\t\tmargin:0;\n\t\t\tpadding:0;\n\t\t}\n\t\timg,a ...",
            "guid": "https://mailchi.mp/4c5d0f0de321/cyber-pulse-vol-i-issue-226939",
            "when": "2018-10-31T17:10:41.196Z"
        },
        {
            "title": "Cyber Pulse Vol I Issue #6",
            "link": "https://mailchi.mp/e0dcf306c0e6/cyber-pulse-202587",
            "description": "96\n\t\t\t\n\t\t\n\t\t\n\t\t\n        \n        \n\t\tCyber Pulse Vol I Issue #6\n        \n    \n\t\tp{\n\t\t\tmargin:10px 0;\n\t\t\tpadding:0;\n\t\t}\n\t\ttable{\n\t\t\tborder-collapse:collapse;\n\t\t}\n\t\th1,h2,h3,h4,h5,h6{\n\t\t\tdisplay:block;\n\t\t\tmargin:0;\n\t\t\tpadding:0;\n\t\t}\n\t\timg,a ...",
            "guid": "https://mailchi.mp/e0dcf306c0e6/cyber-pulse-202587",
            "when": "2018-10-31T17:10:41.196Z"
        },
        {
            "title": "Cyber Pulse Vol I Issue #5",
            "link": "https://mailchi.mp/642130bc2807/cyber-pulse-182783",
            "description": "96\n\t\t\t\n\t\t\n\t\t\n\t\t\n        \n        \n\t\tCyber Pulse Vol I Issue #5\n        \n    \n\t\tp{\n\t\t\tmargin:10px 0;\n\t\t\tpadding:0;\n\t\t}\n\t\ttable{\n\t\t\tborder-collapse:collapse;\n\t\t}\n\t\th1,h2,h3,h4,h5,h6{\n\t\t\tdisplay:block;\n\t\t\tmargin:0;\n\t\t\tpadding:0;\n\t\t}\n\t\timg,a ...",
            "guid": "https://mailchi.mp/642130bc2807/cyber-pulse-182783",
            "when": "2018-10-31T17:10:41.196Z"
        },
        {
            "title": "Cyber Pulse Vol I Issue #4",
            "link": "https://mailchi.mp/b94ab07042c3/cyber-pulse-153627",
            "description": "96\n\t\t\t\n\t\t\n\t\t\n\t\t\n        \n        \n\t\tCyber Pulse Vol I Issue #4\n        \n    \n\t\tp{\n\t\t\tmargin:10px 0;\n\t\t\tpadding:0;\n\t\t}\n\t\ttable{\n\t\t\tborder-collapse:collapse;\n\t\t}\n\t\th1,h2,h3,h4,h5,h6{\n\t\t\tdisplay:block;\n\t\t\tmargin:0;\n\t\t\tpadding:0;\n\t\t}\n\t\timg,a ...",
            "guid": "https://mailchi.mp/b94ab07042c3/cyber-pulse-153627",
            "when": "2018-10-31T17:10:41.196Z"
        }
    ],
    "lists": [],
    "calendar": {}
}