{
    "ctItemsAdded": 47,
    "whenLastItemAdded": "2018-11-05T05:14:39.987Z",
    "ctSaves": 4,
    "whenLastSave": "2018-11-05T05:15:01.877Z",
    "flDirty": false,
    "ctRiverBuilds": 1,
    "whenLastRiverBuild": "2018-11-05T05:15:00.791Z",
    "items": [
        {
            "title": "Payments Bank and Small Finance Banks– access to Call/Notice/Term Money Market",
            "link": "http://www.rbi.org.in/scripts/NotificationUser.aspx?Id=11405&Mode=0",
            "description": "RBI/2018-19/68    FMRD.DIRD.09/14.01.001/2018-19    October 29, 2018    All Eligible Market Participants    Madam/Sir,    Payments Bank and Small Finance Banks&ndash; access to Call/Notice/Term Money Market    A reference is invited to Master Direction No.2/2016-17, dated July ...",
            "permalink": "",
            "pubdate": "2018-10-29T19:10:00.000Z",
            "comments": "",
            "feedUrl": "https://www.rbi.org.in/notifications_rss.xml",
            "when": "2018-10-31T17:10:41.524Z",
            "aggregator": "River5 v0.4.14",
            "id": 187
        },
        {
            "title": "Auction of Government of India Dated Securities",
            "link": "http://www.rbi.org.in/scripts/NotificationUser.aspx?Id=11404&Mode=0",
            "description": "RBI/2018-19/67    Ref.No.IDMD/1077/08.02.032/2018-19    October 29, 2018    All Scheduled Commercial BanksAll State Co-operative Banks/All Scheduled Primary(Urban) Co-operative Banks/All Financial Institutions/All Primary Dealers.    Dear Sir/Madam,    Auction of Government of ...",
            "permalink": "",
            "pubdate": "2018-10-29T19:05:00.000Z",
            "comments": "",
            "feedUrl": "https://www.rbi.org.in/notifications_rss.xml",
            "when": "2018-10-31T17:10:41.524Z",
            "aggregator": "River5 v0.4.14",
            "id": 188
        },
        {
            "title": "Auction for Sale (Issue/Re-issue) of Government Stock (GS)",
            "link": "http://www.rbi.org.in/scripts/NotificationUser.aspx?Id=11403&Mode=0",
            "description": "Government of India      Ministry of Finance    Department of Economic Affairs    Budget Division    New Delhi, dated Oct 29, 2018    NOTIFICATION    Auction for Sale (Issue/Re-issue) of Government Stock (GS)    F.No.4(6)W&amp;M/2018: Government of India(GoI) hereby notifies ...",
            "permalink": "",
            "pubdate": "2018-10-29T19:05:00.000Z",
            "comments": "",
            "feedUrl": "https://www.rbi.org.in/notifications_rss.xml",
            "when": "2018-10-31T17:10:41.525Z",
            "aggregator": "River5 v0.4.14",
            "id": 189
        },
        {
            "title": "Master Direction - Fit and Proper Criteria for Sponsors - Asset Reconstruction Companies (Reserve Bank) Directions, 2018",
            "link": "http://www.rbi.org.in/scripts/NotificationUser.aspx?Id=11402&Mode=0",
            "description": "RBI/DNBR/2018-19/66    Master Direction DNBR. PD (ARC) CC. No. 06/26.03.001/2018-19       October 25, 2018      The Chairman / Managing Director / Chief Executive Officer      All registered Asset Reconstruction Companies      Dear Sir/ Madam,      Master Direction - Fit and ...",
            "permalink": "",
            "pubdate": "2018-10-25T17:00:00.000Z",
            "comments": "",
            "feedUrl": "https://www.rbi.org.in/notifications_rss.xml",
            "when": "2018-10-31T17:10:41.525Z",
            "aggregator": "River5 v0.4.14",
            "id": 190
        },
        {
            "title": "Fire Audit of Currency Chests - Clarification",
            "link": "http://www.rbi.org.in/scripts/NotificationUser.aspx?Id=11401&Mode=0",
            "description": "RBI/2018-19/66    DCM (CC) No.1083/03.39.01/2018-19    October 25, 2018    The Chairman &amp; Managing Director Chief Executive Officer / Managing DirectorAll Banks having Currency Chests    Madam / Dear Sir,    Fire Audit of Currency Chests - Clarification    Please refer to ...",
            "permalink": "",
            "pubdate": "2018-10-25T17:05:00.000Z",
            "comments": "",
            "feedUrl": "https://www.rbi.org.in/notifications_rss.xml",
            "when": "2018-10-31T17:10:41.528Z",
            "aggregator": "River5 v0.4.14",
            "id": 191
        },
        {
            "title": "Auction of Government of India Dated Securities",
            "link": "http://www.rbi.org.in/scripts/NotificationUser.aspx?Id=11400&Mode=0",
            "description": "RBI/2018-19/65    Ref.No.IDMD/997/08.02.032/2018-19    October 22, 2018    All Scheduled Commercial Banks    All State Co-operative Banks/All Scheduled Primary    (Urban) Co-operative Banks /All Financial Institutions/    All Primary Dealers.    Dear Sir/Madam,    Auction of ...",
            "permalink": "",
            "pubdate": "2018-10-22T18:30:00.000Z",
            "comments": "",
            "feedUrl": "https://www.rbi.org.in/notifications_rss.xml",
            "when": "2018-10-31T17:10:41.529Z",
            "aggregator": "River5 v0.4.14",
            "id": 192
        },
        {
            "title": "Auction for Sale (Re-issue) of Government Stock (GS)",
            "link": "http://www.rbi.org.in/scripts/NotificationUser.aspx?Id=11399&Mode=0",
            "description": "Government of India      Ministry of Finance    Department of Economic Affairs    Budget Division    New Delhi, dated October 22, 2018    NOTIFICATION    Auction for Sale (Re-issue) of Government Stock (GS)    F.No.4(6)W&amp;M/2018: Government of India(GoI) hereby notifies sale ...",
            "permalink": "",
            "pubdate": "2018-10-22T18:25:00.000Z",
            "comments": "",
            "feedUrl": "https://www.rbi.org.in/notifications_rss.xml",
            "when": "2018-10-31T17:10:41.529Z",
            "aggregator": "River5 v0.4.14",
            "id": 193
        },
        {
            "title": "Inspection of Banks-Sets of Specimen Signatures",
            "link": "http://www.rbi.org.in/scripts/NotificationUser.aspx?Id=11398&Mode=0",
            "description": "RBI/2018-19/64    DBS.CO.PPD.BC/02/11.01.005/2018-19    October 19, 2018    The Chairman / Managing Director /    Chief Executive Officer    All Scheduled Commercial Banks    (Excluding RRBs and LABs)    Small Finance Banks and Payments Banks    Madam / Dear Sir,    Inspection ...",
            "permalink": "",
            "pubdate": "2018-10-19T18:55:00.000Z",
            "comments": "",
            "feedUrl": "https://www.rbi.org.in/notifications_rss.xml",
            "when": "2018-10-31T17:10:41.529Z",
            "aggregator": "River5 v0.4.14",
            "id": 194
        },
        {
            "title": "Basic Cyber Security Framework for Primary (Urban) Cooperative Banks (UCBs)",
            "link": "http://www.rbi.org.in/scripts/NotificationUser.aspx?Id=11397&Mode=0",
            "description": "RBI/2018-19/63    DCBS.CO.PCB.Cir.No.1/18.01.000/2018-19    October 19, 2018    To,    The Chairman/Managing Director/Chief Executive Officer    All Primary (Urban) Co-operative Banks    Madam/Dear Sir,    Basic Cyber Security Framework for Primary (Urban) Cooperative Banks ...",
            "permalink": "",
            "pubdate": "2018-10-19T17:30:00.000Z",
            "comments": "",
            "feedUrl": "https://www.rbi.org.in/notifications_rss.xml",
            "when": "2018-10-31T17:10:41.529Z",
            "aggregator": "River5 v0.4.14",
            "id": 195
        },
        {
            "title": "Basel III Framework on Liquidity Standards - Liquidity Coverage Ratio (LCR), FALLCR against credit disbursed to NBFCs and HFCs",
            "link": "http://www.rbi.org.in/scripts/NotificationUser.aspx?Id=11396&Mode=0",
            "description": "RBI/2018-19/62    DBR.BP.BC.No.05/21.04.098/2018-19    October 19, 2018    All Scheduled Commercial Banks    (Excluding RRBs) &amp; Small Finance    Banks (SFBs)    Dear Sir,    Basel III Framework    on Liquidity Standards - Liquidity Coverage Ratio (LCR),    FALLCR against ...",
            "permalink": "",
            "pubdate": "2018-10-19T08:30:00.000Z",
            "comments": "",
            "feedUrl": "https://www.rbi.org.in/notifications_rss.xml",
            "when": "2018-10-31T17:10:41.530Z",
            "aggregator": "River5 v0.4.14",
            "id": 196
        },
        {
            "title": "RBI to conduct 4-day Variable Rate Reverse Repo auction under LAF on November 1, 2018",
            "link": "http://www.rbi.org.in/scripts/BS_PressReleaseDisplay.aspx?prid=45376",
            "description": "The Reserve Bank of India will conduct the following Variable rate Reverse Repo auction on November 1, 2018, Thursday, as per the revised guidelines on Term Repo Auctions issued on February 13, 2014.                        Sl. No.          Notified Amount                      ...",
            "permalink": "",
            "pubdate": "2018-10-31T18:40:00.000Z",
            "comments": "",
            "feedUrl": "https://www.rbi.org.in/pressreleases_rss.xml",
            "when": "2018-10-31T17:10:42.044Z",
            "aggregator": "River5 v0.4.14",
            "id": 207
        },
        {
            "title": "Reserve Money for the week ended October 26, 2018",
            "link": "http://www.rbi.org.in/scripts/BS_PressReleaseDisplay.aspx?prid=45375",
            "description": "The Reserve Bank of India has today released data on Reserve Money for the week ended October 26, 2018.    Ajit Prasad    Assistant Adviser    Press Release: 2018-2019/1017",
            "permalink": "",
            "pubdate": "2018-10-31T17:35:00.000Z",
            "comments": "",
            "feedUrl": "https://www.rbi.org.in/pressreleases_rss.xml",
            "when": "2018-10-31T17:10:42.045Z",
            "aggregator": "River5 v0.4.14",
            "id": 208
        },
        {
            "title": "Sectoral Deployment of Bank Credit – September 2018",
            "link": "http://www.rbi.org.in/scripts/BS_PressReleaseDisplay.aspx?prid=45374",
            "description": "Data on sectoral deployment of bank credit collected from select 41 scheduled commercial banks, accounting for about 90 per cent of the total non-food credit deployed by all scheduled commercial banks, for the month of September 2018 are set out in Statements I and II.    ...",
            "permalink": "",
            "pubdate": "2018-10-31T17:30:00.000Z",
            "comments": "",
            "feedUrl": "https://www.rbi.org.in/pressreleases_rss.xml",
            "when": "2018-10-31T17:10:42.045Z",
            "aggregator": "River5 v0.4.14",
            "id": 209
        },
        {
            "title": "364-Days Treasury Bills: Full Auction Result",
            "link": "http://www.rbi.org.in/scripts/BS_PressReleaseDisplay.aspx?prid=45373",
            "description": "Date of Auction: October 31, 2018                    I.        Notified Amount        &#8377; 4,000.00 crore                    II.        Underwriting Notified Amount        &#8377; 0.00                    III.        Competitive Bids Received        &nbsp;                    ...",
            "permalink": "",
            "pubdate": "2018-10-31T17:20:00.000Z",
            "comments": "",
            "feedUrl": "https://www.rbi.org.in/pressreleases_rss.xml",
            "when": "2018-10-31T17:10:42.045Z",
            "aggregator": "River5 v0.4.14",
            "id": 210
        },
        {
            "title": "182-Days Treasury Bills: Full Auction Result",
            "link": "http://www.rbi.org.in/scripts/BS_PressReleaseDisplay.aspx?prid=45372",
            "description": "Date of Auction: October 31, 2018                    I.        Notified Amount         &#8377; 4,000.00 crore                    II.        Underwriting Notified Amount        &#8377; 0.00                     III.        Competitive Bids Received        &nbsp;                    ...",
            "permalink": "",
            "pubdate": "2018-10-31T17:20:00.000Z",
            "comments": "",
            "feedUrl": "https://www.rbi.org.in/pressreleases_rss.xml",
            "when": "2018-10-31T17:10:42.045Z",
            "aggregator": "River5 v0.4.14",
            "id": 211
        },
        {
            "title": "91-Days Treasury Bills: Full Auction Result",
            "link": "http://www.rbi.org.in/scripts/BS_PressReleaseDisplay.aspx?prid=45371",
            "description": "Date of Auction: October 31, 2018                    I.        Notified Amount        &#8377; 7,000.00 crore                    II.        Underwriting Notified Amount        &#8377; 0.00                    III.        Competitive Bids Received        &nbsp;                    ...",
            "permalink": "",
            "pubdate": "2018-10-31T17:15:00.000Z",
            "comments": "",
            "feedUrl": "https://www.rbi.org.in/pressreleases_rss.xml",
            "when": "2018-10-31T17:10:42.045Z",
            "aggregator": "River5 v0.4.14",
            "id": 212
        },
        {
            "title": "Liquidity Adjustment Facility: Fixed Rate Repo Operations",
            "link": "http://www.rbi.org.in/scripts/BS_PressReleaseDisplay.aspx?prid=45370",
            "description": "The result of the RBI Fixed Rate Repo Operations held on October 31, 2018 is as under:                        Amount (face value in &#8377; Billion)                          Items           Overnight Repo Operations             6.50% Fixed Rate                           1. Bids ...",
            "permalink": "",
            "pubdate": "2018-10-31T15:20:00.000Z",
            "comments": "",
            "feedUrl": "https://www.rbi.org.in/pressreleases_rss.xml",
            "when": "2018-10-31T17:10:42.046Z",
            "aggregator": "River5 v0.4.14",
            "id": 213
        },
        {
            "title": "364-Days Treasury Bills - Auction Result: Cut off",
            "link": "http://www.rbi.org.in/scripts/BS_PressReleaseDisplay.aspx?prid=45369",
            "description": "Date of Auction: Oct 31, 2018                    I.        Total Face Value Notified        &#8377; 4,000 Crore                    II.        Cut-off Price and          Implicit Yield at Cut-Off Price        &#8377; 93.06          (YTM: 7.4780%)                    III.        ...",
            "permalink": "",
            "pubdate": "2018-10-31T14:35:00.000Z",
            "comments": "",
            "feedUrl": "https://www.rbi.org.in/pressreleases_rss.xml",
            "when": "2018-10-31T17:10:42.046Z",
            "aggregator": "River5 v0.4.14",
            "id": 214
        },
        {
            "title": "182-Days Treasury Bills - Auction Result: Cut off",
            "link": "http://www.rbi.org.in/scripts/BS_PressReleaseDisplay.aspx?prid=45368",
            "description": "Date of Auction: Oct 31, 2018                    I.        Total Face Value Notified        &#8377; 4,000 Crore                    II.        Cut-off Price and          Implicit Yield at Cut-Off Price        &#8377; 96.52          (YTM: 7.2308%)                     III.        ...",
            "permalink": "",
            "pubdate": "2018-10-31T14:35:00.000Z",
            "comments": "",
            "feedUrl": "https://www.rbi.org.in/pressreleases_rss.xml",
            "when": "2018-10-31T17:10:42.046Z",
            "aggregator": "River5 v0.4.14",
            "id": 215
        },
        {
            "title": "91-Days Treasury Bills - Auction Result: Cut off",
            "link": "http://www.rbi.org.in/scripts/BS_PressReleaseDisplay.aspx?prid=45367",
            "description": "Date of Auction: Oct 31, 2018                     I.        Total Face Value Notified        &#8377; 7,000 Crore                    II.        Cut-off Price and          Implicit Yield at Cut-Off Price        &#8377; 98.30          (YTM: 6.9366%)                     III.        ...",
            "permalink": "",
            "pubdate": "2018-10-31T14:30:00.000Z",
            "comments": "",
            "feedUrl": "https://www.rbi.org.in/pressreleases_rss.xml",
            "when": "2018-10-31T17:10:42.046Z",
            "aggregator": "River5 v0.4.14",
            "id": 216
        },
        {
            "title": "On the Importance of Independent Regulatory Institutions – The Case of the Central Bank - Dr. Viral V Acharya, Deputy Governor, Reserve Bank of India - October 26, 2018 - Delivered as the A. D. Shroff Memorial Lecture, Mumbai",
            "link": "http://www.rbi.org.in/scripts/BS_SpeechesView.aspx?id=1066",
            "description": "No analogy is perfect; yet, analogies help convey things better. At times, a straw man has to be set up to make succinctly a practical or even an academic point. Occasionally, however, real life examples come along beautifully to make a communicator&rsquo;s work easier. Let me ...",
            "permalink": "",
            "pubdate": "2018-10-26T18:30:00.000Z",
            "comments": "",
            "feedUrl": "https://www.rbi.org.in/speeches_rss.xml",
            "when": "2018-10-31T17:10:42.343Z",
            "aggregator": "River5 v0.4.14",
            "id": 237
        },
        {
            "title": "Prompt Corrective Action: An Essential Element of Financial Stability Framework - Viral V Acharya, Deputy Governor, Reserve Bank of India - October 12, 2018 - Remarks delivered at the Indian Institute of Technology, Bombay",
            "link": "http://www.rbi.org.in/scripts/BS_SpeechesView.aspx?id=1065",
            "description": "Abstract        This talk explains why the Prompt Corrective Action (PCA) framework of the Reserve Bank of India (RBI) is an essential element of its financial stability framework. It lays out the case for structured early intervention and resolution by regulators for banks that ...",
            "permalink": "",
            "pubdate": "2018-10-12T19:00:00.000Z",
            "comments": "",
            "feedUrl": "https://www.rbi.org.in/speeches_rss.xml",
            "when": "2018-10-31T17:10:42.344Z",
            "aggregator": "River5 v0.4.14",
            "id": 238
        },
        {
            "title": "State Government Market Borrowings – Issues and Prospects - Shri B. P. Kanungo, Deputy Governor, Reserve Bank of India - August 31, 2018 - at the Financial Market Conclave of the Bengal Chamber of Commerce and Industry, Mumbai",
            "link": "http://www.rbi.org.in/scripts/BS_SpeechesView.aspx?id=1063",
            "description": "Shri Chandra Shekhar Ghosh, President, Bengal Chamber of Commerce, Shri T. Bandopadhyay, ladies and gentlemen. I am thankful to the Bengal Chamber of Commerce and Industry for providing me the opportunity to be present here and speak on the subject of &lsquo;State Government ...",
            "permalink": "",
            "pubdate": "2018-08-31T19:35:00.000Z",
            "comments": "",
            "feedUrl": "https://www.rbi.org.in/speeches_rss.xml",
            "when": "2018-10-31T17:10:42.344Z",
            "aggregator": "River5 v0.4.14",
            "id": 239
        },
        {
            "title": "Importance of strong Governance & Secure IT Operations for Urban Co-operative Banks to Remain Relevant - N S Vishwanathan, Deputy Governor, Reserve Bank of India, August 04, 2018 - Gujarat Urban Co-operative Banks Federation at Gandhinagar1",
            "link": "http://www.rbi.org.in/scripts/BS_SpeechesView.aspx?id=1062",
            "description": "I am happy to be here in this edition of Sahakar Setu organised by the Gujarat Urban Cooperative Banks Federation. The Federation has been proactive in providing leadership to the cooperative movement in the State of Gujarat. It is because of the efforts of the Federation and ...",
            "permalink": "",
            "pubdate": "2018-08-24T19:25:00.000Z",
            "comments": "",
            "feedUrl": "https://www.rbi.org.in/speeches_rss.xml",
            "when": "2018-10-31T17:10:42.345Z",
            "aggregator": "River5 v0.4.14",
            "id": 240
        },
        {
            "title": "Public Credit Registry (PCR) and Goods and Services Tax Network (GSTN): Giant Strides to Democratise and Formalise Credit in India - Dr. Viral V. Acharya, Deputy Governor, Reserve Bank of India, August 20, 2018 - at the Annual Global Banking Conference – FIBAC 2018 organised by Federation of Indian Chambers of Commerce and Industry (FICCI) and Indian Banks’ Association (IBA), Mumbai",
            "link": "http://www.rbi.org.in/scripts/BS_SpeechesView.aspx?id=1061",
            "description": "It is a pleasure to be with you all and share with you my thoughts on some recent developments that are expected to have transformative implications for our country. In particular, I wish to draw your attention to some major initiatives in gathering and analysing better credit ...",
            "permalink": "",
            "pubdate": "2018-08-20T17:15:00.000Z",
            "comments": "",
            "feedUrl": "https://www.rbi.org.in/speeches_rss.xml",
            "when": "2018-10-31T17:10:42.345Z",
            "aggregator": "River5 v0.4.14",
            "id": 241
        },
        {
            "title": "Excellence in Payments - Shri B. P. Kanungo, Deputy Governor, Reserve Bank of India- May 29, 2018-Keynote Address Delivered at NPCI National Payments Excellence Awards function, Mumbai",
            "link": "http://www.rbi.org.in/scripts/BS_SpeechesView.aspx?id=1058",
            "description": "Shri B. Mahapatra, Chairman, NPCI, Shri Dilip Asbe, MD, NPCI, distinguished guests, fellow bankers, captains of the industry and the Honourable members of the Jury &ndash; it gives me great pleasure to be amidst you all as NPCI today recognises the significant work done by the ...",
            "permalink": "",
            "pubdate": "2018-05-30T19:55:00.000Z",
            "comments": "",
            "feedUrl": "https://www.rbi.org.in/speeches_rss.xml",
            "when": "2018-10-31T17:10:42.345Z",
            "aggregator": "River5 v0.4.14",
            "id": 242
        },
        {
            "title": "It is not Business as Usual for Lenders and Borrowers - N. S. Vishwanathan, Deputy Governor, Reserve Bank of India – April 18, 2018 – Speech Delivered at National Institute of Bank Management, Pune on Fourteenth Convocation",
            "link": "http://www.rbi.org.in/scripts/BS_SpeechesView.aspx?id=1055",
            "description": "1. Chief guest, Shri M. Damodaran, Dr. Dhingra, Director NIBM, other dignitaries on the dais, distinguished bankers, faculty and staff of the institution, proud parents, and, all graduating students, and of course, friends from media, I thank NIBM for giving me the opportunity ...",
            "permalink": "",
            "pubdate": "2018-04-18T13:05:00.000Z",
            "comments": "",
            "feedUrl": "https://www.rbi.org.in/speeches_rss.xml",
            "when": "2018-10-31T17:10:42.346Z",
            "aggregator": "River5 v0.4.14",
            "id": 243
        },
        {
            "title": "Banking Regulatory Powers Should Be Ownership Neutral - Urjit R. Patel, Governor, Reserve Bank of India – March 14, 2018 – Inaugural Lecture : Centre for Law & Economics, Centre for Banking & Financial Laws Gujarat National Law University, Gandhinagar",
            "link": "http://www.rbi.org.in/scripts/BS_SpeechesView.aspx?id=1054",
            "description": "I speak today to highlight some fundamental fissures that exist in the regulation of banks, in particular, public sector banks (PSBs). It has been slightly over a month since the latest fraud in the Indian banking sector broke news.    Success has many fathers; failures none. ...",
            "permalink": "",
            "pubdate": "2018-03-14T17:15:00.000Z",
            "comments": "",
            "feedUrl": "https://www.rbi.org.in/speeches_rss.xml",
            "when": "2018-10-31T17:10:42.346Z",
            "aggregator": "River5 v0.4.14",
            "id": 244
        },
        {
            "title": "India’s Economic Reforms: Reflections on the Unfinished Agenda - Fifteenth L. K Jha Memorial lecture delivered by Professor Vijay Joshi, Emeritus Fellow, Merton College, Oxford at the Reserve Bank of India, Mumbai on December 11, 2017",
            "link": "http://www.rbi.org.in/scripts/BS_SpeechesView.aspx?id=1057",
            "description": "Introduction    Governor Patel and friends,    The Reserve Bank of India (RBI) has occupied a special place in my thoughts ever since I was here as a Special Adviser thirty-four years ago. It was an immensely enjoyable period of my life, not least because my ring-side position ...",
            "permalink": "",
            "pubdate": "2018-02-10T00:00:00.000Z",
            "comments": "",
            "feedUrl": "https://www.rbi.org.in/speeches_rss.xml",
            "when": "2018-10-31T17:10:42.347Z",
            "aggregator": "River5 v0.4.14",
            "id": 245
        },
        {
            "title": "Understanding and Managing Interest Rate Risk at Banks - Viral V Acharya, Deputy Governor – January 15, 2018 – at the FIMMDA Annual Dinner, 2018 at Hotel Taj Mahal Palace, Mumbai 1",
            "link": "http://www.rbi.org.in/scripts/BS_SpeechesView.aspx?id=1053",
            "description": "Let me at the outset wish all of you a happy and healthy New Year.    Thank you to Fixed Income Money Markets and Derivatives Association (FIIMDA) and its organizing team for inviting me to deliver this keynote address at its Annual Meet. I will speak today about understanding ...",
            "permalink": "",
            "pubdate": "2018-01-15T20:00:00.000Z",
            "comments": "",
            "feedUrl": "https://www.rbi.org.in/speeches_rss.xml",
            "when": "2018-10-31T17:10:42.347Z",
            "aggregator": "River5 v0.4.14",
            "id": 246
        },
        {
            "title": "&#2325;&#2381;&#2359;&#2375;&#2340;&#2381;&#2352;&#2368;&#2351; &#2349;&#2366;&#2359;&#2366;&#2323;&#2306; &#2325;&#2375; &#2350;&#2366;&#2343;&#2381;&#2351;&#2350; &#2360;&#2375; &#2348;&#2376;&#2306;&#2325;&#2367;&#2306;&#",
            "link": "http://www.rbi.org.in/scripts/PublicationsView.aspx?id=17114",
            "description": "&nbsp;    &nbsp;    .epub&nbsp;&#2347;&#2366;&#2311;&#2354;&#2379;&#2306; &#2325;&#2379; &#2342;&#2375;&#2326;&#2344;&#2375; &#2325;&#2375; &#2354;&#2367;&#2319; &#2346;&#2361;&#2354;&#2375; &#2360;&#2377;&#2347;&#2381;&#2335;&#2357;&#2375;&#2309;&#2352; ...",
            "permalink": "",
            "pubdate": "2018-10-23T17:00:00.000Z",
            "comments": "",
            "feedUrl": "https://www.rbi.org.in/Publication_rss.xml",
            "when": "2018-10-31T17:10:44.046Z",
            "aggregator": "River5 v0.4.14",
            "id": 247
        },
        {
            "title": "RBI WPS (DEPR): 05/2018: India’s Investment Cycle: An Empirical Investigation",
            "link": "http://www.rbi.org.in/scripts/PublicationsView.aspx?id=18716",
            "description": "Press Release      RBI Working Paper Series No. 05      India&rsquo;s Investment Cycle: An Empirical Investigation      @Janak Raj        Satyananda Sahoo        and      Shiv Shankar      Abstract     1This study estimates the duration of the investment cycle and examines the ...",
            "permalink": "",
            "pubdate": "2018-10-16T18:20:00.000Z",
            "comments": "",
            "feedUrl": "https://www.rbi.org.in/Publication_rss.xml",
            "when": "2018-10-31T17:10:44.047Z",
            "aggregator": "River5 v0.4.14",
            "id": 248
        },
        {
            "title": "OBICUS Survey on the Manufacturing sector – Q1:2018-19 (Revised)",
            "link": "http://www.rbi.org.in/scripts/PublicationsView.aspx?id=18714",
            "description": "Today, the Reserve Bank released the results of the 42nd round of the Order Books, Inventories and Capacity Utilisation Survey (OBICUS) for the quarter April-June 2018 covering 994 manufacturing companies. The survey provides a snapshot of demand conditions in India&rsquo;s ...",
            "permalink": "",
            "pubdate": "2018-10-05T17:15:00.000Z",
            "comments": "",
            "feedUrl": "https://www.rbi.org.in/Publication_rss.xml",
            "when": "2018-10-31T17:10:44.047Z",
            "aggregator": "River5 v0.4.14",
            "id": 249
        },
        {
            "title": "Industrial Outlook Survey of the Manufacturing Sector for Q2:2018-19",
            "link": "http://www.rbi.org.in/scripts/PublicationsView.aspx?id=18713",
            "description": "Today, the Reserve Bank released the results of the 83rd round of the Industrial Outlook Survey (IOS) conducted in July-September 2018. The Survey captures qualitative assessments of the business environment by companies in India&rsquo;s manufacturing sector for Q2:2018-19 and ...",
            "permalink": "",
            "pubdate": "2018-10-05T17:15:00.000Z",
            "comments": "",
            "feedUrl": "https://www.rbi.org.in/Publication_rss.xml",
            "when": "2018-10-31T17:10:44.048Z",
            "aggregator": "River5 v0.4.14",
            "id": 250
        },
        {
            "title": "Survey of Professional Forecasters on Macroeconomic Indicators– Results of the 54th Round",
            "link": "http://www.rbi.org.in/scripts/PublicationsView.aspx?id=18712",
            "description": "Growth is expected to firm up in 2018-19 and 2019-20 on the back of higher private consumption. Consumer price inflation is expected to remain above 4.0 per cent till Q2:2019-20.    The Reserve Bank has been conducting the Survey of Professional Forecasters (SPF) since September ...",
            "permalink": "",
            "pubdate": "2018-10-05T17:15:00.000Z",
            "comments": "",
            "feedUrl": "https://www.rbi.org.in/Publication_rss.xml",
            "when": "2018-10-31T17:10:44.048Z",
            "aggregator": "River5 v0.4.14",
            "id": 251
        },
        {
            "title": "Households’ Inflation Expectations Survey",
            "link": "http://www.rbi.org.in/scripts/PublicationsView.aspx?id=18711",
            "description": "Today, the Reserve Bank released the results of the September 2018 round of the Inflation Expectations Survey of Households (IESH)1 2. The survey was conducted in 18 cities and the results are based on responses from 5,760 urban households covering various occupational ...",
            "permalink": "",
            "pubdate": "2018-10-05T17:15:00.000Z",
            "comments": "",
            "feedUrl": "https://www.rbi.org.in/Publication_rss.xml",
            "when": "2018-10-31T17:10:44.050Z",
            "aggregator": "River5 v0.4.14",
            "id": 252
        },
        {
            "title": "Consumer Confidence Survey",
            "link": "http://www.rbi.org.in/scripts/PublicationsView.aspx?id=18710",
            "description": "Today, the Reserve Bank released the results of the September 2018 round of its Consumer Confidence Survey (CCS)1. The survey was conducted in 13 major cities2 &ndash; Ahmedabad, Bengaluru, Bhopal, Chennai, Delhi, Guwahati, Hyderabad, Jaipur, Kolkata, Lucknow, Mumbai, Patna and ...",
            "permalink": "",
            "pubdate": "2018-10-05T17:15:00.000Z",
            "comments": "",
            "feedUrl": "https://www.rbi.org.in/Publication_rss.xml",
            "when": "2018-10-31T17:10:44.050Z",
            "aggregator": "River5 v0.4.14",
            "id": 253
        },
        {
            "title": "Monetary Policy Report – October 2018",
            "link": "http://www.rbi.org.in/scripts/PublicationsView.aspx?id=18709",
            "description": "Contents                    Chapter I: Macroeconomic Outlook                      I.1        Key Developments since April 2018 MPR                    I.2        The Outlook for Inflation                    I.3        The Outlook for Growth                    I.4        Balance ...",
            "permalink": "",
            "pubdate": "2018-10-05T14:30:00.000Z",
            "comments": "",
            "feedUrl": "https://www.rbi.org.in/Publication_rss.xml",
            "when": "2018-10-31T17:10:44.052Z",
            "aggregator": "River5 v0.4.14",
            "id": 254
        },
        {
            "title": "Certificates of Authorisation issued by the Reserve Bank of India under the Payment and Settlement Systems Act, 2007 for Setting up and Operating Payment System in India",
            "link": "http://www.rbi.org.in/scripts/PublicationsView.aspx?id=12043",
            "description": "A. Certificates of Authorisation issued by the Reserve Bank of India under the Payment and Settlement Systems Act, 2007 for Setting up and Operating Payment System in India    The Payment and Settlement Systems Act, 2007 along with the Board for Regulation and Supervision of ...",
            "permalink": "",
            "pubdate": "2018-10-01T14:10:00.000Z",
            "comments": "",
            "feedUrl": "https://www.rbi.org.in/Publication_rss.xml",
            "when": "2018-10-31T17:10:44.053Z",
            "aggregator": "River5 v0.4.14",
            "id": 255
        },
        {
            "title": "Monetary and Credit Information Review",
            "link": "http://www.rbi.org.in/scripts/PublicationsView.aspx?id=18715",
            "description": "Volume XIV  Issue 3      September 2018      MONETARY AND CREDIT INFORMATION REVIEW      Currency Management      RBI (Note Refund) Rules amended      The Reserve Bank on September 7, 2018 amended its Note Refund Rules, 2009 to enable the public to exchange mutilated notes in ...",
            "permalink": "",
            "pubdate": "2018-09-28T14:25:00.000Z",
            "comments": "",
            "feedUrl": "https://www.rbi.org.in/Publication_rss.xml",
            "when": "2018-10-31T17:10:44.054Z",
            "aggregator": "River5 v0.4.14",
            "id": 256
        },
        {
            "title": "Partial Credit Enhancement to Bonds Issued by Non-Banking Financial  Companies and Housing Finance Companies",
            "link": "http://www.rbi.org.in/scripts/NotificationUser.aspx?Id=11407&Mode=0",
            "description": "RBI/2018-19/70    DBR.BP.BC.No.7/21.04.142/2018-19    November 2, 2018    All Scheduled Commercial Banks(excluding RRBs)    Dear Sir/Madam,    Partial Credit Enhancement to Bonds Issued by Non-Banking Financial    Companies and Housing Finance Companies    Please refer to ...",
            "permalink": "",
            "pubdate": "2018-11-02T18:10:00.000Z",
            "comments": "",
            "feedUrl": "https://www.rbi.org.in/notifications_rss.xml",
            "when": "2018-11-05T05:14:38.688Z",
            "aggregator": "River5 v0.4.14",
            "id": 267
        },
        {
            "title": "RBI to conduct Overnight Variable rate Reverse Repo auction under LAF on November 5, 2018",
            "link": "http://www.rbi.org.in/scripts/BS_PressReleaseDisplay.aspx?prid=45404",
            "description": "The Reserve Bank of India will conduct the following Variable rate Reverse Repo auction on November 5, 2018, Monday, as per the revised guidelines on Term Repo Auctions issued on February 13, 2014.                         Sl. No.          Notified Amount             (&#8377; ...",
            "permalink": "",
            "pubdate": "2018-11-05T10:35:00.000Z",
            "comments": "",
            "feedUrl": "https://www.rbi.org.in/pressreleases_rss.xml",
            "when": "2018-11-05T05:14:39.874Z",
            "aggregator": "River5 v0.4.14",
            "id": 268
        },
        {
            "title": "Liquidity Adjustment Facility: Fixed Rate Reverse Repo Operations",
            "link": "http://www.rbi.org.in/scripts/BS_PressReleaseDisplay.aspx?prid=45403",
            "description": "The result of the RBI Fixed Rate Reverse Repo Operations held on November 03, 2018 is as under:                        Amount (face value in &#8377; Billion)                          Items          2 day Reverse Repo Auction          6.25% Fixed Rate                          1. ...",
            "permalink": "",
            "pubdate": "2018-11-05T10:15:00.000Z",
            "comments": "",
            "feedUrl": "https://www.rbi.org.in/pressreleases_rss.xml",
            "when": "2018-11-05T05:14:39.881Z",
            "aggregator": "River5 v0.4.14",
            "id": 269
        },
        {
            "title": "Liquidity Adjustment Facility: Fixed Rate Repo Operations",
            "link": "http://www.rbi.org.in/scripts/BS_PressReleaseDisplay.aspx?prid=45402",
            "description": "The result of the RBI Fixed Rate Repo Operations held on November 03, 2018 is as under:                        Amount (face value in &#8377; Billion)                          Items          2 day Repo Operations         6.50% Fixed Rate                          1. Bids received  ...",
            "permalink": "",
            "pubdate": "2018-11-05T10:10:00.000Z",
            "comments": "",
            "feedUrl": "https://www.rbi.org.in/pressreleases_rss.xml",
            "when": "2018-11-05T05:14:39.881Z",
            "aggregator": "River5 v0.4.14",
            "id": 270
        },
        {
            "title": "Money Market Operations as on November 02, 2018",
            "link": "http://www.rbi.org.in/scripts/BS_PressReleaseDisplay.aspx?prid=45401",
            "description": "(Amount in &#8377; billion, Rate in Per cent)                                        MONEY MARKETS @        &nbsp;        &nbsp;        &nbsp;                            Volume        Wtd.Avg.Rate         Range                            (One Leg)                                 ...",
            "permalink": "",
            "pubdate": "2018-11-05T09:00:00.000Z",
            "comments": "",
            "feedUrl": "https://www.rbi.org.in/pressreleases_rss.xml",
            "when": "2018-11-05T05:14:39.882Z",
            "aggregator": "River5 v0.4.14",
            "id": 271
        },
        {
            "title": "Liquidity Adjustment Facility: Fixed Rate Reverse Repo Operations",
            "link": "http://www.rbi.org.in/scripts/BS_PressReleaseDisplay.aspx?prid=45400",
            "description": "The result of the RBI Fixed Rate Reverse Repo Operations held on November 02, 2018 is as under:                        Amount (face value in &#8377; Billion)                          Items          3 day Reverse Repo Auction          6.25% Fixed Rate                          1. ...",
            "permalink": "",
            "pubdate": "2018-11-05T08:45:00.000Z",
            "comments": "",
            "feedUrl": "https://www.rbi.org.in/pressreleases_rss.xml",
            "when": "2018-11-05T05:14:39.882Z",
            "aggregator": "River5 v0.4.14",
            "id": 272
        },
        {
            "title": "Some Thoughts on Credit Risk and Bank Capital Regulation - Shri N.S. Vishwanathan, Deputy Governor, Reserve Bank of India - October 29, 2018 - Delivered at  XLRI, Jamshedpur",
            "link": "http://www.rbi.org.in/scripts/BS_SpeechesView.aspx?id=1067",
            "description": "It is a privilege to be welcomed within the precincts of one of the premier management institutes of the country and, more importantly, to get an opportunity to engage with some of the promising young minds and aspiring future leaders. All of you are going to enter the job ...",
            "permalink": "",
            "pubdate": "2018-11-02T20:25:00.000Z",
            "comments": "",
            "feedUrl": "https://www.rbi.org.in/speeches_rss.xml",
            "when": "2018-11-05T05:14:39.986Z",
            "aggregator": "River5 v0.4.14",
            "id": 273
        }
    ]
}